^C:\SP\SRC\PUBLIC\TIER0\POINTEROVERRIDE.ASM
C:\SP\SRC\GAME\SERVER\RELEASE_MOD_EPISODIC\POINTEROVERRIDE.OBJ
^C:\SP\SRC\GAME\SERVER\SERVER_EPISODIC.VPC
C:\SP\SRC\GAME\SERVER\SERVER_EPISODIC.VPC.SENTINEL
