^C:\SP\SRC\GAME\CLIENT\STDAFX.CPP
C:\SP\SRC\GAME\CLIENT\RELEASE_MOD_HL2\CLIENT.PCH
C:\SP\SRC\GAME\CLIENT\RELEASE_MOD_HL2\VC120.PDB
C:\SP\SRC\GAME\CLIENT\RELEASE_MOD_HL2\STDAFX.OBJ
^C:\SP\SRC\GAME\CLIENT\ACHIEVEMENT_NOTIFICATION_PANEL.CPP|C:\SP\SRC\GAME\CLIENT\ALPHAMATERIALPROXY.CPP|C:\SP\SRC\GAME\CLIENT\ANIMATEDENTITYTEXTUREPROXY.CPP|C:\SP\SRC\GAME\CLIENT\ANIMATEDOFFSETTEXTUREPROXY.CPP|C:\SP\SRC\GAME\CLIENT\ANIMATEDTEXTUREPROXY.CPP|C:\SP\SRC\GAME\CLIENT\ANIMATESPECIFICTEXTUREPROXY.CPP|C:\SP\SRC\GAME\CLIENT\BASEANIMATEDTEXTUREPROXY.CPP|C:\SP\SRC\GAME\CLIENT\BASECLIENTRENDERTARGETS.CPP|C:\SP\SRC\GAME\CLIENT\BASEPRESENCE.CPP|C:\SP\SRC\GAME\CLIENT\BEAMDRAW.CPP|C:\SP\SRC\GAME\CLIENT\BONE_MERGE_CACHE.CPP|C:\SP\SRC\GAME\CLIENT\CAMOMATERIALPROXY.CPP|C:\SP\SRC\GAME\CLIENT\CDLL_BOUNDED_CVARS.CPP|C:\SP\SRC\GAME\CLIENT\CDLL_CLIENT_INT.CPP|C:\SP\SRC\GAME\CLIENT\CDLL_UTIL.CPP|C:\SP\SRC\GAME\CLIENT\CLASSMAP.CPP|C:\SP\SRC\GAME\CLIENT\CLIENTEFFECTPRECACHESYSTEM.CPP|C:\SP\SRC\GAME\CLIENT\CLIENTENTITYLIST.CPP|C:\SP\SRC\GAME\CLIENT\CLIENTLEAFSYSTEM.CPP|C:\SP\SRC\GAME\CLIENT\CLIENTMODE_SHARED.CPP|C:\SP\SRC\GAME\CLIENT\CLIENTSHADOWMGR.CPP|C:\SP\SRC\GAME\CLIENT\CLIENTSIDEEFFECTS.CPP|C:\SP\SRC\GAME\CLIENT\CLIENTSIDEEFFECTS_TEST.CPP|C:\SP\SRC\GAME\CLIENT\CLIENTSTEAMCONTEXT.CPP|C:\SP\SRC\GAME\CLIENT\CLIENT_FACTORYLIST.CPP|C:\SP\SRC\GAME\CLIENT\CLIENT_THINKLIST.CPP|C:\SP\SRC\GAME\CLIENT\CLIENT_VIRTUALREALITY.CPP|C:\SP\SRC\GAME\CLIENT\CL_MAT_STUB.CPP|C:\SP\SRC\GAME\CLIENT\COLORCORRECTIONMGR.CPP|C:\SP\SRC\GAME\CLIENT\COMMENTARY_MODELVIEWER.CPP|C:\SP\SRC\GAME\CLIENT\C_AI_BASEHUMANOID.CPP|C:\SP\SRC\GAME\CLIENT\C_AI_BASENPC.CPP|C:\SP\SRC\GAME\CLIENT\C_BASEANIMATING.CPP|C:\SP\SRC\GAME\CLIENT\C_BASEANIMATINGOVERLAY.CPP|C:\SP\SRC\GAME\CLIENT\C_BASECOMBATCHARACTER.CPP|C:\SP\SRC\GAME\CLIENT\C_BASECOMBATWEAPON.CPP|C:\SP\SRC\GAME\CLIENT\C_BASEDOOR.CPP|C:\SP\SRC\GAME\CLIENT\C_BASEENTITY.CPP|C:\SP\SRC\GAME\CLIENT\C_BASEFLEX.CPP|C:\SP\SRC\GAME\CLIENT\C_BASEPLAYER.CPP|C:\SP\SRC\GAME\CLIENT\C_BASETEMPENTITY.CPP|C:\SP\SRC\GAME\CLIENT\C_BASEVIEWMODEL.CPP|C:\SP\SRC\GAME\CLIENT\C_BREAKABLEPROP.CPP|C:\SP\SRC\GAME\CLIENT\C_COLORCORRECTION.CPP|C:\SP\SRC\GAME\CLIENT\C_COLORCORRECTIONVOLUME.CPP|C:\SP\SRC\GAME\CLIENT\C_DYNAMICLIGHT.CPP|C:\SP\SRC\GAME\CLIENT\C_EFFECTS.CPP|C:\SP\SRC\GAME\CLIENT\C_ENTITYDISSOLVE.CPP|C:\SP\SRC\GAME\CLIENT\C_ENTITYPARTICLETRAIL.CPP|C:\SP\SRC\GAME\CLIENT\C_ENV_FOG_CONTROLLER.CPP|C:\SP\SRC\GAME\CLIENT\C_ENV_PARTICLESCRIPT.CPP|C:\SP\SRC\GAME\CLIENT\C_ENV_PROJECTEDTEXTURE.CPP|C:\SP\SRC\GAME\CLIENT\C_ENV_SCREENOVERLAY.CPP|C:\SP\SRC\GAME\CLIENT\C_ENV_TONEMAP_CONTROLLER.CPP|C:\SP\SRC\GAME\CLIENT\C_FIRE_SMOKE.CPP|C:\SP\SRC\GAME\CLIENT\C_FISH.CPP|C:\SP\SRC\GAME\CLIENT\C_FUNC_AREAPORTALWINDOW.CPP|C:\SP\SRC\GAME\CLIENT\C_FUNC_BREAKABLESURF.CPP|C:\SP\SRC\GAME\CLIENT\C_FUNC_CONVEYOR.CPP|C:\SP\SRC\GAME\CLIENT\C_FUNC_DUST.CPP|C:\SP\SRC\GAME\CLIENT\C_FUNC_LOD.CPP|C:\SP\SRC\GAME\CLIENT\C_FUNC_OCCLUDER.CPP|C:\SP\SRC\GAME\CLIENT\C_FUNC_REFLECTIVE_GLASS.CPP|C:\SP\SRC\GAME\CLIENT\C_FUNC_ROTATING.CPP|C:\SP\SRC\GAME\CLIENT\C_FUNC_SMOKEVOLUME.CPP|C:\SP\SRC\GAME\CLIENT\C_FUNC_TRACKTRAIN.CPP|C:\SP\SRC\GAME\CLIENT\C_GIB.CPP|C:\SP\SRC\GAME\CLIENT\C_HAIRBALL.CPP|C:\SP\SRC\GAME\CLIENT\C_IMPACT_EFFECTS.CPP|C:\SP\SRC\GAME\CLIENT\C_INFO_OVERLAY_ACCESSOR.CPP|C:\SP\SRC\GAME\CLIENT\C_LIGHTGLOW.CPP|C:\SP\SRC\GAME\CLIENT\C_MATERIALMODIFYCONTROL.CPP|C:\SP\SRC\GAME\CLIENT\C_MOVIE_EXPLOSION.CPP|C:\SP\SRC\GAME\CLIENT\C_PARTICLE_FIRE.CPP|C:\SP\SRC\GAME\CLIENT\C_PARTICLE_SMOKEGRENADE.CPP|C:\SP\SRC\GAME\CLIENT\C_PARTICLE_SYSTEM.CPP|C:\SP\SRC\GAME\CLIENT\C_PHYSBOX.CPP|C:\SP\SRC\GAME\CLIENT\C_PHYSICSPROP.CPP|C:\SP\SRC\GAME\CLIENT\C_PHYSMAGNET.CPP|C:\SP\SRC\GAME\CLIENT\C_PIXEL_VISIBILITY.CPP|C:\SP\SRC\GAME\CLIENT\C_PLASMA.CPP|C:\SP\SRC\GAME\CLIENT\C_PLAYERRESOURCE.CPP|C:\SP\SRC\GAME\CLIENT\C_POINT_CAMERA.CPP|C:\SP\SRC\GAME\CLIENT\C_POINT_COMMENTARY_NODE.CPP|C:\SP\SRC\GAME\CLIENT\C_PROPS.CPP|C:\SP\SRC\GAME\CLIENT\C_PROP_VEHICLE.CPP|C:\SP\SRC\GAME\CLIENT\C_RAGDOLL_MANAGER.CPP|C:\SP\SRC\GAME\CLIENT\C_RECIPIENTFILTER.CPP|C:\SP\SRC\GAME\CLIENT\C_ROPE.CPP|C:\SP\SRC\GAME\CLIENT\C_RUMBLE.CPP|C:\SP\SRC\GAME\CLIENT\C_SCENEENTITY.CPP|C:\SP\SRC\GAME\CLIENT\C_SHADOWCONTROL.CPP|C:\SP\SRC\GAME\CLIENT\C_SLIDESHOW_DISPLAY.CPP|C:\SP\SRC\GAME\CLIENT\C_SMOKESTACK.CPP|C:\SP\SRC\GAME\CLIENT\C_SMOKE_TRAIL.CPP|C:\SP\SRC\GAME\CLIENT\C_SOUNDSCAPE.CPP|C:\SP\SRC\GAME\CLIENT\C_SPOTLIGHT_END.CPP|C:\SP\SRC\GAME\CLIENT\C_SPRITE.CPP|C:\SP\SRC\GAME\CLIENT\C_SPRITE_PERFMONITOR.CPP|C:\SP\SRC\GAME\CLIENT\C_STEAMJET.CPP|C:\SP\SRC\GAME\CLIENT\C_STICKYBOLT.CPP|C:\SP\SRC\GAME\CLIENT\C_SUN.CPP|C:\SP\SRC\GAME\CLIENT\C_TE.CPP|C:\SP\SRC\GAME\CLIENT\C_TEAM.CPP|C:\SP\SRC\GAME\CLIENT\C_TEAM_OBJECTIVERESOURCE.CPP|C:\SP\SRC\GAME\CLIENT\C_TESLA.CPP|C:\SP\SRC\GAME\CLIENT\C_TESTTRACELINE.CPP|C:\SP\SRC\GAME\CLIENT\C_TEST_PROXYTOGGLE.CPP|C:\SP\SRC\GAME\CLIENT\C_TE_ARMORRICOCHET.CPP|C:\SP\SRC\GAME\CLIENT\C_TE_BASEBEAM.CPP|C:\SP\SRC\GAME\CLIENT\C_TE_BEAMENTPOINT.CPP|C:\SP\SRC\GAME\CLIENT\C_TE_BEAMENTS.CPP|C:\SP\SRC\GAME\CLIENT\C_TE_BEAMFOLLOW.CPP|C:\SP\SRC\GAME\CLIENT\C_TE_BEAMLASER.CPP|C:\SP\SRC\GAME\CLIENT\C_TE_BEAMPOINTS.CPP|C:\SP\SRC\GAME\CLIENT\C_TE_BEAMRING.CPP|C:\SP\SRC\GAME\CLIENT\C_TE_BEAMRINGPOINT.CPP|C:\SP\SRC\GAME\CLIENT\C_TE_BEAMSPLINE.CPP|C:\SP\SRC\GAME\CLIENT\C_TE_BLOODSPRITE.CPP|C:\SP\SRC\GAME\CLIENT\C_TE_BLOODSTREAM.CPP|C:\SP\SRC\GAME\CLIENT\C_TE_BREAKMODEL.CPP|C:\SP\SRC\GAME\CLIENT\C_TE_BSPDECAL.CPP|C:\SP\SRC\GAME\CLIENT\C_TE_BUBBLES.CPP|C:\SP\SRC\GAME\CLIENT\C_TE_BUBBLETRAIL.CPP|C:\SP\SRC\GAME\CLIENT\C_TE_CLIENTPROJECTILE.CPP|C:\SP\SRC\GAME\CLIENT\C_TE_DECAL.CPP|C:\SP\SRC\GAME\CLIENT\C_TE_DYNAMICLIGHT.CPP|C:\SP\SRC\GAME\CLIENT\C_TE_EFFECT_DISPATCH.CPP|C:\SP\SRC\GAME\CLIENT\C_TE_ENERGYSPLASH.CPP|C:\SP\SRC\GAME\CLIENT\C_TE_EXPLOSION.CPP|C:\SP\SRC\GAME\CLIENT\C_TE_FIZZ.CPP|C:\SP\SRC\GAME\CLIENT\C_TE_FOOTPRINT.CPP|C:\SP\SRC\GAME\CLIENT\C_TE_GLASSSHATTER.CPP|C:\SP\SRC\GAME\CLIENT\C_TE_GLOWSPRITE.CPP|C:\SP\SRC\GAME\CLIENT\C_TE_IMPACT.CPP|C:\SP\SRC\GAME\CLIENT\C_TE_KILLPLAYERATTACHMENTS.CPP|C:\SP\SRC\GAME\CLIENT\C_TE_LARGEFUNNEL.CPP|C:\SP\SRC\GAME\CLIENT\C_TE_LEGACYTEMPENTS.CPP|C:\SP\SRC\GAME\CLIENT\C_TE_MUZZLEFLASH.CPP|C:\SP\SRC\GAME\CLIENT\C_TE_PARTICLESYSTEM.CPP|C:\SP\SRC\GAME\CLIENT\C_TE_PHYSICSPROP.CPP|C:\SP\SRC\GAME\CLIENT\C_TE_PLAYERDECAL.CPP|C:\SP\SRC\GAME\CLIENT\C_TE_PROJECTEDDECAL.CPP|C:\SP\SRC\GAME\CLIENT\C_TE_SHOWLINE.CPP|C:\SP\SRC\GAME\CLIENT\C_TE_SMOKE.CPP|C:\SP\SRC\GAME\CLIENT\C_TE_SPARKS.CPP|C:\SP\SRC\GAME\CLIENT\C_TE_SPRITE.CPP|C:\SP\SRC\GAME\CLIENT\C_TE_SPRITESPRAY.CPP|C:\SP\SRC\GAME\CLIENT\C_TE_WORLDDECAL.CPP|C:\SP\SRC\GAME\CLIENT\C_TRACER.CPP|C:\SP\SRC\GAME\CLIENT\C_USER_MESSAGE_REGISTER.CPP|C:\SP\SRC\GAME\CLIENT\C_VEHICLE_CHOREO_GENERIC.CPP|C:\SP\SRC\GAME\CLIENT\C_VEHICLE_JEEP.CPP|C:\SP\SRC\GAME\CLIENT\C_VGUISCREEN.CPP|C:\SP\SRC\GAME\CLIENT\C_VOTE_CONTROLLER.CPP|C:\SP\SRC\GAME\CLIENT\C_WATERLODCONTROL.CPP|C:\SP\SRC\GAME\CLIENT\C_WORLD.CPP|C:\SP\SRC\GAME\CLIENT\DEATH.CPP|C:\SP\SRC\GAME\CLIENT\DETAILOBJECTSYSTEM.CPP|C:\SP\SRC\GAME\CLIENT\DUMMYPROXY.CPP|C:\SP\SRC\GAME\CLIENT\EFFECTSCLIENT.CPP|C:\SP\SRC\GAME\CLIENT\ENTITYORIGINMATERIALPROXY.CPP|C:\SP\SRC\GAME\CLIENT\ENTITY_CLIENT_TOOLS.CPP|C:\SP\SRC\GAME\CLIENT\EPISODIC\C_VORT_CHARGE_TOKEN.CPP|C:\SP\SRC\GAME\CLIENT\FLASHLIGHTEFFECT.CPP|C:\SP\SRC\GAME\CLIENT\FUNCTIONPROXY.CPP|C:\SP\SRC\GAME\CLIENT\FX.CPP|C:\SP\SRC\GAME\CLIENT\FX_BLOOD.CPP|C:\SP\SRC\GAME\CLIENT\FX_CUBE.CPP|C:\SP\SRC\GAME\CLIENT\FX_DISCREETLINE.CPP|C:\SP\SRC\GAME\CLIENT\FX_ENVELOPE.CPP|C:\SP\SRC\GAME\CLIENT\FX_EXPLOSION.CPP|C:\SP\SRC\GAME\CLIENT\FX_FLECK.CPP|C:\SP\SRC\GAME\CLIENT\FX_IMPACT.CPP|C:\SP\SRC\GAME\CLIENT\FX_INTERPVALUE.CPP|C:\SP\SRC\GAME\CLIENT\FX_LINE.CPP|C:\SP\SRC\GAME\CLIENT\FX_QUAD.CPP|C:\SP\SRC\GAME\CLIENT\FX_SHELLEJECT.CPP|C:\SP\SRC\GAME\CLIENT\FX_SPARKS.CPP|C:\SP\SRC\GAME\CLIENT\FX_STATICLINE.CPP|C:\SP\SRC\GAME\CLIENT\FX_TRACER.CPP|C:\SP\SRC\GAME\CLIENT\FX_TRAIL.CPP|C:\SP\SRC\GAME\CLIENT\FX_WATER.CPP|C:\SP\SRC\GAME\CLIENT\GAMETRACE_CLIENT.CPP|C:\SP\SRC\GAME\CLIENT\GAME_CONTROLS\BASEMODELPANEL.CPP|C:\SP\SRC\GAME\CLIENT\GAME_CONTROLS\BASEMODEL_PANEL.CPP|C:\SP\SRC\GAME\CLIENT\GAME_CONTROLS\BASEVIEWPORT.CPP|C:\SP\SRC\GAME\CLIENT\GAME_CONTROLS\CLIENTSCOREBOARDDIALOG.CPP|C:\SP\SRC\GAME\CLIENT\GAME_CONTROLS\COMMANDMENU.CPP|C:\SP\SRC\GAME\CLIENT\GAME_CONTROLS\ICONPANEL.CPP|C:\SP\SRC\GAME\CLIENT\GAME_CONTROLS\INTROMENU.CPP|C:\SP\SRC\GAME\CLIENT\GAME_CONTROLS\MAPOVERVIEW.CPP|C:\SP\SRC\GAME\CLIENT\GAME_CONTROLS\NAVPROGRESS.CPP|C:\SP\SRC\GAME\CLIENT\GAME_CONTROLS\SPECTATORGUI.CPP|C:\SP\SRC\GAME\CLIENT\GAME_CONTROLS\TEAMMENU.CPP|C:\SP\SRC\GAME\CLIENT\GAME_CONTROLS\VGUITEXTWINDOW.CPP|C:\SP\SRC\GAME\CLIENT\GEIGER.CPP|C:\SP\SRC\GAME\CLIENT\GLOW_OUTLINE_EFFECT.CPP|C:\SP\SRC\GAME\CLIENT\GLOW_OVERLAY.CPP|C:\SP\SRC\GAME\CLIENT\HISTORY_RESOURCE.CPP|C:\SP\SRC\GAME\CLIENT\HL2\CLIENTMODE_HLNORMAL.CPP|C:\SP\SRC\GAME\CLIENT\HL2\C_ANTLION_DUST.CPP|C:\SP\SRC\GAME\CLIENT\HL2\C_AR2_EXPLOSION.CPP|C:\SP\SRC\GAME\CLIENT\HL2\C_BARNACLE.CPP|C:\SP\SRC\GAME\CLIENT\HL2\C_BARNEY.CPP|C:\SP\SRC\GAME\CLIENT\HL2\C_BASEHELICOPTER.CPP|C:\SP\SRC\GAME\CLIENT\HL2\C_BASEHLCOMBATWEAPON.CPP|C:\SP\SRC\GAME\CLIENT\HL2\C_BASEHLPLAYER.CPP|C:\SP\SRC\GAME\CLIENT\HL2\C_CITADEL_EFFECTS.CPP|C:\SP\SRC\GAME\CLIENT\HL2\C_CORPSE.CPP|C:\SP\SRC\GAME\CLIENT\HL2\C_ENV_ALYXTEMP.CPP|C:\SP\SRC\GAME\CLIENT\HL2\C_ENV_HEADCRABCANISTER.CPP|C:\SP\SRC\GAME\CLIENT\HL2\C_ENV_STARFIELD.CPP|C:\SP\SRC\GAME\CLIENT\HL2\C_FUNC_MONITOR.CPP|C:\SP\SRC\GAME\CLIENT\HL2\C_FUNC_TANKMORTAR.CPP|C:\SP\SRC\GAME\CLIENT\HL2\C_HL2_PLAYERLOCALDATA.CPP|C:\SP\SRC\GAME\CLIENT\HL2\C_INFO_TELEPORTER_COUNTDOWN.CPP|C:\SP\SRC\GAME\CLIENT\HL2\C_NPC_ANTLIONGUARD.CPP|C:\SP\SRC\GAME\CLIENT\HL2\C_NPC_COMBINEGUNSHIP.CPP|C:\SP\SRC\GAME\CLIENT\HL2\C_NPC_MANHACK.CPP|C:\SP\SRC\GAME\CLIENT\HL2\C_NPC_ROLLERMINE.CPP|C:\SP\SRC\GAME\CLIENT\HL2\C_PLASMA_BEAM_NODE.CPP|C:\SP\SRC\GAME\CLIENT\HL2\C_PROP_COMBINE_BALL.CPP|C:\SP\SRC\GAME\CLIENT\HL2\C_ROTORWASH.CPP|C:\SP\SRC\GAME\CLIENT\HL2\C_SCRIPT_INTRO.CPP|C:\SP\SRC\GAME\CLIENT\HL2\C_STRIDER.CPP|C:\SP\SRC\GAME\CLIENT\HL2\C_TE_CONCUSSIVEEXPLOSION.CPP|C:\SP\SRC\GAME\CLIENT\HL2\C_TE_FLARE.CPP|C:\SP\SRC\GAME\CLIENT\HL2\C_THUMPER_DUST.CPP|C:\SP\SRC\GAME\CLIENT\HL2\C_VEHICLE_AIRBOAT.CPP|C:\SP\SRC\GAME\CLIENT\HL2\C_VEHICLE_CANNON.CPP|C:\SP\SRC\GAME\CLIENT\HL2\C_VEHICLE_CRANE.CPP|C:\SP\SRC\GAME\CLIENT\HL2\C_VEHICLE_PRISONER_POD.CPP|C:\SP\SRC\GAME\CLIENT\HL2\C_WATERBULLET.CPP|C:\SP\SRC\GAME\CLIENT\HL2\C_WEAPON_CROSSBOW.CPP|C:\SP\SRC\GAME\CLIENT\HL2\C_WEAPON_PHYSCANNON.CPP|C:\SP\SRC\GAME\CLIENT\HL2\C_WEAPON_STUNSTICK.CPP|C:\SP\SRC\GAME\CLIENT\HL2\C_WEAPON__STUBS_HL2.CPP|C:\SP\SRC\GAME\CLIENT\HL2\FX_ANTLION.CPP|C:\SP\SRC\GAME\CLIENT\HL2\FX_BUGBAIT.CPP|C:\SP\SRC\GAME\CLIENT\HL2\FX_HL2_IMPACTS.CPP|C:\SP\SRC\GAME\CLIENT\HL2\FX_HL2_TRACERS.CPP|C:\SP\SRC\GAME\CLIENT\HL2\HL2_CLIENTMODE.CPP|C:\SP\SRC\GAME\CLIENT\HL2\HL_IN_MAIN.CPP|C:\SP\SRC\GAME\CLIENT\HL2\HL_PREDICTION.CPP|C:\SP\SRC\GAME\CLIENT\HL2\HUD_AMMO.CPP|C:\SP\SRC\GAME\CLIENT\HL2\HUD_AUTOAIM.CPP|C:\SP\SRC\GAME\CLIENT\HL2\HUD_BATTERY.CPP|C:\SP\SRC\GAME\CLIENT\HL2\HUD_BLOOD.CPP|C:\SP\SRC\GAME\CLIENT\HL2\HUD_CREDITS.CPP|C:\SP\SRC\GAME\CLIENT\HL2\HUD_DAMAGEINDICATOR.CPP|C:\SP\SRC\GAME\CLIENT\HL2\HUD_FILMDEMO.CPP|C:\SP\SRC\GAME\CLIENT\HL2\HUD_FLASHLIGHT.CPP|C:\SP\SRC\GAME\CLIENT\HL2\HUD_HDRDEMO.CPP|C:\SP\SRC\GAME\CLIENT\HL2\HUD_HEALTH.CPP|C:\SP\SRC\GAME\CLIENT\HL2\HUD_POISONDAMAGEINDICATOR.CPP|C:\SP\SRC\GAME\CLIENT\HL2\HUD_QUICKINFO.CPP|C:\SP\SRC\GAME\CLIENT\HL2\HUD_SUITPOWER.CPP|C:\SP\SRC\GAME\CLIENT\HL2\HUD_WEAPONSELECTION.CPP|C:\SP\SRC\GAME\CLIENT\HL2\HUD_ZOOM.CPP|C:\SP\SRC\GAME\CLIENT\HL2\SHIELDPROXY.CPP|C:\SP\SRC\GAME\CLIENT\HL2\VGUI_ROOTPANEL_HL2.CPP|C:\SP\SRC\GAME\CLIENT\HLTVCAMERA.CPP|C:\SP\SRC\GAME\CLIENT\HUD.CPP|C:\SP\SRC\GAME\CLIENT\HUD_ANIMATIONINFO.CPP|C:\SP\SRC\GAME\CLIENT\HUD_BASECHAT.CPP|C:\SP\SRC\GAME\CLIENT\HUD_BASETIMER.CPP|C:\SP\SRC\GAME\CLIENT\HUD_BITMAPNUMERICDISPLAY.CPP|C:\SP\SRC\GAME\CLIENT\HUD_CHAT.CPP|C:\SP\SRC\GAME\CLIENT\HUD_CLOSECAPTION.CPP|C:\SP\SRC\GAME\CLIENT\HUD_CROSSHAIR.CPP|C:\SP\SRC\GAME\CLIENT\HUD_ELEMENT_HELPER.CPP|C:\SP\SRC\GAME\CLIENT\HUD_HINTDISPLAY.CPP|C:\SP\SRC\GAME\CLIENT\HUD_MSG.CPP|C:\SP\SRC\GAME\CLIENT\HUD_NUMERICDISPLAY.CPP|C:\SP\SRC\GAME\CLIENT\HUD_PDUMP.CPP|C:\SP\SRC\GAME\CLIENT\HUD_POSTURE.CPP|C:\SP\SRC\GAME\CLIENT\HUD_REDRAW.CPP|C:\SP\SRC\GAME\CLIENT\HUD_SQUADSTATUS.CPP|C:\SP\SRC\GAME\CLIENT\HUD_VEHICLE.CPP|C:\SP\SRC\GAME\CLIENT\HUD_WEAPON.CPP|C:\SP\SRC\GAME\CLIENT\INITIALIZER.CPP|C:\SP\SRC\GAME\CLIENT\INTERPOLATEDVAR.CPP|C:\SP\SRC\GAME\CLIENT\IN_CAMERA.CPP|C:\SP\SRC\GAME\CLIENT\IN_JOYSTICK.CPP|C:\SP\SRC\GAME\CLIENT\IN_MAIN.CPP|C:\SP\SRC\GAME\CLIENT\ISNPCPROXY.CPP|C:\SP\SRC\GAME\CLIENT\LAMPBEAMPROXY.CPP|C:\SP\SRC\GAME\CLIENT\LAMPHALOPROXY.CPP|C:\SP\SRC\GAME\CLIENT\MATHPROXY.CPP|C:\SP\SRC\GAME\CLIENT\MATRIXPROXY.CPP|C:\SP\SRC\GAME\CLIENT\MENU.CPP|C:\SP\SRC\GAME\CLIENT\MESSAGE.CPP|C:\SP\SRC\GAME\CLIENT\MOVEHELPER_CLIENT.CPP|C:\SP\SRC\GAME\CLIENT\MP3PLAYER.CPP|C:\SP\SRC\GAME\CLIENT\PANELMETACLASSMGR.CPP|C:\SP\SRC\GAME\CLIENT\PARTICLEMGR.CPP|C:\SP\SRC\GAME\CLIENT\PARTICLESPHERERENDERER.CPP|C:\SP\SRC\GAME\CLIENT\PARTICLES_ATTRACTOR.CPP|C:\SP\SRC\GAME\CLIENT\PARTICLES_EZ.CPP|C:\SP\SRC\GAME\CLIENT\PARTICLES_LOCALSPACE.CPP|C:\SP\SRC\GAME\CLIENT\PARTICLES_NEW.CPP|C:\SP\SRC\GAME\CLIENT\PARTICLES_SIMPLE.CPP|C:\SP\SRC\GAME\CLIENT\PARTICLE_COLLISION.CPP|C:\SP\SRC\GAME\CLIENT\PARTICLE_LITSMOKEEMITTER.CPP|C:\SP\SRC\GAME\CLIENT\PARTICLE_PROXIES.CPP|C:\SP\SRC\GAME\CLIENT\PARTICLE_SIMPLE3D.CPP|C:\SP\SRC\GAME\CLIENT\PERFVISUALBENCHMARK.CPP|C:\SP\SRC\GAME\CLIENT\PHYSICS.CPP|C:\SP\SRC\GAME\CLIENT\PHYSICS_MAIN_CLIENT.CPP|C:\SP\SRC\GAME\CLIENT\PHYSPROPCLIENTSIDE.CPP|C:\SP\SRC\GAME\CLIENT\PLAYERANDOBJECTENUMERATOR.CPP|C:\SP\SRC\GAME\CLIENT\PLAYERSPAWNCACHE.CPP|C:\SP\SRC\GAME\CLIENT\PREDICTION.CPP|C:\SP\SRC\GAME\CLIENT\PROXYENTITY.CPP|C:\SP\SRC\GAME\CLIENT\PROXYHEALTH.CPP|C:\SP\SRC\GAME\CLIENT\PROXYPLAYER.CPP|C:\SP\SRC\GAME\CLIENT\PROXYPUPIL.CPP|C:\SP\SRC\GAME\CLIENT\RAGDOLL.CPP|C:\SP\SRC\GAME\CLIENT\RECVPROXY.CPP|C:\SP\SRC\GAME\CLIENT\REPLAY\CDLL_REPLAY.CPP|C:\SP\SRC\GAME\CLIENT\REPLAY\REPLAYCAMERA.CPP|C:\SP\SRC\GAME\CLIENT\SCREENSPACEEFFECTS.CPP|C:\SP\SRC\GAME\CLIENT\SIMPLE_KEYS.CPP|C:\SP\SRC\GAME\CLIENT\SIXENSE\IN_SIXENSE.CPP|C:\SP\SRC\GAME\CLIENT\SIXENSE\IN_SIXENSE_GESTURE_BINDINGS.CPP|C:\SP\SRC\GAME\CLIENT\SMOKE_FOG_OVERLAY.CPP|C:\SP\SRC\GAME\CLIENT\SPLINEPATCH.CPP|C:\SP\SRC\GAME\CLIENT\SPRITEMODEL.CPP|C:\SP\SRC\GAME\CLIENT\STUDIO_STATS.CPP|C:\SP\SRC\GAME\CLIENT\TEXTURESCROLLMATERIALPROXY.CPP|C:\SP\SRC\GAME\CLIENT\TEXT_MESSAGE.CPP|C:\SP\SRC\GAME\CLIENT\TIMEMATERIALPROXY.CPP|C:\SP\SRC\GAME\CLIENT\TOGGLETEXTUREPROXY.CPP|C:\SP\SRC\GAME\CLIENT\TOOLFRAMEWORK_CLIENT.CPP|C:\SP\SRC\GAME\CLIENT\TRAIN.CPP|C:\SP\SRC\GAME\CLIENT\VGUI_AVATARIMAGE.CPP|C:\SP\SRC\GAME\CLIENT\VGUI_BASEPANEL.CPP|C:\SP\SRC\GAME\CLIENT\VGUI_BITMAPBUTTON.CPP|C:\SP\SRC\GAME\CLIENT\VGUI_BITMAPIMAGE.CPP|C:\SP\SRC\GAME\CLIENT\VGUI_BITMAPPANEL.CPP|C:\SP\SRC\GAME\CLIENT\VGUI_CENTERSTRINGPANEL.CPP|C:\SP\SRC\GAME\CLIENT\VGUI_CONSOLEPANEL.CPP|C:\SP\SRC\GAME\CLIENT\VGUI_DEBUGOVERLAYPANEL.CPP|C:\SP\SRC\GAME\CLIENT\VGUI_FPSPANEL.CPP|C:\SP\SRC\GAME\CLIENT\VGUI_GAME_VIEWPORT.CPP|C:\SP\SRC\GAME\CLIENT\VGUI_GRID.CPP|C:\SP\SRC\GAME\CLIENT\VGUI_INT.CPP|C:\SP\SRC\GAME\CLIENT\VGUI_LOADINGDISCPANEL.CPP|C:\SP\SRC\GAME\CLIENT\VGUI_MESSAGECHARS.CPP|C:\SP\SRC\GAME\CLIENT\VGUI_NETGRAPHPANEL.CPP|C:\SP\SRC\GAME\CLIENT\VGUI_SCHEMEVISUALIZER.CPP|C:\SP\SRC\GAME\CLIENT\VGUI_SLIDESHOW_DISPLAY_SCREEN.CPP|C:\SP\SRC\GAME\CLIENT\VGUI_VIDEO.CPP|C:\SP\SRC\GAME\CLIENT\VGUI_VIDEO_PLAYER.CPP|C:\SP\SRC\GAME\CLIENT\VIEW.CPP|C:\SP\SRC\GAME\CLIENT\VIEWANGLEANIM.CPP|C:\SP\SRC\GAME\CLIENT\VIEWCONEIMAGE.CPP|C:\SP\SRC\GAME\CLIENT\VIEWDEBUG.CPP|C:\SP\SRC\GAME\CLIENT\VIEWPOSTPROCESS.CPP|C:\SP\SRC\GAME\CLIENT\VIEWRENDER.CPP|C:\SP\SRC\GAME\CLIENT\VIEW_BEAMS.CPP|C:\SP\SRC\GAME\CLIENT\VIEW_EFFECTS.CPP|C:\SP\SRC\GAME\CLIENT\VIEW_SCENE.CPP|C:\SP\SRC\GAME\CLIENT\WARP_OVERLAY.CPP|C:\SP\SRC\GAME\CLIENT\WATERLODMATERIALPROXY.CPP|C:\SP\SRC\GAME\CLIENT\WEAPONS_RESOURCE.CPP|C:\SP\SRC\GAME\CLIENT\WEAPON_SELECTION.CPP|C:\SP\SRC\GAME\CLIENT\WORLDDIMSPROXY.CPP|C:\SP\SRC\GAME\SHARED\ACHIEVEMENTMGR.CPP|C:\SP\SRC\GAME\SHARED\ACHIEVEMENTS_HLX.CPP|C:\SP\SRC\GAME\SHARED\ACHIEVEMENT_SAVERESTORE.CPP|C:\SP\SRC\GAME\SHARED\ACTIVITYLIST.CPP|C:\SP\SRC\GAME\SHARED\AMMODEF.CPP|C:\SP\SRC\GAME\SHARED\ANIMATION.CPP|C:\SP\SRC\GAME\SHARED\BASEACHIEVEMENT.CPP|C:\SP\SRC\GAME\SHARED\BASECOMBATCHARACTER_SHARED.CPP|C:\SP\SRC\GAME\SHARED\BASECOMBATWEAPON_SHARED.CPP|C:\SP\SRC\GAME\SHARED\BASEENTITY_SHARED.CPP|C:\SP\SRC\GAME\SHARED\BASEGRENADE_SHARED.CPP|C:\SP\SRC\GAME\SHARED\BASEPARTICLEENTITY.CPP|C:\SP\SRC\GAME\SHARED\BASEPLAYER_SHARED.CPP|C:\SP\SRC\GAME\SHARED\BASEPROJECTILE.CPP|C:\SP\SRC\GAME\SHARED\BASEVIEWMODEL_SHARED.CPP|C:\SP\SRC\GAME\SHARED\BASE_PLAYERANIMSTATE.CPP|C:\SP\SRC\GAME\SHARED\BEAM_SHARED.CPP|C:\SP\SRC\GAME\SHARED\CAM_THIRDPERSON.CPP|C:\SP\SRC\GAME\SHARED\COLLISIONPROPERTY.CPP|C:\SP\SRC\GAME\SHARED\DEATH_POSE.CPP|C:\SP\SRC\GAME\SHARED\DEBUGOVERLAY_SHARED.CPP|C:\SP\SRC\GAME\SHARED\DECALS.CPP|C:\SP\SRC\GAME\SHARED\EFFECT_DISPATCH_DATA.CPP|C:\SP\SRC\GAME\SHARED\EHANDLE.CPP|C:\SP\SRC\GAME\SHARED\ENTITYLIST_BASE.CPP|C:\SP\SRC\GAME\SHARED\ENTITYPARTICLETRAIL_SHARED.CPP|C:\SP\SRC\GAME\SHARED\ENV_DETAIL_CONTROLLER.CPP|C:\SP\SRC\GAME\SHARED\ENV_WIND_SHARED.CPP|C:\SP\SRC\GAME\SHARED\EVENTLIST.CPP|C:\SP\SRC\GAME\SHARED\FUNC_LADDER.CPP|C:\SP\SRC\GAME\SHARED\GAMEMOVEMENT.CPP|C:\SP\SRC\GAME\SHARED\GAMERULES.CPP|C:\SP\SRC\GAME\SHARED\GAMERULES_REGISTER.CPP|C:\SP\SRC\GAME\SHARED\GAMESTATS.CPP|C:\SP\SRC\GAME\SHARED\GAMESTRINGPOOL.CPP|C:\SP\SRC\GAME\SHARED\GAMEVARS_SHARED.CPP|C:\SP\SRC\GAME\SHARED\HINTMESSAGE.CPP|C:\SP\SRC\GAME\SHARED\HINTSYSTEM.CPP|C:\SP\SRC\GAME\SHARED\HL2\ACHIEVEMENTS_HL2.CPP|C:\SP\SRC\GAME\SHARED\HL2\BASEHLCOMBATWEAPON_SHARED.CPP|C:\SP\SRC\GAME\SHARED\HL2\ENV_HEADCRABCANISTER_SHARED.CPP|C:\SP\SRC\GAME\SHARED\HL2\HL2_GAMERULES.CPP|C:\SP\SRC\GAME\SHARED\HL2\HL2_USERMESSAGES.CPP|C:\SP\SRC\GAME\SHARED\HL2\HL_GAMEMOVEMENT.CPP|C:\SP\SRC\GAME\SHARED\IGAMESYSTEM.CPP|C:\SP\SRC\GAME\SHARED\MAPENTITIES_SHARED.CPP|C:\SP\SRC\GAME\SHARED\MOVEVARS_SHARED.CPP|C:\SP\SRC\GAME\SHARED\MP_SHAREDDEFS.CPP|C:\SP\SRC\GAME\SHARED\MULTIPLAY_GAMERULES.CPP|C:\SP\SRC\GAME\SHARED\OBSTACLE_PUSHAWAY.CPP|C:\SP\SRC\GAME\SHARED\PARTICLESYSTEMQUERY.CPP|C:\SP\SRC\GAME\SHARED\PARTICLE_PARSE.CPP|C:\SP\SRC\GAME\SHARED\PARTICLE_PROPERTY.CPP|C:\SP\SRC\GAME\SHARED\PHYSICS_MAIN_SHARED.CPP|C:\SP\SRC\GAME\SHARED\PHYSICS_SAVERESTORE.CPP|C:\SP\SRC\GAME\SHARED\PHYSICS_SHARED.CPP|C:\SP\SRC\GAME\SHARED\POINT_BONUSMAPS_ACCESSOR.CPP|C:\SP\SRC\GAME\SHARED\POINT_POSECONTROLLER.CPP|C:\SP\SRC\GAME\SHARED\PRECACHE_REGISTER.CPP|C:\SP\SRC\GAME\SHARED\PREDICTABLEID.CPP|C:\SP\SRC\GAME\SHARED\PREDICTIONCOPY.CPP|C:\SP\SRC\GAME\SHARED\PROPS_SHARED.CPP|C:\SP\SRC\GAME\SHARED\RAGDOLL_SHARED.CPP|C:\SP\SRC\GAME\SHARED\ROPE_HELPERS.CPP|C:\SP\SRC\GAME\SHARED\SAVERESTORE.CPP|C:\SP\SRC\GAME\SHARED\SCENEENTITY_SHARED.CPP|C:\SP\SRC\GAME\SHARED\SCRIPT_INTRO_SHARED.CPP|C:\SP\SRC\GAME\SHARED\SEQUENCE_TRANSITIONER.CPP|C:\SP\SRC\GAME\SHARED\SIMTIMER.CPP|C:\SP\SRC\GAME\SHARED\SINGLEPLAY_GAMERULES.CPP|C:\SP\SRC\GAME\SHARED\SIXENSE\SIXENSE_CONVARS.CPP|C:\SP\SRC\GAME\SHARED\SOUNDEMITTERSYSTEM.CPP|C:\SP\SRC\GAME\SHARED\SOUNDENVELOPE.CPP|C:\SP\SRC\GAME\SHARED\SPRITE.CPP|C:\SP\SRC\GAME\SHARED\SPRITETRAIL.CPP|C:\SP\SRC\GAME\SHARED\STUDIO_SHARED.CPP|C:\SP\SRC\GAME\SHARED\TAKEDAMAGEINFO.CPP|C:\SP\SRC\GAME\SHARED\TEAMPLAYROUNDBASED_GAMERULES.CPP|C:\SP\SRC\GAME\SHARED\TEAMPLAY_GAMERULES.CPP|C:\SP\SRC\GAME\SHARED\TEST_EHANDLE.CPP|C:\SP\SRC\GAME\SHARED\USERCMD.CPP|C:\SP\SRC\GAME\SHARED\USERMESSAGES.CPP|C:\SP\SRC\GAME\SHARED\UTIL_SHARED.CPP|C:\SP\SRC\GAME\SHARED\VEHICLE_VIEWBLEND_SHARED.CPP|C:\SP\SRC\GAME\SHARED\VOICE_BANMGR.CPP|C:\SP\SRC\GAME\SHARED\VOICE_STATUS.CPP|C:\SP\SRC\GAME\SHARED\WEAPON_PARSE.CPP|C:\SP\SRC\GAME\SHARED\WEAPON_PARSE_DEFAULT.CPP|C:\SP\SRC\PUBLIC\BONE_ACCESSOR.CPP|C:\SP\SRC\PUBLIC\HAPTICS\HAPTIC_MSGS.CPP|C:\SP\SRC\PUBLIC\HAPTICS\HAPTIC_UTILS.CPP|C:\SP\SRC\PUBLIC\SOUNDPARAMETERSINTERNAL.CPP|C:\SP\SRC\PUBLIC\TOOLS\BONELIST.CPP
C:\SP\SRC\GAME\CLIENT\RELEASE_MOD_HL2\ACHIEVEMENT_SAVERESTORE.OBJ
C:\SP\SRC\GAME\CLIENT\RELEASE_MOD_HL2\ANIMATEDENTITYTEXTUREPROXY.OBJ
C:\SP\SRC\GAME\CLIENT\RELEASE_MOD_HL2\ANIMATEDOFFSETTEXTUREPROXY.OBJ
C:\SP\SRC\GAME\CLIENT\RELEASE_MOD_HL2\ANIMATESPECIFICTEXTUREPROXY.OBJ
C:\SP\SRC\GAME\CLIENT\RELEASE_MOD_HL2\BASEACHIEVEMENT.OBJ
C:\SP\SRC\GAME\CLIENT\RELEASE_MOD_HL2\BEAM_SHARED.OBJ
C:\SP\SRC\GAME\CLIENT\RELEASE_MOD_HL2\C_BASEPLAYER.OBJ
C:\SP\SRC\GAME\CLIENT\RELEASE_MOD_HL2\C_FUNC_REFLECTIVE_GLASS.OBJ
C:\SP\SRC\GAME\CLIENT\RELEASE_MOD_HL2\C_LIGHTGLOW.OBJ
C:\SP\SRC\GAME\CLIENT\RELEASE_MOD_HL2\C_PHYSICSPROP.OBJ
C:\SP\SRC\GAME\CLIENT\RELEASE_MOD_HL2\C_PROPS.OBJ
C:\SP\SRC\GAME\CLIENT\RELEASE_MOD_HL2\C_SPOTLIGHT_END.OBJ
C:\SP\SRC\GAME\CLIENT\RELEASE_MOD_HL2\C_SPRITE.OBJ
C:\SP\SRC\GAME\CLIENT\RELEASE_MOD_HL2\C_TEST_PROXYTOGGLE.OBJ
C:\SP\SRC\GAME\CLIENT\RELEASE_MOD_HL2\C_WATERLODCONTROL.OBJ
C:\SP\SRC\GAME\CLIENT\RELEASE_MOD_HL2\CAM_THIRDPERSON.OBJ
C:\SP\SRC\GAME\CLIENT\RELEASE_MOD_HL2\CDLL_CLIENT_INT.OBJ
C:\SP\SRC\GAME\CLIENT\RELEASE_MOD_HL2\HAPTIC_MSGS.OBJ
C:\SP\SRC\GAME\CLIENT\RELEASE_MOD_HL2\HINTSYSTEM.OBJ
C:\SP\SRC\GAME\CLIENT\RELEASE_MOD_HL2\HLTVCAMERA.OBJ
C:\SP\SRC\GAME\CLIENT\RELEASE_MOD_HL2\HUD_AUTOAIM.OBJ
C:\SP\SRC\GAME\CLIENT\RELEASE_MOD_HL2\HUD_CLOSECAPTION.OBJ
C:\SP\SRC\GAME\CLIENT\RELEASE_MOD_HL2\IGAMESYSTEM.OBJ
C:\SP\SRC\GAME\CLIENT\RELEASE_MOD_HL2\IN_MAIN.OBJ
C:\SP\SRC\GAME\CLIENT\RELEASE_MOD_HL2\PARTICLE_PROXIES.OBJ
C:\SP\SRC\GAME\CLIENT\RELEASE_MOD_HL2\PARTICLEMGR.OBJ
C:\SP\SRC\GAME\CLIENT\RELEASE_MOD_HL2\PLAYERSPAWNCACHE.OBJ
C:\SP\SRC\GAME\CLIENT\RELEASE_MOD_HL2\PRECACHE_REGISTER.OBJ
C:\SP\SRC\GAME\CLIENT\RELEASE_MOD_HL2\PROPS_SHARED.OBJ
C:\SP\SRC\GAME\CLIENT\RELEASE_MOD_HL2\SEQUENCE_TRANSITIONER.OBJ
C:\SP\SRC\GAME\CLIENT\RELEASE_MOD_HL2\SIMPLE_KEYS.OBJ
C:\SP\SRC\GAME\CLIENT\RELEASE_MOD_HL2\SIMTIMER.OBJ
C:\SP\SRC\GAME\CLIENT\RELEASE_MOD_HL2\SINGLEPLAY_GAMERULES.OBJ
C:\SP\SRC\GAME\CLIENT\RELEASE_MOD_HL2\SOUNDEMITTERSYSTEM.OBJ
C:\SP\SRC\GAME\CLIENT\RELEASE_MOD_HL2\VGUI_BITMAPIMAGE.OBJ
C:\SP\SRC\GAME\CLIENT\RELEASE_MOD_HL2\VGUI_GAME_VIEWPORT.OBJ
C:\SP\SRC\GAME\CLIENT\RELEASE_MOD_HL2\VGUI_GRID.OBJ
C:\SP\SRC\GAME\CLIENT\RELEASE_MOD_HL2\VGUI_SCHEMEVISUALIZER.OBJ
C:\SP\SRC\GAME\CLIENT\RELEASE_MOD_HL2\VIEW_EFFECTS.OBJ
C:\SP\SRC\GAME\CLIENT\RELEASE_MOD_HL2\WATERLODMATERIALPROXY.OBJ
C:\SP\SRC\GAME\CLIENT\RELEASE_MOD_HL2\WEAPON_PARSE.OBJ
C:\SP\SRC\GAME\CLIENT\RELEASE_MOD_HL2\BASEMODELPANEL.OBJ
C:\SP\SRC\GAME\CLIENT\RELEASE_MOD_HL2\MAPOVERVIEW.OBJ
C:\SP\SRC\GAME\CLIENT\RELEASE_MOD_HL2\C_BARNEY.OBJ
C:\SP\SRC\GAME\CLIENT\RELEASE_MOD_HL2\C_BASEHLCOMBATWEAPON.OBJ
C:\SP\SRC\GAME\CLIENT\RELEASE_MOD_HL2\C_CORPSE.OBJ
C:\SP\SRC\GAME\CLIENT\RELEASE_MOD_HL2\C_FUNC_TANKMORTAR.OBJ
C:\SP\SRC\GAME\CLIENT\RELEASE_MOD_HL2\C_NPC_MANHACK.OBJ
C:\SP\SRC\GAME\CLIENT\RELEASE_MOD_HL2\C_PLASMA_BEAM_NODE.OBJ
C:\SP\SRC\GAME\CLIENT\RELEASE_MOD_HL2\C_PROP_COMBINE_BALL.OBJ
C:\SP\SRC\GAME\CLIENT\RELEASE_MOD_HL2\C_TE_FLARE.OBJ
C:\SP\SRC\GAME\CLIENT\RELEASE_MOD_HL2\C_VEHICLE_PRISONER_POD.OBJ
C:\SP\SRC\GAME\CLIENT\RELEASE_MOD_HL2\C_WEAPON_CROSSBOW.OBJ
C:\SP\SRC\GAME\CLIENT\RELEASE_MOD_HL2\C_WEAPON_STUNSTICK.OBJ
C:\SP\SRC\GAME\CLIENT\RELEASE_MOD_HL2\HL2_CLIENTMODE.OBJ
C:\SP\SRC\GAME\CLIENT\RELEASE_MOD_HL2\HUD_POSTURE.OBJ
C:\SP\SRC\GAME\CLIENT\RELEASE_MOD_HL2\SCRIPT_INTRO_SHARED.OBJ
C:\SP\SRC\GAME\CLIENT\RELEASE_MOD_HL2\VGUI_ROOTPANEL_HL2.OBJ
C:\SP\SRC\GAME\CLIENT\RELEASE_MOD_HL2\IN_SIXENSE.OBJ
C:\SP\SRC\GAME\CLIENT\RELEASE_MOD_HL2\SIXENSE_CONVARS.OBJ
C:\SP\SRC\GAME\CLIENT\RELEASE_MOD_HL2\C_EFFECTS.OBJ
C:\SP\SRC\GAME\CLIENT\RELEASE_MOD_HL2\C_TE_BEAMENTS.OBJ
C:\SP\SRC\GAME\CLIENT\RELEASE_MOD_HL2\C_TE_BEAMRING.OBJ
C:\SP\SRC\GAME\CLIENT\RELEASE_MOD_HL2\C_TE_BSPDECAL.OBJ
C:\SP\SRC\GAME\CLIENT\RELEASE_MOD_HL2\C_TE_EFFECT_DISPATCH.OBJ
C:\SP\SRC\GAME\CLIENT\RELEASE_MOD_HL2\C_TE_GLOWSPRITE.OBJ
C:\SP\SRC\GAME\CLIENT\RELEASE_MOD_HL2\C_TE_SMOKE.OBJ
C:\SP\SRC\GAME\CLIENT\RELEASE_MOD_HL2\C_TE_SPRITESPRAY.OBJ
C:\SP\SRC\GAME\CLIENT\RELEASE_MOD_HL2\FX_DISCREETLINE.OBJ
C:\SP\SRC\GAME\CLIENT\RELEASE_MOD_HL2\FX_SPARKS.OBJ
C:\SP\SRC\GAME\CLIENT\RELEASE_MOD_HL2\ACHIEVEMENT_NOTIFICATION_PANEL.OBJ
C:\SP\SRC\GAME\CLIENT\RELEASE_MOD_HL2\BONE_ACCESSOR.OBJ
C:\SP\SRC\GAME\CLIENT\RELEASE_MOD_HL2\BONE_MERGE_CACHE.OBJ
C:\SP\SRC\GAME\CLIENT\RELEASE_MOD_HL2\C_BASEANIMATINGOVERLAY.OBJ
C:\SP\SRC\GAME\CLIENT\RELEASE_MOD_HL2\C_BASEVIEWMODEL.OBJ
C:\SP\SRC\GAME\CLIENT\RELEASE_MOD_HL2\C_BREAKABLEPROP.OBJ
C:\SP\SRC\GAME\CLIENT\RELEASE_MOD_HL2\C_COLORCORRECTION.OBJ
C:\SP\SRC\GAME\CLIENT\RELEASE_MOD_HL2\C_ENV_FOG_CONTROLLER.OBJ
C:\SP\SRC\GAME\CLIENT\RELEASE_MOD_HL2\C_ENV_PROJECTEDTEXTURE.OBJ
C:\SP\SRC\GAME\CLIENT\RELEASE_MOD_HL2\C_ENV_TONEMAP_CONTROLLER.OBJ
C:\SP\SRC\GAME\CLIENT\RELEASE_MOD_HL2\C_FISH.OBJ
C:\SP\SRC\GAME\CLIENT\RELEASE_MOD_HL2\C_FUNC_CONVEYOR.OBJ
C:\SP\SRC\GAME\CLIENT\RELEASE_MOD_HL2\C_FUNC_MONITOR.OBJ
C:\SP\SRC\GAME\CLIENT\RELEASE_MOD_HL2\C_GIB.OBJ
C:\SP\SRC\GAME\CLIENT\RELEASE_MOD_HL2\C_PHYSMAGNET.OBJ
C:\SP\SRC\GAME\CLIENT\RELEASE_MOD_HL2\C_POINT_CAMERA.OBJ
C:\SP\SRC\GAME\CLIENT\RELEASE_MOD_HL2\C_RAGDOLL_MANAGER.OBJ
C:\SP\SRC\GAME\CLIENT\RELEASE_MOD_HL2\C_SHADOWCONTROL.OBJ
C:\SP\SRC\GAME\CLIENT\RELEASE_MOD_HL2\C_SOUNDSCAPE.OBJ
C:\SP\SRC\GAME\CLIENT\RELEASE_MOD_HL2\C_SPRITE_PERFMONITOR.OBJ
C:\SP\SRC\GAME\CLIENT\RELEASE_MOD_HL2\C_TEAM_OBJECTIVERESOURCE.OBJ
C:\SP\SRC\GAME\CLIENT\RELEASE_MOD_HL2\C_VEHICLE_JEEP.OBJ
C:\SP\SRC\GAME\CLIENT\RELEASE_MOD_HL2\C_WORLD.OBJ
C:\SP\SRC\GAME\CLIENT\RELEASE_MOD_HL2\CLASSMAP.OBJ
C:\SP\SRC\GAME\CLIENT\RELEASE_MOD_HL2\CLIENT_VIRTUALREALITY.OBJ
C:\SP\SRC\GAME\CLIENT\RELEASE_MOD_HL2\CLIENTSIDEEFFECTS_TEST.OBJ
C:\SP\SRC\GAME\CLIENT\RELEASE_MOD_HL2\COLLISIONPROPERTY.OBJ
C:\SP\SRC\GAME\CLIENT\RELEASE_MOD_HL2\COLORCORRECTIONMGR.OBJ
C:\SP\SRC\GAME\CLIENT\RELEASE_MOD_HL2\DEATH_POSE.OBJ
C:\SP\SRC\GAME\CLIENT\RELEASE_MOD_HL2\DEBUGOVERLAY_SHARED.OBJ
C:\SP\SRC\GAME\CLIENT\RELEASE_MOD_HL2\DUMMYPROXY.OBJ
C:\SP\SRC\GAME\CLIENT\RELEASE_MOD_HL2\EFFECT_DISPATCH_DATA.OBJ
C:\SP\SRC\GAME\CLIENT\RELEASE_MOD_HL2\EFFECTSCLIENT.OBJ
C:\SP\SRC\GAME\CLIENT\RELEASE_MOD_HL2\EHANDLE.OBJ
C:\SP\SRC\GAME\CLIENT\RELEASE_MOD_HL2\ENTITYLIST_BASE.OBJ
C:\SP\SRC\GAME\CLIENT\RELEASE_MOD_HL2\ENTITYORIGINMATERIALPROXY.OBJ
C:\SP\SRC\GAME\CLIENT\RELEASE_MOD_HL2\ENV_WIND_SHARED.OBJ
C:\SP\SRC\GAME\CLIENT\RELEASE_MOD_HL2\FUNC_LADDER.OBJ
C:\SP\SRC\GAME\CLIENT\RELEASE_MOD_HL2\FX_FLECK.OBJ
C:\SP\SRC\GAME\CLIENT\RELEASE_MOD_HL2\FX_INTERPVALUE.OBJ
C:\SP\SRC\GAME\CLIENT\RELEASE_MOD_HL2\FX_QUAD.OBJ
C:\SP\SRC\GAME\CLIENT\RELEASE_MOD_HL2\FX_TRACER.OBJ
C:\SP\SRC\GAME\CLIENT\RELEASE_MOD_HL2\GAMEMOVEMENT.OBJ
C:\SP\SRC\GAME\CLIENT\RELEASE_MOD_HL2\GAMESTRINGPOOL.OBJ
C:\SP\SRC\GAME\CLIENT\RELEASE_MOD_HL2\GAMETRACE_CLIENT.OBJ
C:\SP\SRC\GAME\CLIENT\RELEASE_MOD_HL2\GAMEVARS_SHARED.OBJ
C:\SP\SRC\GAME\CLIENT\RELEASE_MOD_HL2\GLOW_OVERLAY.OBJ
C:\SP\SRC\GAME\CLIENT\RELEASE_MOD_HL2\HUD_ANIMATIONINFO.OBJ
C:\SP\SRC\GAME\CLIENT\RELEASE_MOD_HL2\HUD_BITMAPNUMERICDISPLAY.OBJ
C:\SP\SRC\GAME\CLIENT\RELEASE_MOD_HL2\HUD_HDRDEMO.OBJ
C:\SP\SRC\GAME\CLIENT\RELEASE_MOD_HL2\HUD_REDRAW.OBJ
C:\SP\SRC\GAME\CLIENT\RELEASE_MOD_HL2\MATHPROXY.OBJ
C:\SP\SRC\GAME\CLIENT\RELEASE_MOD_HL2\MOVEHELPER_CLIENT.OBJ
C:\SP\SRC\GAME\CLIENT\RELEASE_MOD_HL2\PARTICLE_COLLISION.OBJ
C:\SP\SRC\GAME\CLIENT\RELEASE_MOD_HL2\PARTICLE_LITSMOKEEMITTER.OBJ
C:\SP\SRC\GAME\CLIENT\RELEASE_MOD_HL2\PARTICLE_PROPERTY.OBJ
C:\SP\SRC\GAME\CLIENT\RELEASE_MOD_HL2\PARTICLE_SIMPLE3D.OBJ
C:\SP\SRC\GAME\CLIENT\RELEASE_MOD_HL2\PARTICLES_EZ.OBJ
C:\SP\SRC\GAME\CLIENT\RELEASE_MOD_HL2\PARTICLES_SIMPLE.OBJ
C:\SP\SRC\GAME\CLIENT\RELEASE_MOD_HL2\PHYSICS.OBJ
C:\SP\SRC\GAME\CLIENT\RELEASE_MOD_HL2\POINT_BONUSMAPS_ACCESSOR.OBJ
C:\SP\SRC\GAME\CLIENT\RELEASE_MOD_HL2\PREDICTION.OBJ
C:\SP\SRC\GAME\CLIENT\RELEASE_MOD_HL2\SPRITETRAIL.OBJ
C:\SP\SRC\GAME\CLIENT\RELEASE_MOD_HL2\TEST_EHANDLE.OBJ
C:\SP\SRC\GAME\CLIENT\RELEASE_MOD_HL2\TRAIN.OBJ
C:\SP\SRC\GAME\CLIENT\RELEASE_MOD_HL2\VGUI_BITMAPPANEL.OBJ
C:\SP\SRC\GAME\CLIENT\RELEASE_MOD_HL2\VGUI_INT.OBJ
C:\SP\SRC\GAME\CLIENT\RELEASE_MOD_HL2\VGUI_VIDEO_PLAYER.OBJ
C:\SP\SRC\GAME\CLIENT\RELEASE_MOD_HL2\VIEWDEBUG.OBJ
C:\SP\SRC\GAME\CLIENT\RELEASE_MOD_HL2\VOICE_BANMGR.OBJ
C:\SP\SRC\GAME\CLIENT\RELEASE_MOD_HL2\WARP_OVERLAY.OBJ
C:\SP\SRC\GAME\CLIENT\RELEASE_MOD_HL2\WEAPONS_RESOURCE.OBJ
C:\SP\SRC\GAME\CLIENT\RELEASE_MOD_HL2\BASEVIEWPORT.OBJ
C:\SP\SRC\GAME\CLIENT\RELEASE_MOD_HL2\C_BASEHELICOPTER.OBJ
C:\SP\SRC\GAME\CLIENT\RELEASE_MOD_HL2\C_BASEHLPLAYER.OBJ
C:\SP\SRC\GAME\CLIENT\RELEASE_MOD_HL2\C_ENV_STARFIELD.OBJ
C:\SP\SRC\GAME\CLIENT\RELEASE_MOD_HL2\C_INFO_TELEPORTER_COUNTDOWN.OBJ
C:\SP\SRC\GAME\CLIENT\RELEASE_MOD_HL2\HL_PREDICTION.OBJ
C:\SP\SRC\GAME\CLIENT\RELEASE_MOD_HL2\HUD_BLOOD.OBJ
C:\SP\SRC\GAME\CLIENT\RELEASE_MOD_HL2\HUD_CREDITS.OBJ
C:\SP\SRC\GAME\CLIENT\RELEASE_MOD_HL2\HUD_SUITPOWER.OBJ
C:\SP\SRC\GAME\CLIENT\RELEASE_MOD_HL2\C_MOVIE_EXPLOSION.OBJ
C:\SP\SRC\GAME\CLIENT\RELEASE_MOD_HL2\C_PARTICLE_SMOKEGRENADE.OBJ
C:\SP\SRC\GAME\CLIENT\RELEASE_MOD_HL2\C_STICKYBOLT.OBJ
C:\SP\SRC\GAME\CLIENT\RELEASE_MOD_HL2\C_TE_BASEBEAM.OBJ
C:\SP\SRC\GAME\CLIENT\RELEASE_MOD_HL2\C_TE_BEAMFOLLOW.OBJ
C:\SP\SRC\GAME\CLIENT\RELEASE_MOD_HL2\C_TE_BEAMSPLINE.OBJ
C:\SP\SRC\GAME\CLIENT\RELEASE_MOD_HL2\C_TE_BUBBLES.OBJ
C:\SP\SRC\GAME\CLIENT\RELEASE_MOD_HL2\C_TE_ENERGYSPLASH.OBJ
C:\SP\SRC\GAME\CLIENT\RELEASE_MOD_HL2\C_TE_GLASSSHATTER.OBJ
C:\SP\SRC\GAME\CLIENT\RELEASE_MOD_HL2\C_TE_PLAYERDECAL.OBJ
C:\SP\SRC\GAME\CLIENT\RELEASE_MOD_HL2\SMOKE_FOG_OVERLAY.OBJ
C:\SP\SRC\GAME\CLIENT\RELEASE_MOD_HL2\CDLL_REPLAY.OBJ
C:\SP\SRC\GAME\CLIENT\RELEASE_MOD_HL2\ACTIVITYLIST.OBJ
C:\SP\SRC\GAME\CLIENT\RELEASE_MOD_HL2\BASEENTITY_SHARED.OBJ
C:\SP\SRC\GAME\CLIENT\RELEASE_MOD_HL2\BASEPLAYER_SHARED.OBJ
C:\SP\SRC\GAME\CLIENT\RELEASE_MOD_HL2\C_AI_BASENPC.OBJ
C:\SP\SRC\GAME\CLIENT\RELEASE_MOD_HL2\C_BASEDOOR.OBJ
C:\SP\SRC\GAME\CLIENT\RELEASE_MOD_HL2\C_BASEFLEX.OBJ
C:\SP\SRC\GAME\CLIENT\RELEASE_MOD_HL2\C_FUNC_ROTATING.OBJ
C:\SP\SRC\GAME\CLIENT\RELEASE_MOD_HL2\C_HAIRBALL.OBJ
C:\SP\SRC\GAME\CLIENT\RELEASE_MOD_HL2\C_PIXEL_VISIBILITY.OBJ
C:\SP\SRC\GAME\CLIENT\RELEASE_MOD_HL2\C_SLIDESHOW_DISPLAY.OBJ
C:\SP\SRC\GAME\CLIENT\RELEASE_MOD_HL2\C_SUN.OBJ
C:\SP\SRC\GAME\CLIENT\RELEASE_MOD_HL2\C_TESLA.OBJ
C:\SP\SRC\GAME\CLIENT\RELEASE_MOD_HL2\C_VEHICLE_CHOREO_GENERIC.OBJ
C:\SP\SRC\GAME\CLIENT\RELEASE_MOD_HL2\CDLL_BOUNDED_CVARS.OBJ
C:\SP\SRC\GAME\CLIENT\RELEASE_MOD_HL2\CDLL_UTIL.OBJ
C:\SP\SRC\GAME\CLIENT\RELEASE_MOD_HL2\CLIENTMODE_SHARED.OBJ
C:\SP\SRC\GAME\CLIENT\RELEASE_MOD_HL2\GLOW_OUTLINE_EFFECT.OBJ
C:\SP\SRC\GAME\CLIENT\RELEASE_MOD_HL2\HINTMESSAGE.OBJ
C:\SP\SRC\GAME\CLIENT\RELEASE_MOD_HL2\HUD.OBJ
C:\SP\SRC\GAME\CLIENT\RELEASE_MOD_HL2\HUD_ELEMENT_HELPER.OBJ
C:\SP\SRC\GAME\CLIENT\RELEASE_MOD_HL2\HUD_FILMDEMO.OBJ
C:\SP\SRC\GAME\CLIENT\RELEASE_MOD_HL2\HUD_PDUMP.OBJ
C:\SP\SRC\GAME\CLIENT\RELEASE_MOD_HL2\IN_JOYSTICK.OBJ
C:\SP\SRC\GAME\CLIENT\RELEASE_MOD_HL2\ISNPCPROXY.OBJ
C:\SP\SRC\GAME\CLIENT\RELEASE_MOD_HL2\LAMPHALOPROXY.OBJ
C:\SP\SRC\GAME\CLIENT\RELEASE_MOD_HL2\MENU.OBJ
C:\SP\SRC\GAME\CLIENT\RELEASE_MOD_HL2\PERFVISUALBENCHMARK.OBJ
C:\SP\SRC\GAME\CLIENT\RELEASE_MOD_HL2\PHYSICS_SHARED.OBJ
C:\SP\SRC\GAME\CLIENT\RELEASE_MOD_HL2\PLAYERANDOBJECTENUMERATOR.OBJ
C:\SP\SRC\GAME\CLIENT\RELEASE_MOD_HL2\PREDICTABLEID.OBJ
C:\SP\SRC\GAME\CLIENT\RELEASE_MOD_HL2\PREDICTIONCOPY.OBJ
C:\SP\SRC\GAME\CLIENT\RELEASE_MOD_HL2\RAGDOLL.OBJ
C:\SP\SRC\GAME\CLIENT\RELEASE_MOD_HL2\SPRITE.OBJ
C:\SP\SRC\GAME\CLIENT\RELEASE_MOD_HL2\TEAMPLAYROUNDBASED_GAMERULES.OBJ
C:\SP\SRC\GAME\CLIENT\RELEASE_MOD_HL2\VGUI_CENTERSTRINGPANEL.OBJ
C:\SP\SRC\GAME\CLIENT\RELEASE_MOD_HL2\VGUI_MESSAGECHARS.OBJ
C:\SP\SRC\GAME\CLIENT\RELEASE_MOD_HL2\VIEW.OBJ
C:\SP\SRC\GAME\CLIENT\RELEASE_MOD_HL2\VIEWANGLEANIM.OBJ
C:\SP\SRC\GAME\CLIENT\RELEASE_MOD_HL2\VOICE_STATUS.OBJ
C:\SP\SRC\GAME\CLIENT\RELEASE_MOD_HL2\CLIENTSCOREBOARDDIALOG.OBJ
C:\SP\SRC\GAME\CLIENT\RELEASE_MOD_HL2\SPECTATORGUI.OBJ
C:\SP\SRC\GAME\CLIENT\RELEASE_MOD_HL2\C_ENV_HEADCRABCANISTER.OBJ
C:\SP\SRC\GAME\CLIENT\RELEASE_MOD_HL2\C_NPC_COMBINEGUNSHIP.OBJ
C:\SP\SRC\GAME\CLIENT\RELEASE_MOD_HL2\C_SCRIPT_INTRO.OBJ
C:\SP\SRC\GAME\CLIENT\RELEASE_MOD_HL2\C_VEHICLE_AIRBOAT.OBJ
C:\SP\SRC\GAME\CLIENT\RELEASE_MOD_HL2\DEATH.OBJ
C:\SP\SRC\GAME\CLIENT\RELEASE_MOD_HL2\HUD_AMMO.OBJ
C:\SP\SRC\GAME\CLIENT\RELEASE_MOD_HL2\HUD_HEALTH.OBJ
C:\SP\SRC\GAME\CLIENT\RELEASE_MOD_HL2\HUD_WEAPONSELECTION.OBJ
C:\SP\SRC\GAME\CLIENT\RELEASE_MOD_HL2\C_RECIPIENTFILTER.OBJ
C:\SP\SRC\GAME\CLIENT\RELEASE_MOD_HL2\C_STEAMJET.OBJ
C:\SP\SRC\GAME\CLIENT\RELEASE_MOD_HL2\C_TE_ARMORRICOCHET.OBJ
C:\SP\SRC\GAME\CLIENT\RELEASE_MOD_HL2\C_TE_BEAMRINGPOINT.OBJ
C:\SP\SRC\GAME\CLIENT\RELEASE_MOD_HL2\C_TE_BREAKMODEL.OBJ
C:\SP\SRC\GAME\CLIENT\RELEASE_MOD_HL2\C_TE_DECAL.OBJ
C:\SP\SRC\GAME\CLIENT\RELEASE_MOD_HL2\C_TE_KILLPLAYERATTACHMENTS.OBJ
C:\SP\SRC\GAME\CLIENT\RELEASE_MOD_HL2\C_TE_MUZZLEFLASH.OBJ
C:\SP\SRC\GAME\CLIENT\RELEASE_MOD_HL2\C_TE_SHOWLINE.OBJ
C:\SP\SRC\GAME\CLIENT\RELEASE_MOD_HL2\C_TE_SPRITE.OBJ
C:\SP\SRC\GAME\CLIENT\RELEASE_MOD_HL2\FX.OBJ
C:\SP\SRC\GAME\CLIENT\RELEASE_MOD_HL2\ACHIEVEMENTMGR.OBJ
C:\SP\SRC\GAME\CLIENT\RELEASE_MOD_HL2\C_AI_BASEHUMANOID.OBJ
C:\SP\SRC\GAME\CLIENT\RELEASE_MOD_HL2\C_BASEANIMATING.OBJ
C:\SP\SRC\GAME\CLIENT\RELEASE_MOD_HL2\C_FUNC_BREAKABLESURF.OBJ
C:\SP\SRC\GAME\CLIENT\RELEASE_MOD_HL2\C_FUNC_OCCLUDER.OBJ
C:\SP\SRC\GAME\CLIENT\RELEASE_MOD_HL2\C_INFO_OVERLAY_ACCESSOR.OBJ
C:\SP\SRC\GAME\CLIENT\RELEASE_MOD_HL2\C_PHYSBOX.OBJ
C:\SP\SRC\GAME\CLIENT\RELEASE_MOD_HL2\C_PLASMA.OBJ
C:\SP\SRC\GAME\CLIENT\RELEASE_MOD_HL2\C_RUMBLE.OBJ
C:\SP\SRC\GAME\CLIENT\RELEASE_MOD_HL2\C_SCENEENTITY.OBJ
C:\SP\SRC\GAME\CLIENT\RELEASE_MOD_HL2\C_VOTE_CONTROLLER.OBJ
C:\SP\SRC\GAME\CLIENT\RELEASE_MOD_HL2\CLIENTLEAFSYSTEM.OBJ
C:\SP\SRC\GAME\CLIENT\RELEASE_MOD_HL2\COMMENTARY_MODELVIEWER.OBJ
C:\SP\SRC\GAME\CLIENT\RELEASE_MOD_HL2\GEIGER.OBJ
C:\SP\SRC\GAME\CLIENT\RELEASE_MOD_HL2\HUD_BASECHAT.OBJ
C:\SP\SRC\GAME\CLIENT\RELEASE_MOD_HL2\HUD_HINTDISPLAY.OBJ
C:\SP\SRC\GAME\CLIENT\RELEASE_MOD_HL2\HUD_WEAPON.OBJ
C:\SP\SRC\GAME\CLIENT\RELEASE_MOD_HL2\MP_SHAREDDEFS.OBJ
C:\SP\SRC\GAME\CLIENT\RELEASE_MOD_HL2\MULTIPLAY_GAMERULES.OBJ
C:\SP\SRC\GAME\CLIENT\RELEASE_MOD_HL2\PARTICLE_PARSE.OBJ
C:\SP\SRC\GAME\CLIENT\RELEASE_MOD_HL2\PARTICLES_ATTRACTOR.OBJ
C:\SP\SRC\GAME\CLIENT\RELEASE_MOD_HL2\PARTICLES_LOCALSPACE.OBJ
C:\SP\SRC\GAME\CLIENT\RELEASE_MOD_HL2\PARTICLES_NEW.OBJ
C:\SP\SRC\GAME\CLIENT\RELEASE_MOD_HL2\PHYSICS_MAIN_SHARED.OBJ
C:\SP\SRC\GAME\CLIENT\RELEASE_MOD_HL2\SAVERESTORE.OBJ
C:\SP\SRC\GAME\CLIENT\RELEASE_MOD_HL2\STUDIO_SHARED.OBJ
C:\SP\SRC\GAME\CLIENT\RELEASE_MOD_HL2\STUDIO_STATS.OBJ
C:\SP\SRC\GAME\CLIENT\RELEASE_MOD_HL2\VEHICLE_VIEWBLEND_SHARED.OBJ
C:\SP\SRC\GAME\CLIENT\RELEASE_MOD_HL2\VGUI_BITMAPBUTTON.OBJ
C:\SP\SRC\GAME\CLIENT\RELEASE_MOD_HL2\VGUI_DEBUGOVERLAYPANEL.OBJ
C:\SP\SRC\GAME\CLIENT\RELEASE_MOD_HL2\VGUI_NETGRAPHPANEL.OBJ
C:\SP\SRC\GAME\CLIENT\RELEASE_MOD_HL2\VIEW_BEAMS.OBJ
C:\SP\SRC\GAME\CLIENT\RELEASE_MOD_HL2\VIEW_SCENE.OBJ
C:\SP\SRC\GAME\CLIENT\RELEASE_MOD_HL2\VIEWRENDER.OBJ
C:\SP\SRC\GAME\CLIENT\RELEASE_MOD_HL2\TEAMMENU.OBJ
C:\SP\SRC\GAME\CLIENT\RELEASE_MOD_HL2\C_STRIDER.OBJ
C:\SP\SRC\GAME\CLIENT\RELEASE_MOD_HL2\C_WEAPON_PHYSCANNON.OBJ
C:\SP\SRC\GAME\CLIENT\RELEASE_MOD_HL2\FX_ANTLION.OBJ
C:\SP\SRC\GAME\CLIENT\RELEASE_MOD_HL2\FX_HL2_IMPACTS.OBJ
C:\SP\SRC\GAME\CLIENT\RELEASE_MOD_HL2\HL2_GAMERULES.OBJ
C:\SP\SRC\GAME\CLIENT\RELEASE_MOD_HL2\HL_GAMEMOVEMENT.OBJ
C:\SP\SRC\GAME\CLIENT\RELEASE_MOD_HL2\HUD_DAMAGEINDICATOR.OBJ
C:\SP\SRC\GAME\CLIENT\RELEASE_MOD_HL2\HUD_QUICKINFO.OBJ
C:\SP\SRC\GAME\CLIENT\RELEASE_MOD_HL2\SHIELDPROXY.OBJ
C:\SP\SRC\GAME\CLIENT\RELEASE_MOD_HL2\IN_SIXENSE_GESTURE_BINDINGS.OBJ
C:\SP\SRC\GAME\CLIENT\RELEASE_MOD_HL2\C_BASETEMPENTITY.OBJ
C:\SP\SRC\GAME\CLIENT\RELEASE_MOD_HL2\C_IMPACT_EFFECTS.OBJ
C:\SP\SRC\GAME\CLIENT\RELEASE_MOD_HL2\C_SMOKE_TRAIL.OBJ
C:\SP\SRC\GAME\CLIENT\RELEASE_MOD_HL2\C_TE_BEAMENTPOINT.OBJ
C:\SP\SRC\GAME\CLIENT\RELEASE_MOD_HL2\C_TE_BEAMLASER.OBJ
C:\SP\SRC\GAME\CLIENT\RELEASE_MOD_HL2\C_TE_BLOODSPRITE.OBJ
C:\SP\SRC\GAME\CLIENT\RELEASE_MOD_HL2\C_TE_CLIENTPROJECTILE.OBJ
C:\SP\SRC\GAME\CLIENT\RELEASE_MOD_HL2\C_TE_FIZZ.OBJ
C:\SP\SRC\GAME\CLIENT\RELEASE_MOD_HL2\C_TE_IMPACT.OBJ
C:\SP\SRC\GAME\CLIENT\RELEASE_MOD_HL2\C_TE_LEGACYTEMPENTS.OBJ
C:\SP\SRC\GAME\CLIENT\RELEASE_MOD_HL2\PARTICLESPHERERENDERER.OBJ
C:\SP\SRC\GAME\CLIENT\RELEASE_MOD_HL2\ENTITY_CLIENT_TOOLS.OBJ
C:\SP\SRC\GAME\CLIENT\RELEASE_MOD_HL2\REPLAYCAMERA.OBJ
C:\SP\SRC\GAME\CLIENT\RELEASE_MOD_HL2\ACHIEVEMENTS_HLX.OBJ
C:\SP\SRC\GAME\CLIENT\RELEASE_MOD_HL2\ALPHAMATERIALPROXY.OBJ
C:\SP\SRC\GAME\CLIENT\RELEASE_MOD_HL2\ANIMATEDTEXTUREPROXY.OBJ
C:\SP\SRC\GAME\CLIENT\RELEASE_MOD_HL2\ANIMATION.OBJ
C:\SP\SRC\GAME\CLIENT\RELEASE_MOD_HL2\BASEANIMATEDTEXTUREPROXY.OBJ
C:\SP\SRC\GAME\CLIENT\RELEASE_MOD_HL2\BASECOMBATCHARACTER_SHARED.OBJ
C:\SP\SRC\GAME\CLIENT\RELEASE_MOD_HL2\BASEGRENADE_SHARED.OBJ
C:\SP\SRC\GAME\CLIENT\RELEASE_MOD_HL2\BASEPRESENCE.OBJ
C:\SP\SRC\GAME\CLIENT\RELEASE_MOD_HL2\BASEVIEWMODEL_SHARED.OBJ
C:\SP\SRC\GAME\CLIENT\RELEASE_MOD_HL2\C_BASECOMBATCHARACTER.OBJ
C:\SP\SRC\GAME\CLIENT\RELEASE_MOD_HL2\C_BASEENTITY.OBJ
C:\SP\SRC\GAME\CLIENT\RELEASE_MOD_HL2\C_DYNAMICLIGHT.OBJ
C:\SP\SRC\GAME\CLIENT\RELEASE_MOD_HL2\C_ENTITYDISSOLVE.OBJ
C:\SP\SRC\GAME\CLIENT\RELEASE_MOD_HL2\C_ENV_SCREENOVERLAY.OBJ
C:\SP\SRC\GAME\CLIENT\RELEASE_MOD_HL2\C_FUNC_AREAPORTALWINDOW.OBJ
C:\SP\SRC\GAME\CLIENT\RELEASE_MOD_HL2\C_FUNC_DUST.OBJ
C:\SP\SRC\GAME\CLIENT\RELEASE_MOD_HL2\C_FUNC_TRACKTRAIN.OBJ
C:\SP\SRC\GAME\CLIENT\RELEASE_MOD_HL2\C_MATERIALMODIFYCONTROL.OBJ
C:\SP\SRC\GAME\CLIENT\RELEASE_MOD_HL2\C_PLAYERRESOURCE.OBJ
C:\SP\SRC\GAME\CLIENT\RELEASE_MOD_HL2\C_ROPE.OBJ
C:\SP\SRC\GAME\CLIENT\RELEASE_MOD_HL2\C_TEAM.OBJ
C:\SP\SRC\GAME\CLIENT\RELEASE_MOD_HL2\C_USER_MESSAGE_REGISTER.OBJ
C:\SP\SRC\GAME\CLIENT\RELEASE_MOD_HL2\C_WATERBULLET.OBJ
C:\SP\SRC\GAME\CLIENT\RELEASE_MOD_HL2\CAMOMATERIALPROXY.OBJ
C:\SP\SRC\GAME\CLIENT\RELEASE_MOD_HL2\CL_MAT_STUB.OBJ
C:\SP\SRC\GAME\CLIENT\RELEASE_MOD_HL2\CLIENT_FACTORYLIST.OBJ
C:\SP\SRC\GAME\CLIENT\RELEASE_MOD_HL2\CLIENT_THINKLIST.OBJ
C:\SP\SRC\GAME\CLIENT\RELEASE_MOD_HL2\CLIENTEFFECTPRECACHESYSTEM.OBJ
C:\SP\SRC\GAME\CLIENT\RELEASE_MOD_HL2\CLIENTENTITYLIST.OBJ
C:\SP\SRC\GAME\CLIENT\RELEASE_MOD_HL2\CLIENTSHADOWMGR.OBJ
C:\SP\SRC\GAME\CLIENT\RELEASE_MOD_HL2\DECALS.OBJ
C:\SP\SRC\GAME\CLIENT\RELEASE_MOD_HL2\ENTITYPARTICLETRAIL_SHARED.OBJ
C:\SP\SRC\GAME\CLIENT\RELEASE_MOD_HL2\ENV_DETAIL_CONTROLLER.OBJ
C:\SP\SRC\GAME\CLIENT\RELEASE_MOD_HL2\EVENTLIST.OBJ
C:\SP\SRC\GAME\CLIENT\RELEASE_MOD_HL2\FLASHLIGHTEFFECT.OBJ
C:\SP\SRC\GAME\CLIENT\RELEASE_MOD_HL2\FX_CUBE.OBJ
C:\SP\SRC\GAME\CLIENT\RELEASE_MOD_HL2\FX_EXPLOSION.OBJ
C:\SP\SRC\GAME\CLIENT\RELEASE_MOD_HL2\FX_STATICLINE.OBJ
C:\SP\SRC\GAME\CLIENT\RELEASE_MOD_HL2\FX_WATER.OBJ
C:\SP\SRC\GAME\CLIENT\RELEASE_MOD_HL2\GAMERULES_REGISTER.OBJ
C:\SP\SRC\GAME\CLIENT\RELEASE_MOD_HL2\GAMESTATS.OBJ
C:\SP\SRC\GAME\CLIENT\RELEASE_MOD_HL2\HUD_BASETIMER.OBJ
C:\SP\SRC\GAME\CLIENT\RELEASE_MOD_HL2\HUD_CROSSHAIR.OBJ
C:\SP\SRC\GAME\CLIENT\RELEASE_MOD_HL2\HUD_MSG.OBJ
C:\SP\SRC\GAME\CLIENT\RELEASE_MOD_HL2\HUD_VEHICLE.OBJ
C:\SP\SRC\GAME\CLIENT\RELEASE_MOD_HL2\MOVEVARS_SHARED.OBJ
C:\SP\SRC\GAME\CLIENT\RELEASE_MOD_HL2\OBSTACLE_PUSHAWAY.OBJ
C:\SP\SRC\GAME\CLIENT\RELEASE_MOD_HL2\PANELMETACLASSMGR.OBJ
C:\SP\SRC\GAME\CLIENT\RELEASE_MOD_HL2\PHYSICS_SAVERESTORE.OBJ
C:\SP\SRC\GAME\CLIENT\RELEASE_MOD_HL2\PROXYHEALTH.OBJ
C:\SP\SRC\GAME\CLIENT\RELEASE_MOD_HL2\PROXYPUPIL.OBJ
C:\SP\SRC\GAME\CLIENT\RELEASE_MOD_HL2\RAGDOLL_SHARED.OBJ
C:\SP\SRC\GAME\CLIENT\RELEASE_MOD_HL2\SOUNDPARAMETERSINTERNAL.OBJ
C:\SP\SRC\GAME\CLIENT\RELEASE_MOD_HL2\SPLINEPATCH.OBJ
C:\SP\SRC\GAME\CLIENT\RELEASE_MOD_HL2\SPRITEMODEL.OBJ
C:\SP\SRC\GAME\CLIENT\RELEASE_MOD_HL2\TEXTURESCROLLMATERIALPROXY.OBJ
C:\SP\SRC\GAME\CLIENT\RELEASE_MOD_HL2\TIMEMATERIALPROXY.OBJ
C:\SP\SRC\GAME\CLIENT\RELEASE_MOD_HL2\USERCMD.OBJ
C:\SP\SRC\GAME\CLIENT\RELEASE_MOD_HL2\UTIL_SHARED.OBJ
C:\SP\SRC\GAME\CLIENT\RELEASE_MOD_HL2\VGUI_BASEPANEL.OBJ
C:\SP\SRC\GAME\CLIENT\RELEASE_MOD_HL2\VGUI_CONSOLEPANEL.OBJ
C:\SP\SRC\GAME\CLIENT\RELEASE_MOD_HL2\VGUI_FPSPANEL.OBJ
C:\SP\SRC\GAME\CLIENT\RELEASE_MOD_HL2\VGUI_SLIDESHOW_DISPLAY_SCREEN.OBJ
C:\SP\SRC\GAME\CLIENT\RELEASE_MOD_HL2\VIEWCONEIMAGE.OBJ
C:\SP\SRC\GAME\CLIENT\RELEASE_MOD_HL2\WORLDDIMSPROXY.OBJ
C:\SP\SRC\GAME\CLIENT\RELEASE_MOD_HL2\BASEMODEL_PANEL.OBJ
C:\SP\SRC\GAME\CLIENT\RELEASE_MOD_HL2\ICONPANEL.OBJ
C:\SP\SRC\GAME\CLIENT\RELEASE_MOD_HL2\INTROMENU.OBJ
C:\SP\SRC\GAME\CLIENT\RELEASE_MOD_HL2\ACHIEVEMENTS_HL2.OBJ
C:\SP\SRC\GAME\CLIENT\RELEASE_MOD_HL2\BASEHLCOMBATWEAPON_SHARED.OBJ
C:\SP\SRC\GAME\CLIENT\RELEASE_MOD_HL2\C_ANTLION_DUST.OBJ
C:\SP\SRC\GAME\CLIENT\RELEASE_MOD_HL2\C_AR2_EXPLOSION.OBJ
C:\SP\SRC\GAME\CLIENT\RELEASE_MOD_HL2\C_BARNACLE.OBJ
C:\SP\SRC\GAME\CLIENT\RELEASE_MOD_HL2\C_CITADEL_EFFECTS.OBJ
C:\SP\SRC\GAME\CLIENT\RELEASE_MOD_HL2\C_ENV_ALYXTEMP.OBJ
C:\SP\SRC\GAME\CLIENT\RELEASE_MOD_HL2\C_HL2_PLAYERLOCALDATA.OBJ
C:\SP\SRC\GAME\CLIENT\RELEASE_MOD_HL2\C_NPC_ANTLIONGUARD.OBJ
C:\SP\SRC\GAME\CLIENT\RELEASE_MOD_HL2\C_NPC_ROLLERMINE.OBJ
C:\SP\SRC\GAME\CLIENT\RELEASE_MOD_HL2\C_ROTORWASH.OBJ
C:\SP\SRC\GAME\CLIENT\RELEASE_MOD_HL2\C_THUMPER_DUST.OBJ
C:\SP\SRC\GAME\CLIENT\RELEASE_MOD_HL2\C_VEHICLE_CRANE.OBJ
C:\SP\SRC\GAME\CLIENT\RELEASE_MOD_HL2\C_VORT_CHARGE_TOKEN.OBJ
C:\SP\SRC\GAME\CLIENT\RELEASE_MOD_HL2\CLIENTMODE_HLNORMAL.OBJ
C:\SP\SRC\GAME\CLIENT\RELEASE_MOD_HL2\HUD_POISONDAMAGEINDICATOR.OBJ
C:\SP\SRC\GAME\CLIENT\RELEASE_MOD_HL2\HUD_ZOOM.OBJ
C:\SP\SRC\GAME\CLIENT\RELEASE_MOD_HL2\C_SMOKESTACK.OBJ
C:\SP\SRC\GAME\CLIENT\RELEASE_MOD_HL2\C_TE.OBJ
C:\SP\SRC\GAME\CLIENT\RELEASE_MOD_HL2\C_TE_BEAMPOINTS.OBJ
C:\SP\SRC\GAME\CLIENT\RELEASE_MOD_HL2\C_TE_BLOODSTREAM.OBJ
C:\SP\SRC\GAME\CLIENT\RELEASE_MOD_HL2\C_TE_BUBBLETRAIL.OBJ
C:\SP\SRC\GAME\CLIENT\RELEASE_MOD_HL2\C_TE_EXPLOSION.OBJ
C:\SP\SRC\GAME\CLIENT\RELEASE_MOD_HL2\C_TE_PARTICLESYSTEM.OBJ
C:\SP\SRC\GAME\CLIENT\RELEASE_MOD_HL2\C_TE_PROJECTEDDECAL.OBJ
C:\SP\SRC\GAME\CLIENT\RELEASE_MOD_HL2\C_TE_WORLDDECAL.OBJ
C:\SP\SRC\GAME\CLIENT\RELEASE_MOD_HL2\C_TRACER.OBJ
C:\SP\SRC\GAME\CLIENT\RELEASE_MOD_HL2\FX_ENVELOPE.OBJ
C:\SP\SRC\GAME\CLIENT\RELEASE_MOD_HL2\BONELIST.OBJ
C:\SP\SRC\GAME\CLIENT\RELEASE_MOD_HL2\MP3PLAYER.OBJ
C:\SP\SRC\GAME\CLIENT\RELEASE_MOD_HL2\AMMODEF.OBJ
C:\SP\SRC\GAME\CLIENT\RELEASE_MOD_HL2\BASE_PLAYERANIMSTATE.OBJ
C:\SP\SRC\GAME\CLIENT\RELEASE_MOD_HL2\BASECLIENTRENDERTARGETS.OBJ
C:\SP\SRC\GAME\CLIENT\RELEASE_MOD_HL2\BASECOMBATWEAPON_SHARED.OBJ
C:\SP\SRC\GAME\CLIENT\RELEASE_MOD_HL2\BASEPARTICLEENTITY.OBJ
C:\SP\SRC\GAME\CLIENT\RELEASE_MOD_HL2\BASEPROJECTILE.OBJ
C:\SP\SRC\GAME\CLIENT\RELEASE_MOD_HL2\BEAMDRAW.OBJ
C:\SP\SRC\GAME\CLIENT\RELEASE_MOD_HL2\C_BASECOMBATWEAPON.OBJ
C:\SP\SRC\GAME\CLIENT\RELEASE_MOD_HL2\C_COLORCORRECTIONVOLUME.OBJ
C:\SP\SRC\GAME\CLIENT\RELEASE_MOD_HL2\C_ENTITYPARTICLETRAIL.OBJ
C:\SP\SRC\GAME\CLIENT\RELEASE_MOD_HL2\C_ENV_PARTICLESCRIPT.OBJ
C:\SP\SRC\GAME\CLIENT\RELEASE_MOD_HL2\C_FIRE_SMOKE.OBJ
C:\SP\SRC\GAME\CLIENT\RELEASE_MOD_HL2\C_FUNC_LOD.OBJ
C:\SP\SRC\GAME\CLIENT\RELEASE_MOD_HL2\C_FUNC_SMOKEVOLUME.OBJ
C:\SP\SRC\GAME\CLIENT\RELEASE_MOD_HL2\C_PARTICLE_SYSTEM.OBJ
C:\SP\SRC\GAME\CLIENT\RELEASE_MOD_HL2\C_POINT_COMMENTARY_NODE.OBJ
C:\SP\SRC\GAME\CLIENT\RELEASE_MOD_HL2\C_VGUISCREEN.OBJ
C:\SP\SRC\GAME\CLIENT\RELEASE_MOD_HL2\CLIENTSIDEEFFECTS.OBJ
C:\SP\SRC\GAME\CLIENT\RELEASE_MOD_HL2\CLIENTSTEAMCONTEXT.OBJ
C:\SP\SRC\GAME\CLIENT\RELEASE_MOD_HL2\DETAILOBJECTSYSTEM.OBJ
C:\SP\SRC\GAME\CLIENT\RELEASE_MOD_HL2\FUNCTIONPROXY.OBJ
C:\SP\SRC\GAME\CLIENT\RELEASE_MOD_HL2\FX_BLOOD.OBJ
C:\SP\SRC\GAME\CLIENT\RELEASE_MOD_HL2\FX_IMPACT.OBJ
C:\SP\SRC\GAME\CLIENT\RELEASE_MOD_HL2\FX_SHELLEJECT.OBJ
C:\SP\SRC\GAME\CLIENT\RELEASE_MOD_HL2\FX_TRAIL.OBJ
C:\SP\SRC\GAME\CLIENT\RELEASE_MOD_HL2\GAMERULES.OBJ
C:\SP\SRC\GAME\CLIENT\RELEASE_MOD_HL2\HAPTIC_UTILS.OBJ
C:\SP\SRC\GAME\CLIENT\RELEASE_MOD_HL2\HISTORY_RESOURCE.OBJ
C:\SP\SRC\GAME\CLIENT\RELEASE_MOD_HL2\HUD_CHAT.OBJ
C:\SP\SRC\GAME\CLIENT\RELEASE_MOD_HL2\HUD_NUMERICDISPLAY.OBJ
C:\SP\SRC\GAME\CLIENT\RELEASE_MOD_HL2\IN_CAMERA.OBJ
C:\SP\SRC\GAME\CLIENT\RELEASE_MOD_HL2\INITIALIZER.OBJ
C:\SP\SRC\GAME\CLIENT\RELEASE_MOD_HL2\INTERPOLATEDVAR.OBJ
C:\SP\SRC\GAME\CLIENT\RELEASE_MOD_HL2\LAMPBEAMPROXY.OBJ
C:\SP\SRC\GAME\CLIENT\RELEASE_MOD_HL2\MAPENTITIES_SHARED.OBJ
C:\SP\SRC\GAME\CLIENT\RELEASE_MOD_HL2\MATRIXPROXY.OBJ
C:\SP\SRC\GAME\CLIENT\RELEASE_MOD_HL2\MESSAGE.OBJ
C:\SP\SRC\GAME\CLIENT\RELEASE_MOD_HL2\PARTICLESYSTEMQUERY.OBJ
C:\SP\SRC\GAME\CLIENT\RELEASE_MOD_HL2\PHYSICS_MAIN_CLIENT.OBJ
C:\SP\SRC\GAME\CLIENT\RELEASE_MOD_HL2\PHYSPROPCLIENTSIDE.OBJ
C:\SP\SRC\GAME\CLIENT\RELEASE_MOD_HL2\POINT_POSECONTROLLER.OBJ
C:\SP\SRC\GAME\CLIENT\RELEASE_MOD_HL2\PROXYENTITY.OBJ
C:\SP\SRC\GAME\CLIENT\RELEASE_MOD_HL2\PROXYPLAYER.OBJ
C:\SP\SRC\GAME\CLIENT\RELEASE_MOD_HL2\RECVPROXY.OBJ
C:\SP\SRC\GAME\CLIENT\RELEASE_MOD_HL2\ROPE_HELPERS.OBJ
C:\SP\SRC\GAME\CLIENT\RELEASE_MOD_HL2\SCENEENTITY_SHARED.OBJ
C:\SP\SRC\GAME\CLIENT\RELEASE_MOD_HL2\SCREENSPACEEFFECTS.OBJ
C:\SP\SRC\GAME\CLIENT\RELEASE_MOD_HL2\SOUNDENVELOPE.OBJ
C:\SP\SRC\GAME\CLIENT\RELEASE_MOD_HL2\TAKEDAMAGEINFO.OBJ
C:\SP\SRC\GAME\CLIENT\RELEASE_MOD_HL2\TEAMPLAY_GAMERULES.OBJ
C:\SP\SRC\GAME\CLIENT\RELEASE_MOD_HL2\TEXT_MESSAGE.OBJ
C:\SP\SRC\GAME\CLIENT\RELEASE_MOD_HL2\TOGGLETEXTUREPROXY.OBJ
C:\SP\SRC\GAME\CLIENT\RELEASE_MOD_HL2\USERMESSAGES.OBJ
C:\SP\SRC\GAME\CLIENT\RELEASE_MOD_HL2\VGUI_AVATARIMAGE.OBJ
C:\SP\SRC\GAME\CLIENT\RELEASE_MOD_HL2\VGUI_LOADINGDISCPANEL.OBJ
C:\SP\SRC\GAME\CLIENT\RELEASE_MOD_HL2\VGUI_VIDEO.OBJ
C:\SP\SRC\GAME\CLIENT\RELEASE_MOD_HL2\VIEWPOSTPROCESS.OBJ
C:\SP\SRC\GAME\CLIENT\RELEASE_MOD_HL2\WEAPON_PARSE_DEFAULT.OBJ
C:\SP\SRC\GAME\CLIENT\RELEASE_MOD_HL2\WEAPON_SELECTION.OBJ
C:\SP\SRC\GAME\CLIENT\RELEASE_MOD_HL2\COMMANDMENU.OBJ
C:\SP\SRC\GAME\CLIENT\RELEASE_MOD_HL2\NAVPROGRESS.OBJ
C:\SP\SRC\GAME\CLIENT\RELEASE_MOD_HL2\VGUITEXTWINDOW.OBJ
C:\SP\SRC\GAME\CLIENT\RELEASE_MOD_HL2\C_TE_CONCUSSIVEEXPLOSION.OBJ
C:\SP\SRC\GAME\CLIENT\RELEASE_MOD_HL2\C_VEHICLE_CANNON.OBJ
C:\SP\SRC\GAME\CLIENT\RELEASE_MOD_HL2\C_WEAPON__STUBS_HL2.OBJ
C:\SP\SRC\GAME\CLIENT\RELEASE_MOD_HL2\ENV_HEADCRABCANISTER_SHARED.OBJ
C:\SP\SRC\GAME\CLIENT\RELEASE_MOD_HL2\FX_BUGBAIT.OBJ
C:\SP\SRC\GAME\CLIENT\RELEASE_MOD_HL2\FX_HL2_TRACERS.OBJ
C:\SP\SRC\GAME\CLIENT\RELEASE_MOD_HL2\HL2_USERMESSAGES.OBJ
C:\SP\SRC\GAME\CLIENT\RELEASE_MOD_HL2\HL_IN_MAIN.OBJ
C:\SP\SRC\GAME\CLIENT\RELEASE_MOD_HL2\HUD_BATTERY.OBJ
C:\SP\SRC\GAME\CLIENT\RELEASE_MOD_HL2\HUD_FLASHLIGHT.OBJ
C:\SP\SRC\GAME\CLIENT\RELEASE_MOD_HL2\HUD_SQUADSTATUS.OBJ
C:\SP\SRC\GAME\CLIENT\RELEASE_MOD_HL2\C_PARTICLE_FIRE.OBJ
C:\SP\SRC\GAME\CLIENT\RELEASE_MOD_HL2\C_PROP_VEHICLE.OBJ
C:\SP\SRC\GAME\CLIENT\RELEASE_MOD_HL2\C_TE_DYNAMICLIGHT.OBJ
C:\SP\SRC\GAME\CLIENT\RELEASE_MOD_HL2\C_TE_FOOTPRINT.OBJ
C:\SP\SRC\GAME\CLIENT\RELEASE_MOD_HL2\C_TE_LARGEFUNNEL.OBJ
C:\SP\SRC\GAME\CLIENT\RELEASE_MOD_HL2\C_TE_PHYSICSPROP.OBJ
C:\SP\SRC\GAME\CLIENT\RELEASE_MOD_HL2\C_TE_SPARKS.OBJ
C:\SP\SRC\GAME\CLIENT\RELEASE_MOD_HL2\C_TESTTRACELINE.OBJ
C:\SP\SRC\GAME\CLIENT\RELEASE_MOD_HL2\FX_LINE.OBJ
C:\SP\SRC\GAME\CLIENT\RELEASE_MOD_HL2\TOOLFRAMEWORK_CLIENT.OBJ
^C:\SP\SRC\GAME\CLIENT\MP3PLAYER.CPP
C:\SP\SRC\GAME\CLIENT\RELEASE_MOD_HL2\VC120.PDB
^C:\SP\SRC\GAME\CLIENT\REPLAY\CDLL_REPLAY.CPP
C:\SP\SRC\GAME\CLIENT\RELEASE_MOD_HL2\VC120.PDB
^C:\SP\SRC\GAME\CLIENT\REPLAY\REPLAYCAMERA.CPP
C:\SP\SRC\GAME\CLIENT\RELEASE_MOD_HL2\VC120.PDB
^C:\SP\SRC\GAME\CLIENT\ACHIEVEMENT_NOTIFICATION_PANEL.CPP
C:\SP\SRC\GAME\CLIENT\RELEASE_MOD_HL2\VC120.PDB
^C:\SP\SRC\GAME\SHARED\ACHIEVEMENT_SAVERESTORE.CPP
C:\SP\SRC\GAME\CLIENT\RELEASE_MOD_HL2\VC120.PDB
^C:\SP\SRC\GAME\SHARED\ACHIEVEMENTMGR.CPP
C:\SP\SRC\GAME\CLIENT\RELEASE_MOD_HL2\VC120.PDB
^C:\SP\SRC\GAME\SHARED\ACHIEVEMENTS_HLX.CPP
C:\SP\SRC\GAME\CLIENT\RELEASE_MOD_HL2\VC120.PDB
^C:\SP\SRC\GAME\SHARED\ACTIVITYLIST.CPP
C:\SP\SRC\GAME\CLIENT\RELEASE_MOD_HL2\VC120.PDB
^C:\SP\SRC\GAME\CLIENT\ALPHAMATERIALPROXY.CPP
C:\SP\SRC\GAME\CLIENT\RELEASE_MOD_HL2\VC120.PDB
^C:\SP\SRC\GAME\SHARED\AMMODEF.CPP
C:\SP\SRC\GAME\CLIENT\RELEASE_MOD_HL2\VC120.PDB
^C:\SP\SRC\GAME\CLIENT\ANIMATEDENTITYTEXTUREPROXY.CPP
C:\SP\SRC\GAME\CLIENT\RELEASE_MOD_HL2\VC120.PDB
^C:\SP\SRC\GAME\CLIENT\ANIMATEDOFFSETTEXTUREPROXY.CPP
C:\SP\SRC\GAME\CLIENT\RELEASE_MOD_HL2\VC120.PDB
^C:\SP\SRC\GAME\CLIENT\ANIMATEDTEXTUREPROXY.CPP
C:\SP\SRC\GAME\CLIENT\RELEASE_MOD_HL2\VC120.PDB
^C:\SP\SRC\GAME\CLIENT\ANIMATESPECIFICTEXTUREPROXY.CPP
C:\SP\SRC\GAME\CLIENT\RELEASE_MOD_HL2\VC120.PDB
^C:\SP\SRC\GAME\SHARED\ANIMATION.CPP
C:\SP\SRC\GAME\CLIENT\RELEASE_MOD_HL2\VC120.PDB
^C:\SP\SRC\GAME\SHARED\BASE_PLAYERANIMSTATE.CPP
C:\SP\SRC\GAME\CLIENT\RELEASE_MOD_HL2\VC120.PDB
^C:\SP\SRC\GAME\SHARED\BASEACHIEVEMENT.CPP
C:\SP\SRC\GAME\CLIENT\RELEASE_MOD_HL2\VC120.PDB
^C:\SP\SRC\GAME\CLIENT\BASEANIMATEDTEXTUREPROXY.CPP
C:\SP\SRC\GAME\CLIENT\RELEASE_MOD_HL2\VC120.PDB
^C:\SP\SRC\GAME\CLIENT\BASECLIENTRENDERTARGETS.CPP
C:\SP\SRC\GAME\CLIENT\RELEASE_MOD_HL2\VC120.PDB
^C:\SP\SRC\GAME\SHARED\BASECOMBATCHARACTER_SHARED.CPP
C:\SP\SRC\GAME\CLIENT\RELEASE_MOD_HL2\VC120.PDB
^C:\SP\SRC\GAME\SHARED\BASECOMBATWEAPON_SHARED.CPP
C:\SP\SRC\GAME\CLIENT\RELEASE_MOD_HL2\VC120.PDB
^C:\SP\SRC\GAME\SHARED\BASEENTITY_SHARED.CPP
C:\SP\SRC\GAME\CLIENT\RELEASE_MOD_HL2\VC120.PDB
^C:\SP\SRC\GAME\SHARED\BASEGRENADE_SHARED.CPP
C:\SP\SRC\GAME\CLIENT\RELEASE_MOD_HL2\VC120.PDB
^C:\SP\SRC\GAME\SHARED\BASEPARTICLEENTITY.CPP
C:\SP\SRC\GAME\CLIENT\RELEASE_MOD_HL2\VC120.PDB
^C:\SP\SRC\GAME\SHARED\BASEPLAYER_SHARED.CPP
C:\SP\SRC\GAME\CLIENT\RELEASE_MOD_HL2\VC120.PDB
^C:\SP\SRC\GAME\CLIENT\BASEPRESENCE.CPP
C:\SP\SRC\GAME\CLIENT\RELEASE_MOD_HL2\VC120.PDB
^C:\SP\SRC\GAME\SHARED\BASEPROJECTILE.CPP
C:\SP\SRC\GAME\CLIENT\RELEASE_MOD_HL2\VC120.PDB
^C:\SP\SRC\GAME\SHARED\BASEVIEWMODEL_SHARED.CPP
C:\SP\SRC\GAME\CLIENT\RELEASE_MOD_HL2\VC120.PDB
^C:\SP\SRC\GAME\SHARED\BEAM_SHARED.CPP
C:\SP\SRC\GAME\CLIENT\RELEASE_MOD_HL2\VC120.PDB
^C:\SP\SRC\GAME\CLIENT\BEAMDRAW.CPP
C:\SP\SRC\GAME\CLIENT\RELEASE_MOD_HL2\VC120.PDB
^C:\SP\SRC\PUBLIC\BONE_ACCESSOR.CPP
C:\SP\SRC\GAME\CLIENT\RELEASE_MOD_HL2\VC120.PDB
^C:\SP\SRC\GAME\CLIENT\BONE_MERGE_CACHE.CPP
C:\SP\SRC\GAME\CLIENT\RELEASE_MOD_HL2\VC120.PDB
^C:\SP\SRC\GAME\CLIENT\C_AI_BASEHUMANOID.CPP
C:\SP\SRC\GAME\CLIENT\RELEASE_MOD_HL2\VC120.PDB
^C:\SP\SRC\GAME\CLIENT\C_AI_BASENPC.CPP
C:\SP\SRC\GAME\CLIENT\RELEASE_MOD_HL2\VC120.PDB
^C:\SP\SRC\GAME\CLIENT\C_BASEANIMATING.CPP
C:\SP\SRC\GAME\CLIENT\RELEASE_MOD_HL2\VC120.PDB
^C:\SP\SRC\GAME\CLIENT\C_BASEANIMATINGOVERLAY.CPP
C:\SP\SRC\GAME\CLIENT\RELEASE_MOD_HL2\VC120.PDB
^C:\SP\SRC\GAME\CLIENT\C_BASECOMBATCHARACTER.CPP
C:\SP\SRC\GAME\CLIENT\RELEASE_MOD_HL2\VC120.PDB
^C:\SP\SRC\GAME\CLIENT\C_BASECOMBATWEAPON.CPP
C:\SP\SRC\GAME\CLIENT\RELEASE_MOD_HL2\VC120.PDB
^C:\SP\SRC\GAME\CLIENT\C_BASEDOOR.CPP
C:\SP\SRC\GAME\CLIENT\RELEASE_MOD_HL2\VC120.PDB
^C:\SP\SRC\GAME\CLIENT\C_BASEENTITY.CPP
C:\SP\SRC\GAME\CLIENT\RELEASE_MOD_HL2\VC120.PDB
^C:\SP\SRC\GAME\CLIENT\C_BASEFLEX.CPP
C:\SP\SRC\GAME\CLIENT\RELEASE_MOD_HL2\VC120.PDB
^C:\SP\SRC\GAME\CLIENT\C_BASEPLAYER.CPP
C:\SP\SRC\GAME\CLIENT\RELEASE_MOD_HL2\VC120.PDB
^C:\SP\SRC\GAME\CLIENT\C_BASEVIEWMODEL.CPP
C:\SP\SRC\GAME\CLIENT\RELEASE_MOD_HL2\VC120.PDB
^C:\SP\SRC\GAME\CLIENT\C_BREAKABLEPROP.CPP
C:\SP\SRC\GAME\CLIENT\RELEASE_MOD_HL2\VC120.PDB
^C:\SP\SRC\GAME\CLIENT\C_COLORCORRECTION.CPP
C:\SP\SRC\GAME\CLIENT\RELEASE_MOD_HL2\VC120.PDB
^C:\SP\SRC\GAME\CLIENT\C_COLORCORRECTIONVOLUME.CPP
C:\SP\SRC\GAME\CLIENT\RELEASE_MOD_HL2\VC120.PDB
^C:\SP\SRC\GAME\CLIENT\C_DYNAMICLIGHT.CPP
C:\SP\SRC\GAME\CLIENT\RELEASE_MOD_HL2\VC120.PDB
^C:\SP\SRC\GAME\CLIENT\C_ENTITYDISSOLVE.CPP
C:\SP\SRC\GAME\CLIENT\RELEASE_MOD_HL2\VC120.PDB
^C:\SP\SRC\GAME\CLIENT\C_ENTITYPARTICLETRAIL.CPP
C:\SP\SRC\GAME\CLIENT\RELEASE_MOD_HL2\VC120.PDB
^C:\SP\SRC\GAME\CLIENT\C_ENV_FOG_CONTROLLER.CPP
C:\SP\SRC\GAME\CLIENT\RELEASE_MOD_HL2\VC120.PDB
^C:\SP\SRC\GAME\CLIENT\C_ENV_PARTICLESCRIPT.CPP
C:\SP\SRC\GAME\CLIENT\RELEASE_MOD_HL2\VC120.PDB
^C:\SP\SRC\GAME\CLIENT\C_ENV_PROJECTEDTEXTURE.CPP
C:\SP\SRC\GAME\CLIENT\RELEASE_MOD_HL2\VC120.PDB
^C:\SP\SRC\GAME\CLIENT\C_ENV_SCREENOVERLAY.CPP
C:\SP\SRC\GAME\CLIENT\RELEASE_MOD_HL2\VC120.PDB
^C:\SP\SRC\GAME\CLIENT\C_ENV_TONEMAP_CONTROLLER.CPP
C:\SP\SRC\GAME\CLIENT\RELEASE_MOD_HL2\VC120.PDB
^C:\SP\SRC\GAME\CLIENT\C_FIRE_SMOKE.CPP
C:\SP\SRC\GAME\CLIENT\RELEASE_MOD_HL2\VC120.PDB
^C:\SP\SRC\GAME\CLIENT\C_FISH.CPP
C:\SP\SRC\GAME\CLIENT\RELEASE_MOD_HL2\VC120.PDB
^C:\SP\SRC\GAME\CLIENT\C_FUNC_AREAPORTALWINDOW.CPP
C:\SP\SRC\GAME\CLIENT\RELEASE_MOD_HL2\VC120.PDB
^C:\SP\SRC\GAME\CLIENT\C_FUNC_BREAKABLESURF.CPP
C:\SP\SRC\GAME\CLIENT\RELEASE_MOD_HL2\VC120.PDB
^C:\SP\SRC\GAME\CLIENT\C_FUNC_CONVEYOR.CPP
C:\SP\SRC\GAME\CLIENT\RELEASE_MOD_HL2\VC120.PDB
^C:\SP\SRC\GAME\CLIENT\C_FUNC_DUST.CPP
C:\SP\SRC\GAME\CLIENT\RELEASE_MOD_HL2\VC120.PDB
^C:\SP\SRC\GAME\CLIENT\C_FUNC_LOD.CPP
C:\SP\SRC\GAME\CLIENT\RELEASE_MOD_HL2\VC120.PDB
^C:\SP\SRC\GAME\CLIENT\HL2\C_FUNC_MONITOR.CPP
C:\SP\SRC\GAME\CLIENT\RELEASE_MOD_HL2\VC120.PDB
^C:\SP\SRC\GAME\CLIENT\C_FUNC_OCCLUDER.CPP
C:\SP\SRC\GAME\CLIENT\RELEASE_MOD_HL2\VC120.PDB
^C:\SP\SRC\GAME\CLIENT\C_FUNC_REFLECTIVE_GLASS.CPP
C:\SP\SRC\GAME\CLIENT\RELEASE_MOD_HL2\VC120.PDB
^C:\SP\SRC\GAME\CLIENT\C_FUNC_ROTATING.CPP
C:\SP\SRC\GAME\CLIENT\RELEASE_MOD_HL2\VC120.PDB
^C:\SP\SRC\GAME\CLIENT\C_FUNC_SMOKEVOLUME.CPP
C:\SP\SRC\GAME\CLIENT\RELEASE_MOD_HL2\VC120.PDB
^C:\SP\SRC\GAME\CLIENT\C_FUNC_TRACKTRAIN.CPP
C:\SP\SRC\GAME\CLIENT\RELEASE_MOD_HL2\VC120.PDB
^C:\SP\SRC\GAME\CLIENT\C_GIB.CPP
C:\SP\SRC\GAME\CLIENT\RELEASE_MOD_HL2\VC120.PDB
^C:\SP\SRC\GAME\CLIENT\C_HAIRBALL.CPP
C:\SP\SRC\GAME\CLIENT\RELEASE_MOD_HL2\VC120.PDB
^C:\SP\SRC\GAME\CLIENT\C_INFO_OVERLAY_ACCESSOR.CPP
C:\SP\SRC\GAME\CLIENT\RELEASE_MOD_HL2\VC120.PDB
^C:\SP\SRC\GAME\CLIENT\C_LIGHTGLOW.CPP
C:\SP\SRC\GAME\CLIENT\RELEASE_MOD_HL2\VC120.PDB
^C:\SP\SRC\GAME\CLIENT\C_MATERIALMODIFYCONTROL.CPP
C:\SP\SRC\GAME\CLIENT\RELEASE_MOD_HL2\VC120.PDB
^C:\SP\SRC\GAME\CLIENT\C_PARTICLE_SYSTEM.CPP
C:\SP\SRC\GAME\CLIENT\RELEASE_MOD_HL2\VC120.PDB
^C:\SP\SRC\GAME\CLIENT\C_PHYSBOX.CPP
C:\SP\SRC\GAME\CLIENT\RELEASE_MOD_HL2\VC120.PDB
^C:\SP\SRC\GAME\CLIENT\C_PHYSICSPROP.CPP
C:\SP\SRC\GAME\CLIENT\RELEASE_MOD_HL2\VC120.PDB
^C:\SP\SRC\GAME\CLIENT\C_PHYSMAGNET.CPP
C:\SP\SRC\GAME\CLIENT\RELEASE_MOD_HL2\VC120.PDB
^C:\SP\SRC\GAME\CLIENT\C_PIXEL_VISIBILITY.CPP
C:\SP\SRC\GAME\CLIENT\RELEASE_MOD_HL2\VC120.PDB
^C:\SP\SRC\GAME\CLIENT\C_PLASMA.CPP
C:\SP\SRC\GAME\CLIENT\RELEASE_MOD_HL2\VC120.PDB
^C:\SP\SRC\GAME\CLIENT\C_PLAYERRESOURCE.CPP
C:\SP\SRC\GAME\CLIENT\RELEASE_MOD_HL2\VC120.PDB
^C:\SP\SRC\GAME\CLIENT\C_POINT_CAMERA.CPP
C:\SP\SRC\GAME\CLIENT\RELEASE_MOD_HL2\VC120.PDB
^C:\SP\SRC\GAME\CLIENT\C_POINT_COMMENTARY_NODE.CPP
C:\SP\SRC\GAME\CLIENT\RELEASE_MOD_HL2\VC120.PDB
^C:\SP\SRC\GAME\CLIENT\C_PROPS.CPP
C:\SP\SRC\GAME\CLIENT\RELEASE_MOD_HL2\VC120.PDB
^C:\SP\SRC\GAME\CLIENT\C_RAGDOLL_MANAGER.CPP
C:\SP\SRC\GAME\CLIENT\RELEASE_MOD_HL2\VC120.PDB
^C:\SP\SRC\GAME\CLIENT\C_ROPE.CPP
C:\SP\SRC\GAME\CLIENT\RELEASE_MOD_HL2\VC120.PDB
^C:\SP\SRC\GAME\CLIENT\C_RUMBLE.CPP
C:\SP\SRC\GAME\CLIENT\RELEASE_MOD_HL2\VC120.PDB
^C:\SP\SRC\GAME\CLIENT\C_SCENEENTITY.CPP
C:\SP\SRC\GAME\CLIENT\RELEASE_MOD_HL2\VC120.PDB
^C:\SP\SRC\GAME\CLIENT\C_SHADOWCONTROL.CPP
C:\SP\SRC\GAME\CLIENT\RELEASE_MOD_HL2\VC120.PDB
^C:\SP\SRC\GAME\CLIENT\C_SLIDESHOW_DISPLAY.CPP
C:\SP\SRC\GAME\CLIENT\RELEASE_MOD_HL2\VC120.PDB
^C:\SP\SRC\GAME\CLIENT\C_SOUNDSCAPE.CPP
C:\SP\SRC\GAME\CLIENT\RELEASE_MOD_HL2\VC120.PDB
^C:\SP\SRC\GAME\CLIENT\C_SPOTLIGHT_END.CPP
C:\SP\SRC\GAME\CLIENT\RELEASE_MOD_HL2\VC120.PDB
^C:\SP\SRC\GAME\CLIENT\C_SPRITE.CPP
C:\SP\SRC\GAME\CLIENT\RELEASE_MOD_HL2\VC120.PDB
^C:\SP\SRC\GAME\CLIENT\C_SPRITE_PERFMONITOR.CPP
C:\SP\SRC\GAME\CLIENT\RELEASE_MOD_HL2\VC120.PDB
^C:\SP\SRC\GAME\CLIENT\C_SUN.CPP
C:\SP\SRC\GAME\CLIENT\RELEASE_MOD_HL2\VC120.PDB
^C:\SP\SRC\GAME\CLIENT\C_TEAM.CPP
C:\SP\SRC\GAME\CLIENT\RELEASE_MOD_HL2\VC120.PDB
^C:\SP\SRC\GAME\CLIENT\C_TEAM_OBJECTIVERESOURCE.CPP
C:\SP\SRC\GAME\CLIENT\RELEASE_MOD_HL2\VC120.PDB
^C:\SP\SRC\GAME\CLIENT\C_TESLA.CPP
C:\SP\SRC\GAME\CLIENT\RELEASE_MOD_HL2\VC120.PDB
^C:\SP\SRC\GAME\CLIENT\C_TEST_PROXYTOGGLE.CPP
C:\SP\SRC\GAME\CLIENT\RELEASE_MOD_HL2\VC120.PDB
^C:\SP\SRC\GAME\CLIENT\C_USER_MESSAGE_REGISTER.CPP
C:\SP\SRC\GAME\CLIENT\RELEASE_MOD_HL2\VC120.PDB
^C:\SP\SRC\GAME\CLIENT\C_VEHICLE_CHOREO_GENERIC.CPP
C:\SP\SRC\GAME\CLIENT\RELEASE_MOD_HL2\VC120.PDB
^C:\SP\SRC\GAME\CLIENT\C_VEHICLE_JEEP.CPP
C:\SP\SRC\GAME\CLIENT\RELEASE_MOD_HL2\VC120.PDB
^C:\SP\SRC\GAME\CLIENT\C_VGUISCREEN.CPP
C:\SP\SRC\GAME\CLIENT\RELEASE_MOD_HL2\VC120.PDB
^C:\SP\SRC\GAME\CLIENT\C_VOTE_CONTROLLER.CPP
C:\SP\SRC\GAME\CLIENT\RELEASE_MOD_HL2\VC120.PDB
^C:\SP\SRC\GAME\CLIENT\HL2\C_WATERBULLET.CPP
C:\SP\SRC\GAME\CLIENT\RELEASE_MOD_HL2\VC120.PDB
^C:\SP\SRC\GAME\CLIENT\C_WATERLODCONTROL.CPP
C:\SP\SRC\GAME\CLIENT\RELEASE_MOD_HL2\VC120.PDB
^C:\SP\SRC\GAME\CLIENT\C_WORLD.CPP
C:\SP\SRC\GAME\CLIENT\RELEASE_MOD_HL2\VC120.PDB
^C:\SP\SRC\GAME\SHARED\CAM_THIRDPERSON.CPP
C:\SP\SRC\GAME\CLIENT\RELEASE_MOD_HL2\VC120.PDB
^C:\SP\SRC\GAME\CLIENT\CAMOMATERIALPROXY.CPP
C:\SP\SRC\GAME\CLIENT\RELEASE_MOD_HL2\VC120.PDB
^C:\SP\SRC\GAME\CLIENT\CDLL_BOUNDED_CVARS.CPP
C:\SP\SRC\GAME\CLIENT\RELEASE_MOD_HL2\VC120.PDB
^C:\SP\SRC\GAME\CLIENT\CDLL_CLIENT_INT.CPP
C:\SP\SRC\GAME\CLIENT\RELEASE_MOD_HL2\VC120.PDB
^C:\SP\SRC\GAME\CLIENT\CDLL_UTIL.CPP
C:\SP\SRC\GAME\CLIENT\RELEASE_MOD_HL2\VC120.PDB
^C:\SP\SRC\GAME\CLIENT\CL_MAT_STUB.CPP
C:\SP\SRC\GAME\CLIENT\RELEASE_MOD_HL2\VC120.PDB
^C:\SP\SRC\GAME\CLIENT\CLASSMAP.CPP
C:\SP\SRC\GAME\CLIENT\RELEASE_MOD_HL2\VC120.PDB
^C:\SP\SRC\GAME\CLIENT\CLIENT_FACTORYLIST.CPP
C:\SP\SRC\GAME\CLIENT\RELEASE_MOD_HL2\VC120.PDB
^C:\SP\SRC\GAME\CLIENT\CLIENT_THINKLIST.CPP
C:\SP\SRC\GAME\CLIENT\RELEASE_MOD_HL2\VC120.PDB
^C:\SP\SRC\GAME\CLIENT\CLIENT_VIRTUALREALITY.CPP
C:\SP\SRC\GAME\CLIENT\RELEASE_MOD_HL2\VC120.PDB
^C:\SP\SRC\GAME\CLIENT\CLIENTEFFECTPRECACHESYSTEM.CPP
C:\SP\SRC\GAME\CLIENT\RELEASE_MOD_HL2\VC120.PDB
^C:\SP\SRC\GAME\CLIENT\CLIENTENTITYLIST.CPP
C:\SP\SRC\GAME\CLIENT\RELEASE_MOD_HL2\VC120.PDB
^C:\SP\SRC\GAME\CLIENT\CLIENTLEAFSYSTEM.CPP
C:\SP\SRC\GAME\CLIENT\RELEASE_MOD_HL2\VC120.PDB
^C:\SP\SRC\GAME\CLIENT\CLIENTMODE_SHARED.CPP
C:\SP\SRC\GAME\CLIENT\RELEASE_MOD_HL2\VC120.PDB
^C:\SP\SRC\GAME\CLIENT\CLIENTSHADOWMGR.CPP
C:\SP\SRC\GAME\CLIENT\RELEASE_MOD_HL2\VC120.PDB
^C:\SP\SRC\GAME\CLIENT\CLIENTSIDEEFFECTS.CPP
C:\SP\SRC\GAME\CLIENT\RELEASE_MOD_HL2\VC120.PDB
^C:\SP\SRC\GAME\CLIENT\CLIENTSIDEEFFECTS_TEST.CPP
C:\SP\SRC\GAME\CLIENT\RELEASE_MOD_HL2\VC120.PDB
^C:\SP\SRC\GAME\CLIENT\CLIENTSTEAMCONTEXT.CPP
C:\SP\SRC\GAME\CLIENT\RELEASE_MOD_HL2\VC120.PDB
^C:\SP\SRC\GAME\SHARED\COLLISIONPROPERTY.CPP
C:\SP\SRC\GAME\CLIENT\RELEASE_MOD_HL2\VC120.PDB
^C:\SP\SRC\GAME\CLIENT\COLORCORRECTIONMGR.CPP
C:\SP\SRC\GAME\CLIENT\RELEASE_MOD_HL2\VC120.PDB
^C:\SP\SRC\GAME\CLIENT\COMMENTARY_MODELVIEWER.CPP
C:\SP\SRC\GAME\CLIENT\RELEASE_MOD_HL2\VC120.PDB
^C:\SP\SRC\GAME\SHARED\DEATH_POSE.CPP
C:\SP\SRC\GAME\CLIENT\RELEASE_MOD_HL2\VC120.PDB
^C:\SP\SRC\GAME\SHARED\DEBUGOVERLAY_SHARED.CPP
C:\SP\SRC\GAME\CLIENT\RELEASE_MOD_HL2\VC120.PDB
^C:\SP\SRC\GAME\SHARED\DECALS.CPP
C:\SP\SRC\GAME\CLIENT\RELEASE_MOD_HL2\VC120.PDB
^C:\SP\SRC\GAME\CLIENT\DETAILOBJECTSYSTEM.CPP
C:\SP\SRC\GAME\CLIENT\RELEASE_MOD_HL2\VC120.PDB
^C:\SP\SRC\GAME\CLIENT\DUMMYPROXY.CPP
C:\SP\SRC\GAME\CLIENT\RELEASE_MOD_HL2\VC120.PDB
^C:\SP\SRC\GAME\SHARED\EFFECT_DISPATCH_DATA.CPP
C:\SP\SRC\GAME\CLIENT\RELEASE_MOD_HL2\VC120.PDB
^C:\SP\SRC\GAME\CLIENT\EFFECTSCLIENT.CPP
C:\SP\SRC\GAME\CLIENT\RELEASE_MOD_HL2\VC120.PDB
^C:\SP\SRC\GAME\SHARED\EHANDLE.CPP
C:\SP\SRC\GAME\CLIENT\RELEASE_MOD_HL2\VC120.PDB
^C:\SP\SRC\GAME\SHARED\ENTITYLIST_BASE.CPP
C:\SP\SRC\GAME\CLIENT\RELEASE_MOD_HL2\VC120.PDB
^C:\SP\SRC\GAME\CLIENT\ENTITYORIGINMATERIALPROXY.CPP
C:\SP\SRC\GAME\CLIENT\RELEASE_MOD_HL2\VC120.PDB
^C:\SP\SRC\GAME\SHARED\ENTITYPARTICLETRAIL_SHARED.CPP
C:\SP\SRC\GAME\CLIENT\RELEASE_MOD_HL2\VC120.PDB
^C:\SP\SRC\GAME\SHARED\ENV_DETAIL_CONTROLLER.CPP
C:\SP\SRC\GAME\CLIENT\RELEASE_MOD_HL2\VC120.PDB
^C:\SP\SRC\GAME\SHARED\ENV_WIND_SHARED.CPP
C:\SP\SRC\GAME\CLIENT\RELEASE_MOD_HL2\VC120.PDB
^C:\SP\SRC\GAME\SHARED\EVENTLIST.CPP
C:\SP\SRC\GAME\CLIENT\RELEASE_MOD_HL2\VC120.PDB
^C:\SP\SRC\GAME\CLIENT\FLASHLIGHTEFFECT.CPP
C:\SP\SRC\GAME\CLIENT\RELEASE_MOD_HL2\VC120.PDB
^C:\SP\SRC\GAME\SHARED\FUNC_LADDER.CPP
C:\SP\SRC\GAME\CLIENT\RELEASE_MOD_HL2\VC120.PDB
^C:\SP\SRC\GAME\CLIENT\FUNCTIONPROXY.CPP
C:\SP\SRC\GAME\CLIENT\RELEASE_MOD_HL2\VC120.PDB
^C:\SP\SRC\GAME\CLIENT\FX_BLOOD.CPP
C:\SP\SRC\GAME\CLIENT\RELEASE_MOD_HL2\VC120.PDB
^C:\SP\SRC\GAME\CLIENT\FX_CUBE.CPP
C:\SP\SRC\GAME\CLIENT\RELEASE_MOD_HL2\VC120.PDB
^C:\SP\SRC\GAME\CLIENT\FX_EXPLOSION.CPP
C:\SP\SRC\GAME\CLIENT\RELEASE_MOD_HL2\VC120.PDB
^C:\SP\SRC\GAME\CLIENT\FX_FLECK.CPP
C:\SP\SRC\GAME\CLIENT\RELEASE_MOD_HL2\VC120.PDB
^C:\SP\SRC\GAME\CLIENT\FX_IMPACT.CPP
C:\SP\SRC\GAME\CLIENT\RELEASE_MOD_HL2\VC120.PDB
^C:\SP\SRC\GAME\CLIENT\FX_INTERPVALUE.CPP
C:\SP\SRC\GAME\CLIENT\RELEASE_MOD_HL2\VC120.PDB
^C:\SP\SRC\GAME\CLIENT\FX_QUAD.CPP
C:\SP\SRC\GAME\CLIENT\RELEASE_MOD_HL2\VC120.PDB
^C:\SP\SRC\GAME\CLIENT\FX_SHELLEJECT.CPP
C:\SP\SRC\GAME\CLIENT\RELEASE_MOD_HL2\VC120.PDB
^C:\SP\SRC\GAME\CLIENT\FX_STATICLINE.CPP
C:\SP\SRC\GAME\CLIENT\RELEASE_MOD_HL2\VC120.PDB
^C:\SP\SRC\GAME\CLIENT\FX_TRACER.CPP
C:\SP\SRC\GAME\CLIENT\RELEASE_MOD_HL2\VC120.PDB
^C:\SP\SRC\GAME\CLIENT\FX_TRAIL.CPP
C:\SP\SRC\GAME\CLIENT\RELEASE_MOD_HL2\VC120.PDB
^C:\SP\SRC\GAME\CLIENT\FX_WATER.CPP
C:\SP\SRC\GAME\CLIENT\RELEASE_MOD_HL2\VC120.PDB
^C:\SP\SRC\GAME\SHARED\GAMEMOVEMENT.CPP
C:\SP\SRC\GAME\CLIENT\RELEASE_MOD_HL2\VC120.PDB
^C:\SP\SRC\GAME\SHARED\GAMERULES.CPP
C:\SP\SRC\GAME\CLIENT\RELEASE_MOD_HL2\VC120.PDB
^C:\SP\SRC\GAME\SHARED\GAMERULES_REGISTER.CPP
C:\SP\SRC\GAME\CLIENT\RELEASE_MOD_HL2\VC120.PDB
^C:\SP\SRC\GAME\SHARED\GAMESTATS.CPP
C:\SP\SRC\GAME\CLIENT\RELEASE_MOD_HL2\VC120.PDB
^C:\SP\SRC\GAME\SHARED\GAMESTRINGPOOL.CPP
C:\SP\SRC\GAME\CLIENT\RELEASE_MOD_HL2\VC120.PDB
^C:\SP\SRC\GAME\CLIENT\GAMETRACE_CLIENT.CPP
C:\SP\SRC\GAME\CLIENT\RELEASE_MOD_HL2\VC120.PDB
^C:\SP\SRC\GAME\SHARED\GAMEVARS_SHARED.CPP
C:\SP\SRC\GAME\CLIENT\RELEASE_MOD_HL2\VC120.PDB
^C:\SP\SRC\GAME\CLIENT\GEIGER.CPP
C:\SP\SRC\GAME\CLIENT\RELEASE_MOD_HL2\VC120.PDB
^C:\SP\SRC\GAME\CLIENT\GLOW_OUTLINE_EFFECT.CPP
C:\SP\SRC\GAME\CLIENT\RELEASE_MOD_HL2\VC120.PDB
^C:\SP\SRC\GAME\CLIENT\GLOW_OVERLAY.CPP
C:\SP\SRC\GAME\CLIENT\RELEASE_MOD_HL2\VC120.PDB
^C:\SP\SRC\PUBLIC\HAPTICS\HAPTIC_MSGS.CPP
C:\SP\SRC\GAME\CLIENT\RELEASE_MOD_HL2\VC120.PDB
^C:\SP\SRC\PUBLIC\HAPTICS\HAPTIC_UTILS.CPP
C:\SP\SRC\GAME\CLIENT\RELEASE_MOD_HL2\VC120.PDB
^C:\SP\SRC\GAME\SHARED\HINTMESSAGE.CPP
C:\SP\SRC\GAME\CLIENT\RELEASE_MOD_HL2\VC120.PDB
^C:\SP\SRC\GAME\SHARED\HINTSYSTEM.CPP
C:\SP\SRC\GAME\CLIENT\RELEASE_MOD_HL2\VC120.PDB
^C:\SP\SRC\GAME\CLIENT\HISTORY_RESOURCE.CPP
C:\SP\SRC\GAME\CLIENT\RELEASE_MOD_HL2\VC120.PDB
^C:\SP\SRC\GAME\CLIENT\HLTVCAMERA.CPP
C:\SP\SRC\GAME\CLIENT\RELEASE_MOD_HL2\VC120.PDB
^C:\SP\SRC\GAME\CLIENT\HUD.CPP
C:\SP\SRC\GAME\CLIENT\RELEASE_MOD_HL2\VC120.PDB
^C:\SP\SRC\GAME\CLIENT\HUD_ANIMATIONINFO.CPP
C:\SP\SRC\GAME\CLIENT\RELEASE_MOD_HL2\VC120.PDB
^C:\SP\SRC\GAME\CLIENT\HL2\HUD_AUTOAIM.CPP
C:\SP\SRC\GAME\CLIENT\RELEASE_MOD_HL2\VC120.PDB
^C:\SP\SRC\GAME\CLIENT\HUD_BASECHAT.CPP
C:\SP\SRC\GAME\CLIENT\RELEASE_MOD_HL2\VC120.PDB
^C:\SP\SRC\GAME\CLIENT\HUD_BASETIMER.CPP
C:\SP\SRC\GAME\CLIENT\RELEASE_MOD_HL2\VC120.PDB
^C:\SP\SRC\GAME\CLIENT\HUD_BITMAPNUMERICDISPLAY.CPP
C:\SP\SRC\GAME\CLIENT\RELEASE_MOD_HL2\VC120.PDB
^C:\SP\SRC\GAME\CLIENT\HUD_CHAT.CPP
C:\SP\SRC\GAME\CLIENT\RELEASE_MOD_HL2\VC120.PDB
^C:\SP\SRC\GAME\CLIENT\HUD_CLOSECAPTION.CPP
C:\SP\SRC\GAME\CLIENT\RELEASE_MOD_HL2\VC120.PDB
^C:\SP\SRC\GAME\CLIENT\HUD_CROSSHAIR.CPP
C:\SP\SRC\GAME\CLIENT\RELEASE_MOD_HL2\VC120.PDB
^C:\SP\SRC\GAME\CLIENT\HUD_ELEMENT_HELPER.CPP
C:\SP\SRC\GAME\CLIENT\RELEASE_MOD_HL2\VC120.PDB
^C:\SP\SRC\GAME\CLIENT\HL2\HUD_FILMDEMO.CPP
C:\SP\SRC\GAME\CLIENT\RELEASE_MOD_HL2\VC120.PDB
^C:\SP\SRC\GAME\CLIENT\HL2\HUD_HDRDEMO.CPP
C:\SP\SRC\GAME\CLIENT\RELEASE_MOD_HL2\VC120.PDB
^C:\SP\SRC\GAME\CLIENT\HUD_HINTDISPLAY.CPP
C:\SP\SRC\GAME\CLIENT\RELEASE_MOD_HL2\VC120.PDB
^C:\SP\SRC\GAME\CLIENT\HUD_MSG.CPP
C:\SP\SRC\GAME\CLIENT\RELEASE_MOD_HL2\VC120.PDB
^C:\SP\SRC\GAME\CLIENT\HUD_NUMERICDISPLAY.CPP
C:\SP\SRC\GAME\CLIENT\RELEASE_MOD_HL2\VC120.PDB
^C:\SP\SRC\GAME\CLIENT\HUD_PDUMP.CPP
C:\SP\SRC\GAME\CLIENT\RELEASE_MOD_HL2\VC120.PDB
^C:\SP\SRC\GAME\CLIENT\HUD_REDRAW.CPP
C:\SP\SRC\GAME\CLIENT\RELEASE_MOD_HL2\VC120.PDB
^C:\SP\SRC\GAME\CLIENT\HUD_VEHICLE.CPP
C:\SP\SRC\GAME\CLIENT\RELEASE_MOD_HL2\VC120.PDB
^C:\SP\SRC\GAME\CLIENT\HUD_WEAPON.CPP
C:\SP\SRC\GAME\CLIENT\RELEASE_MOD_HL2\VC120.PDB
^C:\SP\SRC\GAME\SHARED\IGAMESYSTEM.CPP
C:\SP\SRC\GAME\CLIENT\RELEASE_MOD_HL2\VC120.PDB
^C:\SP\SRC\GAME\CLIENT\IN_CAMERA.CPP
C:\SP\SRC\GAME\CLIENT\RELEASE_MOD_HL2\VC120.PDB
^C:\SP\SRC\GAME\CLIENT\IN_JOYSTICK.CPP
C:\SP\SRC\GAME\CLIENT\RELEASE_MOD_HL2\VC120.PDB
^C:\SP\SRC\GAME\CLIENT\IN_MAIN.CPP
C:\SP\SRC\GAME\CLIENT\RELEASE_MOD_HL2\VC120.PDB
^C:\SP\SRC\GAME\CLIENT\INITIALIZER.CPP
C:\SP\SRC\GAME\CLIENT\RELEASE_MOD_HL2\VC120.PDB
^C:\SP\SRC\GAME\CLIENT\INTERPOLATEDVAR.CPP
C:\SP\SRC\GAME\CLIENT\RELEASE_MOD_HL2\VC120.PDB
^C:\SP\SRC\GAME\CLIENT\ISNPCPROXY.CPP
C:\SP\SRC\GAME\CLIENT\RELEASE_MOD_HL2\VC120.PDB
^C:\SP\SRC\GAME\CLIENT\LAMPBEAMPROXY.CPP
C:\SP\SRC\GAME\CLIENT\RELEASE_MOD_HL2\VC120.PDB
^C:\SP\SRC\GAME\CLIENT\LAMPHALOPROXY.CPP
C:\SP\SRC\GAME\CLIENT\RELEASE_MOD_HL2\VC120.PDB
^C:\SP\SRC\GAME\SHARED\MAPENTITIES_SHARED.CPP
C:\SP\SRC\GAME\CLIENT\RELEASE_MOD_HL2\VC120.PDB
^C:\SP\SRC\GAME\CLIENT\MATHPROXY.CPP
C:\SP\SRC\GAME\CLIENT\RELEASE_MOD_HL2\VC120.PDB
^C:\SP\SRC\GAME\CLIENT\MATRIXPROXY.CPP
C:\SP\SRC\GAME\CLIENT\RELEASE_MOD_HL2\VC120.PDB
^C:\SP\SRC\GAME\CLIENT\MENU.CPP
C:\SP\SRC\GAME\CLIENT\RELEASE_MOD_HL2\VC120.PDB
^C:\SP\SRC\GAME\CLIENT\MESSAGE.CPP
C:\SP\SRC\GAME\CLIENT\RELEASE_MOD_HL2\VC120.PDB
^C:\SP\SRC\GAME\CLIENT\MOVEHELPER_CLIENT.CPP
C:\SP\SRC\GAME\CLIENT\RELEASE_MOD_HL2\VC120.PDB
^C:\SP\SRC\GAME\SHARED\MOVEVARS_SHARED.CPP
C:\SP\SRC\GAME\CLIENT\RELEASE_MOD_HL2\VC120.PDB
^C:\SP\SRC\GAME\SHARED\MP_SHAREDDEFS.CPP
C:\SP\SRC\GAME\CLIENT\RELEASE_MOD_HL2\VC120.PDB
^C:\SP\SRC\GAME\SHARED\MULTIPLAY_GAMERULES.CPP
C:\SP\SRC\GAME\CLIENT\RELEASE_MOD_HL2\VC120.PDB
^C:\SP\SRC\GAME\SHARED\OBSTACLE_PUSHAWAY.CPP
C:\SP\SRC\GAME\CLIENT\RELEASE_MOD_HL2\VC120.PDB
^C:\SP\SRC\GAME\CLIENT\PANELMETACLASSMGR.CPP
C:\SP\SRC\GAME\CLIENT\RELEASE_MOD_HL2\VC120.PDB
^C:\SP\SRC\GAME\CLIENT\PARTICLE_COLLISION.CPP
C:\SP\SRC\GAME\CLIENT\RELEASE_MOD_HL2\VC120.PDB
^C:\SP\SRC\GAME\CLIENT\PARTICLE_LITSMOKEEMITTER.CPP
C:\SP\SRC\GAME\CLIENT\RELEASE_MOD_HL2\VC120.PDB
^C:\SP\SRC\GAME\SHARED\PARTICLE_PARSE.CPP
C:\SP\SRC\GAME\CLIENT\RELEASE_MOD_HL2\VC120.PDB
^C:\SP\SRC\GAME\SHARED\PARTICLE_PROPERTY.CPP
C:\SP\SRC\GAME\CLIENT\RELEASE_MOD_HL2\VC120.PDB
^C:\SP\SRC\GAME\CLIENT\PARTICLE_PROXIES.CPP
C:\SP\SRC\GAME\CLIENT\RELEASE_MOD_HL2\VC120.PDB
^C:\SP\SRC\GAME\CLIENT\PARTICLE_SIMPLE3D.CPP
C:\SP\SRC\GAME\CLIENT\RELEASE_MOD_HL2\VC120.PDB
^C:\SP\SRC\GAME\CLIENT\PARTICLEMGR.CPP
C:\SP\SRC\GAME\CLIENT\RELEASE_MOD_HL2\VC120.PDB
^C:\SP\SRC\GAME\CLIENT\PARTICLES_ATTRACTOR.CPP
C:\SP\SRC\GAME\CLIENT\RELEASE_MOD_HL2\VC120.PDB
^C:\SP\SRC\GAME\CLIENT\PARTICLES_EZ.CPP
C:\SP\SRC\GAME\CLIENT\RELEASE_MOD_HL2\VC120.PDB
^C:\SP\SRC\GAME\CLIENT\PARTICLES_LOCALSPACE.CPP
C:\SP\SRC\GAME\CLIENT\RELEASE_MOD_HL2\VC120.PDB
^C:\SP\SRC\GAME\CLIENT\PARTICLES_NEW.CPP
C:\SP\SRC\GAME\CLIENT\RELEASE_MOD_HL2\VC120.PDB
^C:\SP\SRC\GAME\CLIENT\PARTICLES_SIMPLE.CPP
C:\SP\SRC\GAME\CLIENT\RELEASE_MOD_HL2\VC120.PDB
^C:\SP\SRC\GAME\SHARED\PARTICLESYSTEMQUERY.CPP
C:\SP\SRC\GAME\CLIENT\RELEASE_MOD_HL2\VC120.PDB
^C:\SP\SRC\GAME\CLIENT\PERFVISUALBENCHMARK.CPP
C:\SP\SRC\GAME\CLIENT\RELEASE_MOD_HL2\VC120.PDB
^C:\SP\SRC\GAME\CLIENT\PHYSICS.CPP
C:\SP\SRC\GAME\CLIENT\RELEASE_MOD_HL2\VC120.PDB
^C:\SP\SRC\GAME\CLIENT\PHYSICS_MAIN_CLIENT.CPP
C:\SP\SRC\GAME\CLIENT\RELEASE_MOD_HL2\VC120.PDB
^C:\SP\SRC\GAME\SHARED\PHYSICS_MAIN_SHARED.CPP
C:\SP\SRC\GAME\CLIENT\RELEASE_MOD_HL2\VC120.PDB
^C:\SP\SRC\GAME\SHARED\PHYSICS_SAVERESTORE.CPP
C:\SP\SRC\GAME\CLIENT\RELEASE_MOD_HL2\VC120.PDB
^C:\SP\SRC\GAME\SHARED\PHYSICS_SHARED.CPP
C:\SP\SRC\GAME\CLIENT\RELEASE_MOD_HL2\VC120.PDB
^C:\SP\SRC\GAME\CLIENT\PHYSPROPCLIENTSIDE.CPP
C:\SP\SRC\GAME\CLIENT\RELEASE_MOD_HL2\VC120.PDB
^C:\SP\SRC\GAME\CLIENT\PLAYERANDOBJECTENUMERATOR.CPP
C:\SP\SRC\GAME\CLIENT\RELEASE_MOD_HL2\VC120.PDB
^C:\SP\SRC\GAME\CLIENT\PLAYERSPAWNCACHE.CPP
C:\SP\SRC\GAME\CLIENT\RELEASE_MOD_HL2\VC120.PDB
^C:\SP\SRC\GAME\SHARED\POINT_BONUSMAPS_ACCESSOR.CPP
C:\SP\SRC\GAME\CLIENT\RELEASE_MOD_HL2\VC120.PDB
^C:\SP\SRC\GAME\SHARED\POINT_POSECONTROLLER.CPP
C:\SP\SRC\GAME\CLIENT\RELEASE_MOD_HL2\VC120.PDB
^C:\SP\SRC\GAME\SHARED\PRECACHE_REGISTER.CPP
C:\SP\SRC\GAME\CLIENT\RELEASE_MOD_HL2\VC120.PDB
^C:\SP\SRC\GAME\SHARED\PREDICTABLEID.CPP
C:\SP\SRC\GAME\CLIENT\RELEASE_MOD_HL2\VC120.PDB
^C:\SP\SRC\GAME\CLIENT\PREDICTION.CPP
C:\SP\SRC\GAME\CLIENT\RELEASE_MOD_HL2\VC120.PDB
^C:\SP\SRC\GAME\SHARED\PREDICTIONCOPY.CPP
C:\SP\SRC\GAME\CLIENT\RELEASE_MOD_HL2\VC120.PDB
^C:\SP\SRC\GAME\SHARED\PROPS_SHARED.CPP
C:\SP\SRC\GAME\CLIENT\RELEASE_MOD_HL2\VC120.PDB
^C:\SP\SRC\GAME\CLIENT\PROXYENTITY.CPP
C:\SP\SRC\GAME\CLIENT\RELEASE_MOD_HL2\VC120.PDB
^C:\SP\SRC\GAME\CLIENT\PROXYHEALTH.CPP
C:\SP\SRC\GAME\CLIENT\RELEASE_MOD_HL2\VC120.PDB
^C:\SP\SRC\GAME\CLIENT\PROXYPLAYER.CPP
C:\SP\SRC\GAME\CLIENT\RELEASE_MOD_HL2\VC120.PDB
^C:\SP\SRC\GAME\CLIENT\PROXYPUPIL.CPP
C:\SP\SRC\GAME\CLIENT\RELEASE_MOD_HL2\VC120.PDB
^C:\SP\SRC\GAME\CLIENT\RAGDOLL.CPP
C:\SP\SRC\GAME\CLIENT\RELEASE_MOD_HL2\VC120.PDB
^C:\SP\SRC\GAME\SHARED\RAGDOLL_SHARED.CPP
C:\SP\SRC\GAME\CLIENT\RELEASE_MOD_HL2\VC120.PDB
^C:\SP\SRC\GAME\CLIENT\RECVPROXY.CPP
C:\SP\SRC\GAME\CLIENT\RELEASE_MOD_HL2\VC120.PDB
^C:\SP\SRC\GAME\SHARED\ROPE_HELPERS.CPP
C:\SP\SRC\GAME\CLIENT\RELEASE_MOD_HL2\VC120.PDB
^C:\SP\SRC\GAME\SHARED\SAVERESTORE.CPP
C:\SP\SRC\GAME\CLIENT\RELEASE_MOD_HL2\VC120.PDB
^C:\SP\SRC\GAME\SHARED\SCENEENTITY_SHARED.CPP
C:\SP\SRC\GAME\CLIENT\RELEASE_MOD_HL2\VC120.PDB
^C:\SP\SRC\GAME\CLIENT\SCREENSPACEEFFECTS.CPP
C:\SP\SRC\GAME\CLIENT\RELEASE_MOD_HL2\VC120.PDB
^C:\SP\SRC\GAME\SHARED\SEQUENCE_TRANSITIONER.CPP
C:\SP\SRC\GAME\CLIENT\RELEASE_MOD_HL2\VC120.PDB
^C:\SP\SRC\GAME\CLIENT\SIMPLE_KEYS.CPP
C:\SP\SRC\GAME\CLIENT\RELEASE_MOD_HL2\VC120.PDB
^C:\SP\SRC\GAME\SHARED\SIMTIMER.CPP
C:\SP\SRC\GAME\CLIENT\RELEASE_MOD_HL2\VC120.PDB
^C:\SP\SRC\GAME\SHARED\SINGLEPLAY_GAMERULES.CPP
C:\SP\SRC\GAME\CLIENT\RELEASE_MOD_HL2\VC120.PDB
^C:\SP\SRC\GAME\SHARED\SOUNDEMITTERSYSTEM.CPP
C:\SP\SRC\GAME\CLIENT\RELEASE_MOD_HL2\VC120.PDB
^C:\SP\SRC\GAME\SHARED\SOUNDENVELOPE.CPP
C:\SP\SRC\GAME\CLIENT\RELEASE_MOD_HL2\VC120.PDB
^C:\SP\SRC\PUBLIC\SOUNDPARAMETERSINTERNAL.CPP
C:\SP\SRC\GAME\CLIENT\RELEASE_MOD_HL2\VC120.PDB
^C:\SP\SRC\GAME\CLIENT\SPLINEPATCH.CPP
C:\SP\SRC\GAME\CLIENT\RELEASE_MOD_HL2\VC120.PDB
^C:\SP\SRC\GAME\SHARED\SPRITE.CPP
C:\SP\SRC\GAME\CLIENT\RELEASE_MOD_HL2\VC120.PDB
^C:\SP\SRC\GAME\CLIENT\SPRITEMODEL.CPP
C:\SP\SRC\GAME\CLIENT\RELEASE_MOD_HL2\VC120.PDB
^C:\SP\SRC\GAME\SHARED\SPRITETRAIL.CPP
C:\SP\SRC\GAME\CLIENT\RELEASE_MOD_HL2\VC120.PDB
^C:\SP\SRC\GAME\SHARED\STUDIO_SHARED.CPP
C:\SP\SRC\GAME\CLIENT\RELEASE_MOD_HL2\VC120.PDB
^C:\SP\SRC\GAME\CLIENT\STUDIO_STATS.CPP
C:\SP\SRC\GAME\CLIENT\RELEASE_MOD_HL2\VC120.PDB
^C:\SP\SRC\GAME\SHARED\TAKEDAMAGEINFO.CPP
C:\SP\SRC\GAME\CLIENT\RELEASE_MOD_HL2\VC120.PDB
^C:\SP\SRC\GAME\SHARED\TEAMPLAY_GAMERULES.CPP
C:\SP\SRC\GAME\CLIENT\RELEASE_MOD_HL2\VC120.PDB
^C:\SP\SRC\GAME\SHARED\TEAMPLAYROUNDBASED_GAMERULES.CPP
C:\SP\SRC\GAME\CLIENT\RELEASE_MOD_HL2\VC120.PDB
^C:\SP\SRC\GAME\SHARED\TEST_EHANDLE.CPP
C:\SP\SRC\GAME\CLIENT\RELEASE_MOD_HL2\VC120.PDB
^C:\SP\SRC\GAME\CLIENT\TEXT_MESSAGE.CPP
C:\SP\SRC\GAME\CLIENT\RELEASE_MOD_HL2\VC120.PDB
^C:\SP\SRC\GAME\CLIENT\TEXTURESCROLLMATERIALPROXY.CPP
C:\SP\SRC\GAME\CLIENT\RELEASE_MOD_HL2\VC120.PDB
^C:\SP\SRC\GAME\CLIENT\TIMEMATERIALPROXY.CPP
C:\SP\SRC\GAME\CLIENT\RELEASE_MOD_HL2\VC120.PDB
^C:\SP\SRC\GAME\CLIENT\TOGGLETEXTUREPROXY.CPP
C:\SP\SRC\GAME\CLIENT\RELEASE_MOD_HL2\VC120.PDB
^C:\SP\SRC\GAME\CLIENT\TRAIN.CPP
C:\SP\SRC\GAME\CLIENT\RELEASE_MOD_HL2\VC120.PDB
^C:\SP\SRC\GAME\SHARED\USERCMD.CPP
C:\SP\SRC\GAME\CLIENT\RELEASE_MOD_HL2\VC120.PDB
^C:\SP\SRC\GAME\SHARED\USERMESSAGES.CPP
C:\SP\SRC\GAME\CLIENT\RELEASE_MOD_HL2\VC120.PDB
^C:\SP\SRC\GAME\SHARED\UTIL_SHARED.CPP
C:\SP\SRC\GAME\CLIENT\RELEASE_MOD_HL2\VC120.PDB
^C:\SP\SRC\GAME\SHARED\VEHICLE_VIEWBLEND_SHARED.CPP
C:\SP\SRC\GAME\CLIENT\RELEASE_MOD_HL2\VC120.PDB
^C:\SP\SRC\GAME\CLIENT\VGUI_AVATARIMAGE.CPP
C:\SP\SRC\GAME\CLIENT\RELEASE_MOD_HL2\VC120.PDB
^C:\SP\SRC\GAME\CLIENT\VGUI_BASEPANEL.CPP
C:\SP\SRC\GAME\CLIENT\RELEASE_MOD_HL2\VC120.PDB
^C:\SP\SRC\GAME\CLIENT\VGUI_BITMAPBUTTON.CPP
C:\SP\SRC\GAME\CLIENT\RELEASE_MOD_HL2\VC120.PDB
^C:\SP\SRC\GAME\CLIENT\VGUI_BITMAPIMAGE.CPP
C:\SP\SRC\GAME\CLIENT\RELEASE_MOD_HL2\VC120.PDB
^C:\SP\SRC\GAME\CLIENT\VGUI_BITMAPPANEL.CPP
C:\SP\SRC\GAME\CLIENT\RELEASE_MOD_HL2\VC120.PDB
^C:\SP\SRC\GAME\CLIENT\VGUI_CENTERSTRINGPANEL.CPP
C:\SP\SRC\GAME\CLIENT\RELEASE_MOD_HL2\VC120.PDB
^C:\SP\SRC\GAME\CLIENT\VGUI_CONSOLEPANEL.CPP
C:\SP\SRC\GAME\CLIENT\RELEASE_MOD_HL2\VC120.PDB
^C:\SP\SRC\GAME\CLIENT\VGUI_DEBUGOVERLAYPANEL.CPP
C:\SP\SRC\GAME\CLIENT\RELEASE_MOD_HL2\VC120.PDB
^C:\SP\SRC\GAME\CLIENT\VGUI_FPSPANEL.CPP
C:\SP\SRC\GAME\CLIENT\RELEASE_MOD_HL2\VC120.PDB
^C:\SP\SRC\GAME\CLIENT\VGUI_GAME_VIEWPORT.CPP
C:\SP\SRC\GAME\CLIENT\RELEASE_MOD_HL2\VC120.PDB
^C:\SP\SRC\GAME\CLIENT\VGUI_GRID.CPP
C:\SP\SRC\GAME\CLIENT\RELEASE_MOD_HL2\VC120.PDB
^C:\SP\SRC\GAME\CLIENT\VGUI_INT.CPP
C:\SP\SRC\GAME\CLIENT\RELEASE_MOD_HL2\VC120.PDB
^C:\SP\SRC\GAME\CLIENT\VGUI_LOADINGDISCPANEL.CPP
C:\SP\SRC\GAME\CLIENT\RELEASE_MOD_HL2\VC120.PDB
^C:\SP\SRC\GAME\CLIENT\VGUI_MESSAGECHARS.CPP
C:\SP\SRC\GAME\CLIENT\RELEASE_MOD_HL2\VC120.PDB
^C:\SP\SRC\GAME\CLIENT\VGUI_NETGRAPHPANEL.CPP
C:\SP\SRC\GAME\CLIENT\RELEASE_MOD_HL2\VC120.PDB
^C:\SP\SRC\GAME\CLIENT\VGUI_SCHEMEVISUALIZER.CPP
C:\SP\SRC\GAME\CLIENT\RELEASE_MOD_HL2\VC120.PDB
^C:\SP\SRC\GAME\CLIENT\VGUI_SLIDESHOW_DISPLAY_SCREEN.CPP
C:\SP\SRC\GAME\CLIENT\RELEASE_MOD_HL2\VC120.PDB
^C:\SP\SRC\GAME\CLIENT\VGUI_VIDEO.CPP
C:\SP\SRC\GAME\CLIENT\RELEASE_MOD_HL2\VC120.PDB
^C:\SP\SRC\GAME\CLIENT\VGUI_VIDEO_PLAYER.CPP
C:\SP\SRC\GAME\CLIENT\RELEASE_MOD_HL2\VC120.PDB
^C:\SP\SRC\GAME\CLIENT\VIEW.CPP
C:\SP\SRC\GAME\CLIENT\RELEASE_MOD_HL2\VC120.PDB
^C:\SP\SRC\GAME\CLIENT\VIEW_BEAMS.CPP
C:\SP\SRC\GAME\CLIENT\RELEASE_MOD_HL2\VC120.PDB
^C:\SP\SRC\GAME\CLIENT\VIEW_EFFECTS.CPP
C:\SP\SRC\GAME\CLIENT\RELEASE_MOD_HL2\VC120.PDB
^C:\SP\SRC\GAME\CLIENT\VIEW_SCENE.CPP
C:\SP\SRC\GAME\CLIENT\RELEASE_MOD_HL2\VC120.PDB
^C:\SP\SRC\GAME\CLIENT\VIEWANGLEANIM.CPP
C:\SP\SRC\GAME\CLIENT\RELEASE_MOD_HL2\VC120.PDB
^C:\SP\SRC\GAME\CLIENT\VIEWCONEIMAGE.CPP
C:\SP\SRC\GAME\CLIENT\RELEASE_MOD_HL2\VC120.PDB
^C:\SP\SRC\GAME\CLIENT\VIEWDEBUG.CPP
C:\SP\SRC\GAME\CLIENT\RELEASE_MOD_HL2\VC120.PDB
^C:\SP\SRC\GAME\CLIENT\VIEWPOSTPROCESS.CPP
C:\SP\SRC\GAME\CLIENT\RELEASE_MOD_HL2\VC120.PDB
^C:\SP\SRC\GAME\CLIENT\VIEWRENDER.CPP
C:\SP\SRC\GAME\CLIENT\RELEASE_MOD_HL2\VC120.PDB
^C:\SP\SRC\GAME\SHARED\VOICE_BANMGR.CPP
C:\SP\SRC\GAME\CLIENT\RELEASE_MOD_HL2\VC120.PDB
^C:\SP\SRC\GAME\SHARED\VOICE_STATUS.CPP
C:\SP\SRC\GAME\CLIENT\RELEASE_MOD_HL2\VC120.PDB
^C:\SP\SRC\GAME\CLIENT\WARP_OVERLAY.CPP
C:\SP\SRC\GAME\CLIENT\RELEASE_MOD_HL2\VC120.PDB
^C:\SP\SRC\GAME\CLIENT\WATERLODMATERIALPROXY.CPP
C:\SP\SRC\GAME\CLIENT\RELEASE_MOD_HL2\VC120.PDB
^C:\SP\SRC\GAME\SHARED\WEAPON_PARSE.CPP
C:\SP\SRC\GAME\CLIENT\RELEASE_MOD_HL2\VC120.PDB
^C:\SP\SRC\GAME\SHARED\WEAPON_PARSE_DEFAULT.CPP
C:\SP\SRC\GAME\CLIENT\RELEASE_MOD_HL2\VC120.PDB
^C:\SP\SRC\GAME\CLIENT\WEAPON_SELECTION.CPP
C:\SP\SRC\GAME\CLIENT\RELEASE_MOD_HL2\VC120.PDB
^C:\SP\SRC\GAME\CLIENT\WEAPONS_RESOURCE.CPP
C:\SP\SRC\GAME\CLIENT\RELEASE_MOD_HL2\VC120.PDB
^C:\SP\SRC\GAME\CLIENT\WORLDDIMSPROXY.CPP
C:\SP\SRC\GAME\CLIENT\RELEASE_MOD_HL2\VC120.PDB
^C:\SP\SRC\GAME\CLIENT\GAME_CONTROLS\BASEMODEL_PANEL.CPP
C:\SP\SRC\GAME\CLIENT\RELEASE_MOD_HL2\VC120.PDB
^C:\SP\SRC\GAME\CLIENT\GAME_CONTROLS\BASEMODELPANEL.CPP
C:\SP\SRC\GAME\CLIENT\RELEASE_MOD_HL2\VC120.PDB
^C:\SP\SRC\GAME\CLIENT\GAME_CONTROLS\BASEVIEWPORT.CPP
C:\SP\SRC\GAME\CLIENT\RELEASE_MOD_HL2\VC120.PDB
^C:\SP\SRC\GAME\CLIENT\GAME_CONTROLS\CLIENTSCOREBOARDDIALOG.CPP
C:\SP\SRC\GAME\CLIENT\RELEASE_MOD_HL2\VC120.PDB
^C:\SP\SRC\GAME\CLIENT\GAME_CONTROLS\COMMANDMENU.CPP
C:\SP\SRC\GAME\CLIENT\RELEASE_MOD_HL2\VC120.PDB
^C:\SP\SRC\GAME\CLIENT\GAME_CONTROLS\ICONPANEL.CPP
C:\SP\SRC\GAME\CLIENT\RELEASE_MOD_HL2\VC120.PDB
^C:\SP\SRC\GAME\CLIENT\GAME_CONTROLS\INTROMENU.CPP
C:\SP\SRC\GAME\CLIENT\RELEASE_MOD_HL2\VC120.PDB
^C:\SP\SRC\GAME\CLIENT\GAME_CONTROLS\MAPOVERVIEW.CPP
C:\SP\SRC\GAME\CLIENT\RELEASE_MOD_HL2\VC120.PDB
^C:\SP\SRC\GAME\CLIENT\GAME_CONTROLS\NAVPROGRESS.CPP
C:\SP\SRC\GAME\CLIENT\RELEASE_MOD_HL2\VC120.PDB
^C:\SP\SRC\GAME\CLIENT\GAME_CONTROLS\SPECTATORGUI.CPP
C:\SP\SRC\GAME\CLIENT\RELEASE_MOD_HL2\VC120.PDB
^C:\SP\SRC\GAME\CLIENT\GAME_CONTROLS\TEAMMENU.CPP
C:\SP\SRC\GAME\CLIENT\RELEASE_MOD_HL2\VC120.PDB
^C:\SP\SRC\GAME\CLIENT\GAME_CONTROLS\VGUITEXTWINDOW.CPP
C:\SP\SRC\GAME\CLIENT\RELEASE_MOD_HL2\VC120.PDB
^C:\SP\SRC\GAME\SHARED\HL2\ACHIEVEMENTS_HL2.CPP
C:\SP\SRC\GAME\CLIENT\RELEASE_MOD_HL2\VC120.PDB
^C:\SP\SRC\GAME\SHARED\HL2\BASEHLCOMBATWEAPON_SHARED.CPP
C:\SP\SRC\GAME\CLIENT\RELEASE_MOD_HL2\VC120.PDB
^C:\SP\SRC\GAME\CLIENT\HL2\C_ANTLION_DUST.CPP
C:\SP\SRC\GAME\CLIENT\RELEASE_MOD_HL2\VC120.PDB
^C:\SP\SRC\GAME\CLIENT\HL2\C_AR2_EXPLOSION.CPP
C:\SP\SRC\GAME\CLIENT\RELEASE_MOD_HL2\VC120.PDB
^C:\SP\SRC\GAME\CLIENT\HL2\C_BARNACLE.CPP
C:\SP\SRC\GAME\CLIENT\RELEASE_MOD_HL2\VC120.PDB
^C:\SP\SRC\GAME\CLIENT\HL2\C_BARNEY.CPP
C:\SP\SRC\GAME\CLIENT\RELEASE_MOD_HL2\VC120.PDB
^C:\SP\SRC\GAME\CLIENT\HL2\C_BASEHELICOPTER.CPP
C:\SP\SRC\GAME\CLIENT\RELEASE_MOD_HL2\VC120.PDB
^C:\SP\SRC\GAME\CLIENT\HL2\C_BASEHLCOMBATWEAPON.CPP
C:\SP\SRC\GAME\CLIENT\RELEASE_MOD_HL2\VC120.PDB
^C:\SP\SRC\GAME\CLIENT\HL2\C_BASEHLPLAYER.CPP
C:\SP\SRC\GAME\CLIENT\RELEASE_MOD_HL2\VC120.PDB
^C:\SP\SRC\GAME\CLIENT\HL2\C_CITADEL_EFFECTS.CPP
C:\SP\SRC\GAME\CLIENT\RELEASE_MOD_HL2\VC120.PDB
^C:\SP\SRC\GAME\CLIENT\HL2\C_CORPSE.CPP
C:\SP\SRC\GAME\CLIENT\RELEASE_MOD_HL2\VC120.PDB
^C:\SP\SRC\GAME\CLIENT\HL2\C_ENV_ALYXTEMP.CPP
C:\SP\SRC\GAME\CLIENT\RELEASE_MOD_HL2\VC120.PDB
^C:\SP\SRC\GAME\CLIENT\HL2\C_ENV_HEADCRABCANISTER.CPP
C:\SP\SRC\GAME\CLIENT\RELEASE_MOD_HL2\VC120.PDB
^C:\SP\SRC\GAME\CLIENT\HL2\C_ENV_STARFIELD.CPP
C:\SP\SRC\GAME\CLIENT\RELEASE_MOD_HL2\VC120.PDB
^C:\SP\SRC\GAME\CLIENT\HL2\C_FUNC_TANKMORTAR.CPP
C:\SP\SRC\GAME\CLIENT\RELEASE_MOD_HL2\VC120.PDB
^C:\SP\SRC\GAME\CLIENT\HL2\C_HL2_PLAYERLOCALDATA.CPP
C:\SP\SRC\GAME\CLIENT\RELEASE_MOD_HL2\VC120.PDB
^C:\SP\SRC\GAME\CLIENT\HL2\C_INFO_TELEPORTER_COUNTDOWN.CPP
C:\SP\SRC\GAME\CLIENT\RELEASE_MOD_HL2\VC120.PDB
^C:\SP\SRC\GAME\CLIENT\HL2\C_NPC_ANTLIONGUARD.CPP
C:\SP\SRC\GAME\CLIENT\RELEASE_MOD_HL2\VC120.PDB
^C:\SP\SRC\GAME\CLIENT\HL2\C_NPC_COMBINEGUNSHIP.CPP
C:\SP\SRC\GAME\CLIENT\RELEASE_MOD_HL2\VC120.PDB
^C:\SP\SRC\GAME\CLIENT\HL2\C_NPC_MANHACK.CPP
C:\SP\SRC\GAME\CLIENT\RELEASE_MOD_HL2\VC120.PDB
^C:\SP\SRC\GAME\CLIENT\HL2\C_NPC_ROLLERMINE.CPP
C:\SP\SRC\GAME\CLIENT\RELEASE_MOD_HL2\VC120.PDB
^C:\SP\SRC\GAME\CLIENT\HL2\C_PLASMA_BEAM_NODE.CPP
C:\SP\SRC\GAME\CLIENT\RELEASE_MOD_HL2\VC120.PDB
^C:\SP\SRC\GAME\CLIENT\HL2\C_PROP_COMBINE_BALL.CPP
C:\SP\SRC\GAME\CLIENT\RELEASE_MOD_HL2\VC120.PDB
^C:\SP\SRC\GAME\CLIENT\HL2\C_ROTORWASH.CPP
C:\SP\SRC\GAME\CLIENT\RELEASE_MOD_HL2\VC120.PDB
^C:\SP\SRC\GAME\CLIENT\HL2\C_SCRIPT_INTRO.CPP
C:\SP\SRC\GAME\CLIENT\RELEASE_MOD_HL2\VC120.PDB
^C:\SP\SRC\GAME\CLIENT\HL2\C_STRIDER.CPP
C:\SP\SRC\GAME\CLIENT\RELEASE_MOD_HL2\VC120.PDB
^C:\SP\SRC\GAME\CLIENT\HL2\C_TE_CONCUSSIVEEXPLOSION.CPP
C:\SP\SRC\GAME\CLIENT\RELEASE_MOD_HL2\VC120.PDB
^C:\SP\SRC\GAME\CLIENT\HL2\C_TE_FLARE.CPP
C:\SP\SRC\GAME\CLIENT\RELEASE_MOD_HL2\VC120.PDB
^C:\SP\SRC\GAME\CLIENT\HL2\C_THUMPER_DUST.CPP
C:\SP\SRC\GAME\CLIENT\RELEASE_MOD_HL2\VC120.PDB
^C:\SP\SRC\GAME\CLIENT\HL2\C_VEHICLE_AIRBOAT.CPP
C:\SP\SRC\GAME\CLIENT\RELEASE_MOD_HL2\VC120.PDB
^C:\SP\SRC\GAME\CLIENT\HL2\C_VEHICLE_CANNON.CPP
C:\SP\SRC\GAME\CLIENT\RELEASE_MOD_HL2\VC120.PDB
^C:\SP\SRC\GAME\CLIENT\HL2\C_VEHICLE_CRANE.CPP
C:\SP\SRC\GAME\CLIENT\RELEASE_MOD_HL2\VC120.PDB
^C:\SP\SRC\GAME\CLIENT\HL2\C_VEHICLE_PRISONER_POD.CPP
C:\SP\SRC\GAME\CLIENT\RELEASE_MOD_HL2\VC120.PDB
^C:\SP\SRC\GAME\CLIENT\EPISODIC\C_VORT_CHARGE_TOKEN.CPP
C:\SP\SRC\GAME\CLIENT\RELEASE_MOD_HL2\VC120.PDB
^C:\SP\SRC\GAME\CLIENT\HL2\C_WEAPON__STUBS_HL2.CPP
C:\SP\SRC\GAME\CLIENT\RELEASE_MOD_HL2\VC120.PDB
^C:\SP\SRC\GAME\CLIENT\HL2\C_WEAPON_CROSSBOW.CPP
C:\SP\SRC\GAME\CLIENT\RELEASE_MOD_HL2\VC120.PDB
^C:\SP\SRC\GAME\CLIENT\HL2\C_WEAPON_PHYSCANNON.CPP
C:\SP\SRC\GAME\CLIENT\RELEASE_MOD_HL2\VC120.PDB
^C:\SP\SRC\GAME\CLIENT\HL2\C_WEAPON_STUNSTICK.CPP
C:\SP\SRC\GAME\CLIENT\RELEASE_MOD_HL2\VC120.PDB
^C:\SP\SRC\GAME\CLIENT\HL2\CLIENTMODE_HLNORMAL.CPP
C:\SP\SRC\GAME\CLIENT\RELEASE_MOD_HL2\VC120.PDB
^C:\SP\SRC\GAME\CLIENT\DEATH.CPP
C:\SP\SRC\GAME\CLIENT\RELEASE_MOD_HL2\VC120.PDB
^C:\SP\SRC\GAME\SHARED\HL2\ENV_HEADCRABCANISTER_SHARED.CPP
C:\SP\SRC\GAME\CLIENT\RELEASE_MOD_HL2\VC120.PDB
^C:\SP\SRC\GAME\CLIENT\HL2\FX_ANTLION.CPP
C:\SP\SRC\GAME\CLIENT\RELEASE_MOD_HL2\VC120.PDB
^C:\SP\SRC\GAME\CLIENT\HL2\FX_BUGBAIT.CPP
C:\SP\SRC\GAME\CLIENT\RELEASE_MOD_HL2\VC120.PDB
^C:\SP\SRC\GAME\CLIENT\HL2\FX_HL2_IMPACTS.CPP
C:\SP\SRC\GAME\CLIENT\RELEASE_MOD_HL2\VC120.PDB
^C:\SP\SRC\GAME\CLIENT\HL2\FX_HL2_TRACERS.CPP
C:\SP\SRC\GAME\CLIENT\RELEASE_MOD_HL2\VC120.PDB
^C:\SP\SRC\GAME\CLIENT\HL2\HL2_CLIENTMODE.CPP
C:\SP\SRC\GAME\CLIENT\RELEASE_MOD_HL2\VC120.PDB
^C:\SP\SRC\GAME\SHARED\HL2\HL2_GAMERULES.CPP
C:\SP\SRC\GAME\CLIENT\RELEASE_MOD_HL2\VC120.PDB
^C:\SP\SRC\GAME\SHARED\HL2\HL2_USERMESSAGES.CPP
C:\SP\SRC\GAME\CLIENT\RELEASE_MOD_HL2\VC120.PDB
^C:\SP\SRC\GAME\SHARED\HL2\HL_GAMEMOVEMENT.CPP
C:\SP\SRC\GAME\CLIENT\RELEASE_MOD_HL2\VC120.PDB
^C:\SP\SRC\GAME\CLIENT\HL2\HL_IN_MAIN.CPP
C:\SP\SRC\GAME\CLIENT\RELEASE_MOD_HL2\VC120.PDB
^C:\SP\SRC\GAME\CLIENT\HL2\HL_PREDICTION.CPP
C:\SP\SRC\GAME\CLIENT\RELEASE_MOD_HL2\VC120.PDB
^C:\SP\SRC\GAME\CLIENT\HL2\HUD_AMMO.CPP
C:\SP\SRC\GAME\CLIENT\RELEASE_MOD_HL2\VC120.PDB
^C:\SP\SRC\GAME\CLIENT\HL2\HUD_BATTERY.CPP
C:\SP\SRC\GAME\CLIENT\RELEASE_MOD_HL2\VC120.PDB
^C:\SP\SRC\GAME\CLIENT\HL2\HUD_BLOOD.CPP
C:\SP\SRC\GAME\CLIENT\RELEASE_MOD_HL2\VC120.PDB
^C:\SP\SRC\GAME\CLIENT\HL2\HUD_CREDITS.CPP
C:\SP\SRC\GAME\CLIENT\RELEASE_MOD_HL2\VC120.PDB
^C:\SP\SRC\GAME\CLIENT\HL2\HUD_DAMAGEINDICATOR.CPP
C:\SP\SRC\GAME\CLIENT\RELEASE_MOD_HL2\VC120.PDB
^C:\SP\SRC\GAME\CLIENT\HL2\HUD_FLASHLIGHT.CPP
C:\SP\SRC\GAME\CLIENT\RELEASE_MOD_HL2\VC120.PDB
^C:\SP\SRC\GAME\CLIENT\HL2\HUD_HEALTH.CPP
C:\SP\SRC\GAME\CLIENT\RELEASE_MOD_HL2\VC120.PDB
^C:\SP\SRC\GAME\CLIENT\HL2\HUD_POISONDAMAGEINDICATOR.CPP
C:\SP\SRC\GAME\CLIENT\RELEASE_MOD_HL2\VC120.PDB
^C:\SP\SRC\GAME\CLIENT\HUD_POSTURE.CPP
C:\SP\SRC\GAME\CLIENT\RELEASE_MOD_HL2\VC120.PDB
^C:\SP\SRC\GAME\CLIENT\HL2\HUD_QUICKINFO.CPP
C:\SP\SRC\GAME\CLIENT\RELEASE_MOD_HL2\VC120.PDB
^C:\SP\SRC\GAME\CLIENT\HUD_SQUADSTATUS.CPP
C:\SP\SRC\GAME\CLIENT\RELEASE_MOD_HL2\VC120.PDB
^C:\SP\SRC\GAME\CLIENT\HL2\HUD_SUITPOWER.CPP
C:\SP\SRC\GAME\CLIENT\RELEASE_MOD_HL2\VC120.PDB
^C:\SP\SRC\GAME\CLIENT\HL2\HUD_WEAPONSELECTION.CPP
C:\SP\SRC\GAME\CLIENT\RELEASE_MOD_HL2\VC120.PDB
^C:\SP\SRC\GAME\CLIENT\HL2\HUD_ZOOM.CPP
C:\SP\SRC\GAME\CLIENT\RELEASE_MOD_HL2\VC120.PDB
^C:\SP\SRC\GAME\SHARED\SCRIPT_INTRO_SHARED.CPP
C:\SP\SRC\GAME\CLIENT\RELEASE_MOD_HL2\VC120.PDB
^C:\SP\SRC\GAME\CLIENT\HL2\SHIELDPROXY.CPP
C:\SP\SRC\GAME\CLIENT\RELEASE_MOD_HL2\VC120.PDB
^C:\SP\SRC\GAME\CLIENT\HL2\VGUI_ROOTPANEL_HL2.CPP
C:\SP\SRC\GAME\CLIENT\RELEASE_MOD_HL2\VC120.PDB
^C:\SP\SRC\GAME\CLIENT\SIXENSE\IN_SIXENSE.CPP
C:\SP\SRC\GAME\CLIENT\RELEASE_MOD_HL2\VC120.PDB
^C:\SP\SRC\GAME\CLIENT\SIXENSE\IN_SIXENSE_GESTURE_BINDINGS.CPP
C:\SP\SRC\GAME\CLIENT\RELEASE_MOD_HL2\VC120.PDB
^C:\SP\SRC\GAME\SHARED\SIXENSE\SIXENSE_CONVARS.CPP
C:\SP\SRC\GAME\CLIENT\RELEASE_MOD_HL2\VC120.PDB
^C:\SP\SRC\GAME\CLIENT\C_BASETEMPENTITY.CPP
C:\SP\SRC\GAME\CLIENT\RELEASE_MOD_HL2\VC120.PDB
^C:\SP\SRC\GAME\CLIENT\C_EFFECTS.CPP
C:\SP\SRC\GAME\CLIENT\RELEASE_MOD_HL2\VC120.PDB
^C:\SP\SRC\GAME\CLIENT\C_IMPACT_EFFECTS.CPP
C:\SP\SRC\GAME\CLIENT\RELEASE_MOD_HL2\VC120.PDB
^C:\SP\SRC\GAME\CLIENT\C_MOVIE_EXPLOSION.CPP
C:\SP\SRC\GAME\CLIENT\RELEASE_MOD_HL2\VC120.PDB
^C:\SP\SRC\GAME\CLIENT\C_PARTICLE_FIRE.CPP
C:\SP\SRC\GAME\CLIENT\RELEASE_MOD_HL2\VC120.PDB
^C:\SP\SRC\GAME\CLIENT\C_PARTICLE_SMOKEGRENADE.CPP
C:\SP\SRC\GAME\CLIENT\RELEASE_MOD_HL2\VC120.PDB
^C:\SP\SRC\GAME\CLIENT\C_PROP_VEHICLE.CPP
C:\SP\SRC\GAME\CLIENT\RELEASE_MOD_HL2\VC120.PDB
^C:\SP\SRC\GAME\CLIENT\C_RECIPIENTFILTER.CPP
C:\SP\SRC\GAME\CLIENT\RELEASE_MOD_HL2\VC120.PDB
^C:\SP\SRC\GAME\CLIENT\C_SMOKE_TRAIL.CPP
C:\SP\SRC\GAME\CLIENT\RELEASE_MOD_HL2\VC120.PDB
^C:\SP\SRC\GAME\CLIENT\C_SMOKESTACK.CPP
C:\SP\SRC\GAME\CLIENT\RELEASE_MOD_HL2\VC120.PDB
^C:\SP\SRC\GAME\CLIENT\C_STEAMJET.CPP
C:\SP\SRC\GAME\CLIENT\RELEASE_MOD_HL2\VC120.PDB
^C:\SP\SRC\GAME\CLIENT\C_STICKYBOLT.CPP
C:\SP\SRC\GAME\CLIENT\RELEASE_MOD_HL2\VC120.PDB
^C:\SP\SRC\GAME\CLIENT\C_TE.CPP
C:\SP\SRC\GAME\CLIENT\RELEASE_MOD_HL2\VC120.PDB
^C:\SP\SRC\GAME\CLIENT\C_TE_ARMORRICOCHET.CPP
C:\SP\SRC\GAME\CLIENT\RELEASE_MOD_HL2\VC120.PDB
^C:\SP\SRC\GAME\CLIENT\C_TE_BASEBEAM.CPP
C:\SP\SRC\GAME\CLIENT\RELEASE_MOD_HL2\VC120.PDB
^C:\SP\SRC\GAME\CLIENT\C_TE_BEAMENTPOINT.CPP
C:\SP\SRC\GAME\CLIENT\RELEASE_MOD_HL2\VC120.PDB
^C:\SP\SRC\GAME\CLIENT\C_TE_BEAMENTS.CPP
C:\SP\SRC\GAME\CLIENT\RELEASE_MOD_HL2\VC120.PDB
^C:\SP\SRC\GAME\CLIENT\C_TE_BEAMFOLLOW.CPP
C:\SP\SRC\GAME\CLIENT\RELEASE_MOD_HL2\VC120.PDB
^C:\SP\SRC\GAME\CLIENT\C_TE_BEAMLASER.CPP
C:\SP\SRC\GAME\CLIENT\RELEASE_MOD_HL2\VC120.PDB
^C:\SP\SRC\GAME\CLIENT\C_TE_BEAMPOINTS.CPP
C:\SP\SRC\GAME\CLIENT\RELEASE_MOD_HL2\VC120.PDB
^C:\SP\SRC\GAME\CLIENT\C_TE_BEAMRING.CPP
C:\SP\SRC\GAME\CLIENT\RELEASE_MOD_HL2\VC120.PDB
^C:\SP\SRC\GAME\CLIENT\C_TE_BEAMRINGPOINT.CPP
C:\SP\SRC\GAME\CLIENT\RELEASE_MOD_HL2\VC120.PDB
^C:\SP\SRC\GAME\CLIENT\C_TE_BEAMSPLINE.CPP
C:\SP\SRC\GAME\CLIENT\RELEASE_MOD_HL2\VC120.PDB
^C:\SP\SRC\GAME\CLIENT\C_TE_BLOODSPRITE.CPP
C:\SP\SRC\GAME\CLIENT\RELEASE_MOD_HL2\VC120.PDB
^C:\SP\SRC\GAME\CLIENT\C_TE_BLOODSTREAM.CPP
C:\SP\SRC\GAME\CLIENT\RELEASE_MOD_HL2\VC120.PDB
^C:\SP\SRC\GAME\CLIENT\C_TE_BREAKMODEL.CPP
C:\SP\SRC\GAME\CLIENT\RELEASE_MOD_HL2\VC120.PDB
^C:\SP\SRC\GAME\CLIENT\C_TE_BSPDECAL.CPP
C:\SP\SRC\GAME\CLIENT\RELEASE_MOD_HL2\VC120.PDB
^C:\SP\SRC\GAME\CLIENT\C_TE_BUBBLES.CPP
C:\SP\SRC\GAME\CLIENT\RELEASE_MOD_HL2\VC120.PDB
^C:\SP\SRC\GAME\CLIENT\C_TE_BUBBLETRAIL.CPP
C:\SP\SRC\GAME\CLIENT\RELEASE_MOD_HL2\VC120.PDB
^C:\SP\SRC\GAME\CLIENT\C_TE_CLIENTPROJECTILE.CPP
C:\SP\SRC\GAME\CLIENT\RELEASE_MOD_HL2\VC120.PDB
^C:\SP\SRC\GAME\CLIENT\C_TE_DECAL.CPP
C:\SP\SRC\GAME\CLIENT\RELEASE_MOD_HL2\VC120.PDB
^C:\SP\SRC\GAME\CLIENT\C_TE_DYNAMICLIGHT.CPP
C:\SP\SRC\GAME\CLIENT\RELEASE_MOD_HL2\VC120.PDB
^C:\SP\SRC\GAME\CLIENT\C_TE_EFFECT_DISPATCH.CPP
C:\SP\SRC\GAME\CLIENT\RELEASE_MOD_HL2\VC120.PDB
^C:\SP\SRC\GAME\CLIENT\C_TE_ENERGYSPLASH.CPP
C:\SP\SRC\GAME\CLIENT\RELEASE_MOD_HL2\VC120.PDB
^C:\SP\SRC\GAME\CLIENT\C_TE_EXPLOSION.CPP
C:\SP\SRC\GAME\CLIENT\RELEASE_MOD_HL2\VC120.PDB
^C:\SP\SRC\GAME\CLIENT\C_TE_FIZZ.CPP
C:\SP\SRC\GAME\CLIENT\RELEASE_MOD_HL2\VC120.PDB
^C:\SP\SRC\GAME\CLIENT\C_TE_FOOTPRINT.CPP
C:\SP\SRC\GAME\CLIENT\RELEASE_MOD_HL2\VC120.PDB
^C:\SP\SRC\GAME\CLIENT\C_TE_GLASSSHATTER.CPP
C:\SP\SRC\GAME\CLIENT\RELEASE_MOD_HL2\VC120.PDB
^C:\SP\SRC\GAME\CLIENT\C_TE_GLOWSPRITE.CPP
C:\SP\SRC\GAME\CLIENT\RELEASE_MOD_HL2\VC120.PDB
^C:\SP\SRC\GAME\CLIENT\C_TE_IMPACT.CPP
C:\SP\SRC\GAME\CLIENT\RELEASE_MOD_HL2\VC120.PDB
^C:\SP\SRC\GAME\CLIENT\C_TE_KILLPLAYERATTACHMENTS.CPP
C:\SP\SRC\GAME\CLIENT\RELEASE_MOD_HL2\VC120.PDB
^C:\SP\SRC\GAME\CLIENT\C_TE_LARGEFUNNEL.CPP
C:\SP\SRC\GAME\CLIENT\RELEASE_MOD_HL2\VC120.PDB
^C:\SP\SRC\GAME\CLIENT\C_TE_LEGACYTEMPENTS.CPP
C:\SP\SRC\GAME\CLIENT\RELEASE_MOD_HL2\VC120.PDB
^C:\SP\SRC\GAME\CLIENT\C_TE_MUZZLEFLASH.CPP
C:\SP\SRC\GAME\CLIENT\RELEASE_MOD_HL2\VC120.PDB
^C:\SP\SRC\GAME\CLIENT\C_TE_PARTICLESYSTEM.CPP
C:\SP\SRC\GAME\CLIENT\RELEASE_MOD_HL2\VC120.PDB
^C:\SP\SRC\GAME\CLIENT\C_TE_PHYSICSPROP.CPP
C:\SP\SRC\GAME\CLIENT\RELEASE_MOD_HL2\VC120.PDB
^C:\SP\SRC\GAME\CLIENT\C_TE_PLAYERDECAL.CPP
C:\SP\SRC\GAME\CLIENT\RELEASE_MOD_HL2\VC120.PDB
^C:\SP\SRC\GAME\CLIENT\C_TE_PROJECTEDDECAL.CPP
C:\SP\SRC\GAME\CLIENT\RELEASE_MOD_HL2\VC120.PDB
^C:\SP\SRC\GAME\CLIENT\C_TE_SHOWLINE.CPP
C:\SP\SRC\GAME\CLIENT\RELEASE_MOD_HL2\VC120.PDB
^C:\SP\SRC\GAME\CLIENT\C_TE_SMOKE.CPP
C:\SP\SRC\GAME\CLIENT\RELEASE_MOD_HL2\VC120.PDB
^C:\SP\SRC\GAME\CLIENT\C_TE_SPARKS.CPP
C:\SP\SRC\GAME\CLIENT\RELEASE_MOD_HL2\VC120.PDB
^C:\SP\SRC\GAME\CLIENT\C_TE_SPRITE.CPP
C:\SP\SRC\GAME\CLIENT\RELEASE_MOD_HL2\VC120.PDB
^C:\SP\SRC\GAME\CLIENT\C_TE_SPRITESPRAY.CPP
C:\SP\SRC\GAME\CLIENT\RELEASE_MOD_HL2\VC120.PDB
^C:\SP\SRC\GAME\CLIENT\C_TE_WORLDDECAL.CPP
C:\SP\SRC\GAME\CLIENT\RELEASE_MOD_HL2\VC120.PDB
^C:\SP\SRC\GAME\CLIENT\C_TESTTRACELINE.CPP
C:\SP\SRC\GAME\CLIENT\RELEASE_MOD_HL2\VC120.PDB
^C:\SP\SRC\GAME\CLIENT\C_TRACER.CPP
C:\SP\SRC\GAME\CLIENT\RELEASE_MOD_HL2\VC120.PDB
^C:\SP\SRC\GAME\CLIENT\FX.CPP
C:\SP\SRC\GAME\CLIENT\RELEASE_MOD_HL2\VC120.PDB
^C:\SP\SRC\GAME\CLIENT\FX_DISCREETLINE.CPP
C:\SP\SRC\GAME\CLIENT\RELEASE_MOD_HL2\VC120.PDB
^C:\SP\SRC\GAME\CLIENT\FX_ENVELOPE.CPP
C:\SP\SRC\GAME\CLIENT\RELEASE_MOD_HL2\VC120.PDB
^C:\SP\SRC\GAME\CLIENT\FX_LINE.CPP
C:\SP\SRC\GAME\CLIENT\RELEASE_MOD_HL2\VC120.PDB
^C:\SP\SRC\GAME\CLIENT\FX_SPARKS.CPP
C:\SP\SRC\GAME\CLIENT\RELEASE_MOD_HL2\VC120.PDB
^C:\SP\SRC\GAME\CLIENT\PARTICLESPHERERENDERER.CPP
C:\SP\SRC\GAME\CLIENT\RELEASE_MOD_HL2\VC120.PDB
^C:\SP\SRC\GAME\CLIENT\SMOKE_FOG_OVERLAY.CPP
C:\SP\SRC\GAME\CLIENT\RELEASE_MOD_HL2\VC120.PDB
^C:\SP\SRC\PUBLIC\TOOLS\BONELIST.CPP
C:\SP\SRC\GAME\CLIENT\RELEASE_MOD_HL2\VC120.PDB
^C:\SP\SRC\GAME\CLIENT\ENTITY_CLIENT_TOOLS.CPP
C:\SP\SRC\GAME\CLIENT\RELEASE_MOD_HL2\VC120.PDB
^C:\SP\SRC\GAME\CLIENT\TOOLFRAMEWORK_CLIENT.CPP
C:\SP\SRC\GAME\CLIENT\RELEASE_MOD_HL2\VC120.PDB
^C:\SP\SRC\COMMON\COMPILEDCAPTIONSWAP.CPP|C:\SP\SRC\COMMON\LANGUAGE.CPP|C:\SP\SRC\COMMON\RANDOVERRIDE.CPP|C:\SP\SRC\GAME\CLIENT\HUD_LCD.CPP|C:\SP\SRC\GAME\CLIENT\IN_MOUSE.CPP|C:\SP\SRC\GAME\CLIENT\MUMBLE.CPP|C:\SP\SRC\GAME\CLIENT\RENDERTEXTURE.CPP|C:\SP\SRC\GAME\SHARED\INTERVAL.CPP|C:\SP\SRC\GAME\SHARED\SHEETSIMULATOR.CPP|C:\SP\SRC\PUBLIC\BONE_SETUP.CPP|C:\SP\SRC\PUBLIC\CLIENT_CLASS.CPP|C:\SP\SRC\PUBLIC\COLLISIONUTILS.CPP|C:\SP\SRC\PUBLIC\CRTMEMDEBUG.CPP|C:\SP\SRC\PUBLIC\DT_RECV.CPP|C:\SP\SRC\PUBLIC\DT_UTLVECTOR_COMMON.CPP|C:\SP\SRC\PUBLIC\DT_UTLVECTOR_RECV.CPP|C:\SP\SRC\PUBLIC\FILESYSTEM_HELPERS.CPP|C:\SP\SRC\PUBLIC\INTERPOLATORTYPES.CPP|C:\SP\SRC\PUBLIC\JIGGLEBONES.CPP|C:\SP\SRC\PUBLIC\NETWORKVAR.CPP|C:\SP\SRC\PUBLIC\POSEDEBUGGER.CPP|C:\SP\SRC\PUBLIC\RENAMED_RECVTABLE_COMPAT.CPP|C:\SP\SRC\PUBLIC\ROPE_PHYSICS.CPP|C:\SP\SRC\PUBLIC\SCRATCHPAD3D.CPP|C:\SP\SRC\PUBLIC\SCRATCHPADUTILS.CPP|C:\SP\SRC\PUBLIC\SENTENCE.CPP|C:\SP\SRC\PUBLIC\SIMPLE_PHYSICS.CPP|C:\SP\SRC\PUBLIC\STRINGREGISTRY.CPP|C:\SP\SRC\PUBLIC\STUDIO.CPP|C:\SP\SRC\PUBLIC\TIER0\MEMOVERRIDE.CPP|C:\SP\SRC\PUBLIC\VALLOCATOR.CPP|C:\SP\SRC\PUBLIC\VGUI_CONTROLS\VGUI_CONTROLS.CPP
C:\SP\SRC\GAME\CLIENT\RELEASE_MOD_HL2\CRTMEMDEBUG.OBJ
C:\SP\SRC\GAME\CLIENT\RELEASE_MOD_HL2\DT_UTLVECTOR_COMMON.OBJ
C:\SP\SRC\GAME\CLIENT\RELEASE_MOD_HL2\FILESYSTEM_HELPERS.OBJ
C:\SP\SRC\GAME\CLIENT\RELEASE_MOD_HL2\JIGGLEBONES.OBJ
C:\SP\SRC\GAME\CLIENT\RELEASE_MOD_HL2\RENDERTEXTURE.OBJ
C:\SP\SRC\GAME\CLIENT\RELEASE_MOD_HL2\SCRATCHPADUTILS.OBJ
C:\SP\SRC\GAME\CLIENT\RELEASE_MOD_HL2\SHEETSIMULATOR.OBJ
C:\SP\SRC\GAME\CLIENT\RELEASE_MOD_HL2\VGUI_CONTROLS.OBJ
C:\SP\SRC\GAME\CLIENT\RELEASE_MOD_HL2\COMPILEDCAPTIONSWAP.OBJ
C:\SP\SRC\GAME\CLIENT\RELEASE_MOD_HL2\IN_MOUSE.OBJ
C:\SP\SRC\GAME\CLIENT\RELEASE_MOD_HL2\VALLOCATOR.OBJ
C:\SP\SRC\GAME\CLIENT\RELEASE_MOD_HL2\DT_RECV.OBJ
C:\SP\SRC\GAME\CLIENT\RELEASE_MOD_HL2\DT_UTLVECTOR_RECV.OBJ
C:\SP\SRC\GAME\CLIENT\RELEASE_MOD_HL2\INTERPOLATORTYPES.OBJ
C:\SP\SRC\GAME\CLIENT\RELEASE_MOD_HL2\LANGUAGE.OBJ
C:\SP\SRC\GAME\CLIENT\RELEASE_MOD_HL2\NETWORKVAR.OBJ
C:\SP\SRC\GAME\CLIENT\RELEASE_MOD_HL2\POSEDEBUGGER.OBJ
C:\SP\SRC\GAME\CLIENT\RELEASE_MOD_HL2\SCRATCHPAD3D.OBJ
C:\SP\SRC\GAME\CLIENT\RELEASE_MOD_HL2\SIMPLE_PHYSICS.OBJ
C:\SP\SRC\GAME\CLIENT\RELEASE_MOD_HL2\STUDIO.OBJ
C:\SP\SRC\GAME\CLIENT\RELEASE_MOD_HL2\COLLISIONUTILS.OBJ
C:\SP\SRC\GAME\CLIENT\RELEASE_MOD_HL2\HUD_LCD.OBJ
C:\SP\SRC\GAME\CLIENT\RELEASE_MOD_HL2\CLIENT_CLASS.OBJ
C:\SP\SRC\GAME\CLIENT\RELEASE_MOD_HL2\INTERVAL.OBJ
C:\SP\SRC\GAME\CLIENT\RELEASE_MOD_HL2\MEMOVERRIDE.OBJ
C:\SP\SRC\GAME\CLIENT\RELEASE_MOD_HL2\RANDOVERRIDE.OBJ
C:\SP\SRC\GAME\CLIENT\RELEASE_MOD_HL2\RENAMED_RECVTABLE_COMPAT.OBJ
C:\SP\SRC\GAME\CLIENT\RELEASE_MOD_HL2\ROPE_PHYSICS.OBJ
C:\SP\SRC\GAME\CLIENT\RELEASE_MOD_HL2\SENTENCE.OBJ
C:\SP\SRC\GAME\CLIENT\RELEASE_MOD_HL2\STRINGREGISTRY.OBJ
C:\SP\SRC\GAME\CLIENT\RELEASE_MOD_HL2\BONE_SETUP.OBJ
C:\SP\SRC\GAME\CLIENT\RELEASE_MOD_HL2\MUMBLE.OBJ
^C:\SP\SRC\PUBLIC\BONE_SETUP.CPP
C:\SP\SRC\GAME\CLIENT\RELEASE_MOD_HL2\VC120.PDB
^C:\SP\SRC\PUBLIC\CLIENT_CLASS.CPP
C:\SP\SRC\GAME\CLIENT\RELEASE_MOD_HL2\VC120.PDB
^C:\SP\SRC\PUBLIC\COLLISIONUTILS.CPP
C:\SP\SRC\GAME\CLIENT\RELEASE_MOD_HL2\VC120.PDB
^C:\SP\SRC\COMMON\COMPILEDCAPTIONSWAP.CPP
C:\SP\SRC\GAME\CLIENT\RELEASE_MOD_HL2\VC120.PDB
^C:\SP\SRC\PUBLIC\CRTMEMDEBUG.CPP
C:\SP\SRC\GAME\CLIENT\RELEASE_MOD_HL2\VC120.PDB
^C:\SP\SRC\PUBLIC\DT_RECV.CPP
C:\SP\SRC\GAME\CLIENT\RELEASE_MOD_HL2\VC120.PDB
^C:\SP\SRC\PUBLIC\DT_UTLVECTOR_COMMON.CPP
C:\SP\SRC\GAME\CLIENT\RELEASE_MOD_HL2\VC120.PDB
^C:\SP\SRC\PUBLIC\DT_UTLVECTOR_RECV.CPP
C:\SP\SRC\GAME\CLIENT\RELEASE_MOD_HL2\VC120.PDB
^C:\SP\SRC\PUBLIC\FILESYSTEM_HELPERS.CPP
C:\SP\SRC\GAME\CLIENT\RELEASE_MOD_HL2\VC120.PDB
^C:\SP\SRC\GAME\CLIENT\HUD_LCD.CPP
C:\SP\SRC\GAME\CLIENT\RELEASE_MOD_HL2\VC120.PDB
^C:\SP\SRC\GAME\CLIENT\IN_MOUSE.CPP
C:\SP\SRC\GAME\CLIENT\RELEASE_MOD_HL2\VC120.PDB
^C:\SP\SRC\PUBLIC\INTERPOLATORTYPES.CPP
C:\SP\SRC\GAME\CLIENT\RELEASE_MOD_HL2\VC120.PDB
^C:\SP\SRC\GAME\SHARED\INTERVAL.CPP
C:\SP\SRC\GAME\CLIENT\RELEASE_MOD_HL2\VC120.PDB
^C:\SP\SRC\PUBLIC\JIGGLEBONES.CPP
C:\SP\SRC\GAME\CLIENT\RELEASE_MOD_HL2\VC120.PDB
^C:\SP\SRC\COMMON\LANGUAGE.CPP
C:\SP\SRC\GAME\CLIENT\RELEASE_MOD_HL2\VC120.PDB
^C:\SP\SRC\PUBLIC\TIER0\MEMOVERRIDE.CPP
C:\SP\SRC\GAME\CLIENT\RELEASE_MOD_HL2\VC120.PDB
^C:\SP\SRC\GAME\CLIENT\MUMBLE.CPP
C:\SP\SRC\GAME\CLIENT\RELEASE_MOD_HL2\VC120.PDB
^C:\SP\SRC\PUBLIC\NETWORKVAR.CPP
C:\SP\SRC\GAME\CLIENT\RELEASE_MOD_HL2\VC120.PDB
^C:\SP\SRC\PUBLIC\POSEDEBUGGER.CPP
C:\SP\SRC\GAME\CLIENT\RELEASE_MOD_HL2\VC120.PDB
^C:\SP\SRC\COMMON\RANDOVERRIDE.CPP
C:\SP\SRC\GAME\CLIENT\RELEASE_MOD_HL2\VC120.PDB
^C:\SP\SRC\PUBLIC\RENAMED_RECVTABLE_COMPAT.CPP
C:\SP\SRC\GAME\CLIENT\RELEASE_MOD_HL2\VC120.PDB
^C:\SP\SRC\GAME\CLIENT\RENDERTEXTURE.CPP
C:\SP\SRC\GAME\CLIENT\RELEASE_MOD_HL2\VC120.PDB
^C:\SP\SRC\PUBLIC\ROPE_PHYSICS.CPP
C:\SP\SRC\GAME\CLIENT\RELEASE_MOD_HL2\VC120.PDB
^C:\SP\SRC\PUBLIC\SCRATCHPAD3D.CPP
C:\SP\SRC\GAME\CLIENT\RELEASE_MOD_HL2\VC120.PDB
^C:\SP\SRC\PUBLIC\SCRATCHPADUTILS.CPP
C:\SP\SRC\GAME\CLIENT\RELEASE_MOD_HL2\VC120.PDB
^C:\SP\SRC\PUBLIC\SENTENCE.CPP
C:\SP\SRC\GAME\CLIENT\RELEASE_MOD_HL2\VC120.PDB
^C:\SP\SRC\GAME\SHARED\SHEETSIMULATOR.CPP
C:\SP\SRC\GAME\CLIENT\RELEASE_MOD_HL2\VC120.PDB
^C:\SP\SRC\PUBLIC\SIMPLE_PHYSICS.CPP
C:\SP\SRC\GAME\CLIENT\RELEASE_MOD_HL2\VC120.PDB
^C:\SP\SRC\PUBLIC\STRINGREGISTRY.CPP
C:\SP\SRC\GAME\CLIENT\RELEASE_MOD_HL2\VC120.PDB
^C:\SP\SRC\PUBLIC\STUDIO.CPP
C:\SP\SRC\GAME\CLIENT\RELEASE_MOD_HL2\VC120.PDB
^C:\SP\SRC\PUBLIC\VALLOCATOR.CPP
C:\SP\SRC\GAME\CLIENT\RELEASE_MOD_HL2\VC120.PDB
^C:\SP\SRC\PUBLIC\VGUI_CONTROLS\VGUI_CONTROLS.CPP
C:\SP\SRC\GAME\CLIENT\RELEASE_MOD_HL2\VC120.PDB
