^C:\MP\SRC\PUBLIC\TIER0\POINTEROVERRIDE.ASM
C:\MP\SRC\UTILS\VVIS_LAUNCHER\RELEASE\POINTEROVERRIDE.OBJ
^C:\MP\SRC\UTILS\VVIS_LAUNCHER\VVIS_LAUNCHER.VPC
C:\MP\SRC\UTILS\VVIS_LAUNCHER\VVIS_LAUNCHER.VPC.SENTINEL
