^C:\MP\SRC\LIB\PUBLIC\TIER0.LIB|C:\MP\SRC\LIB\PUBLIC\TIER1.LIB|C:\MP\SRC\LIB\PUBLIC\VSTDLIB.LIB|C:\MP\SRC\UTILS\VVIS_LAUNCHER\RELEASE\MEMOVERRIDE.OBJ|C:\MP\SRC\UTILS\VVIS_LAUNCHER\RELEASE\POINTEROVERRIDE.OBJ|C:\MP\SRC\UTILS\VVIS_LAUNCHER\RELEASE\STDAFX.OBJ|C:\MP\SRC\UTILS\VVIS_LAUNCHER\RELEASE\VVIS_LAUNCHER.OBJ
C:\MP\SRC\UTILS\VVIS_LAUNCHER\RELEASE\VVIS.EXE
C:\MP\SRC\UTILS\VVIS_LAUNCHER\RELEASE\VVIS.PDB
