"LightmappedGeneric"
{
	"$basetexture" "RealWorldTextures2\stairs\stairs_02"
	"$bumpmap" "RealWorldTextures2\stairs\stairs_02_nrm"
	"$bumpscale" ".6"
	"$surfaceprop" "wood"
} //Realworld Textures Version 2 - Made by TopHATTwaffle - Please credit me if used! - Contact: www.tophattwaffle.com
