"VertexLitGeneric"
{
	"$basetexture"		"models/workshop/fmpyrn/items/pyro/dec2014_pyromancers_raiments/raiments_blu"
	"$bumpmap"		"models/workshop/fmpyrn/items/pyro/dec2014_pyromancers_raiments/raiments_normal"
	"$lightwarptexture"		"models/player/pyro/pyro_lightwarp"
	"$phong"		"1"
	"$phongexponent"		"15.000000"
	"$phongboost"		"0.300000"
	"$phongfresnelranges"		"[.25 .5 1]"
	"$rimlight"		"1"
	"$rimlightexponent"		"3.000000"
	"$rimlightboost"		"2"
	"$blendtintbybasealpha"		"1"
	"$blendtintcoloroverbase"		"0.900000"
	"$colortint_base"		"{ 0 200 0 }"
	"$color2"		"{ 0 200 0 }"
	"$colortint_tmp"		"[0 0 0]"
	"$bumpmapalphaphongmask"		"1"
	"$cloakPassEnabled"		"1"
	"$detail"		"effects/tiledfire/fireLayeredSlowTiled512"
	"$detailscale"		"5"
	"$detailblendfactor"		"0"
	"$detailblendmode"		"6"
	"$yellow"		"0"
	">=DX90"
	{
		"$selfillum"		"0"
	}
	"proxies"
	{
		"invis"
		{
		}
		"AnimatedTexture"
		{
			"animatedtexturevar"		"$detail"
			"animatedtextureframenumvar"		"$detailframe"
			"animatedtextureframerate"		"30"
		}
		"BurnLevel"
		{
			"resultVar"		"$detailblendfactor"
		}
		"ItemTintColor"
		{
			"resultVar"		"$colortint_tmp"
		}
		"SelectFirstIfNonZero"
		{
			"srcVar1"		"$colortint_tmp"
			"srcVar2"		"$colortint_base"
			"resultVar"		"$color2"
		}
		"YellowLevel"
		{
			"resultVar"		"$yellow"
		}
		"Multiply"
		{
			"srcVar1"		"$color2"
			"srcVar2"		"$yellow"
			"resultVar"		"$color2"
		}
	}
}
