^C:\MP\SRC\UTILS\COMMON\CMDLIB.CPP
C:\MP\SRC\UTILS\MOTIONMAPPER\RELEASE\VC120.PDB
^C:\MP\SRC\PUBLIC\FILESYSTEM_HELPERS.CPP
C:\MP\SRC\UTILS\MOTIONMAPPER\RELEASE\VC120.PDB
^C:\MP\SRC\PUBLIC\FILESYSTEM_INIT.CPP
C:\MP\SRC\UTILS\MOTIONMAPPER\RELEASE\VC120.PDB
^C:\MP\SRC\UTILS\COMMON\FILESYSTEM_TOOLS.CPP
C:\MP\SRC\UTILS\MOTIONMAPPER\RELEASE\VC120.PDB
^C:\MP\SRC\PUBLIC\TIER0\MEMOVERRIDE.CPP
C:\MP\SRC\UTILS\MOTIONMAPPER\RELEASE\VC120.PDB
^C:\MP\SRC\UTILS\MOTIONMAPPER\MOTIONMAPPER.CPP
C:\MP\SRC\UTILS\MOTIONMAPPER\RELEASE\VC120.PDB
^C:\MP\SRC\UTILS\COMMON\SCRIPLIB.CPP
C:\MP\SRC\UTILS\MOTIONMAPPER\RELEASE\VC120.PDB
