^C:\MP\SRC\PUBLIC\TIER0\POINTEROVERRIDE.ASM
C:\MP\SRC\UTILS\MOTIONMAPPER\RELEASE\POINTEROVERRIDE.OBJ
^C:\MP\SRC\UTILS\MOTIONMAPPER\MOTIONMAPPER.VPC
C:\MP\SRC\UTILS\MOTIONMAPPER\MOTIONMAPPER.VPC.SENTINEL
