"GameMenu"
{
	"1"
	{
		"label" "#GameUI_GameMenu_ResumeGame"
		"command" "ResumeGame"
		"InGameOrder" "10"
		"OnlyInGame" "1"
	}
	"2"
	{
		"label" "#GameUI_GameMenu_ConnectToOfficialServer"
		"command" "engine connect 10.0.0.177:27145"
		"InGameOrder" "10"
		"OnlyInGame" "0"
	}
	"5"	
	{
		"label" "#GameUI_GameMenu_NewGame"
		"command" "OpenNewGameDialog"
		"InGameOrder" "40"
		"notmulti" "0"
	}
	"6"
	{
		"label" "#GameUI_GameMenu_LoadGame"
		"command" "OpenLoadGameDialog"
		"InGameOrder" "30"
		"notmulti" "1"
	}
	"7"
	{
		"label" "#GameUI_GameMenu_SaveGame"
		"command" "OpenSaveGameDialog"
		"InGameOrder" "20"
		"notmulti" "1"
		"OnlyInGame" "1"
	}
	"7_5"
	{
		"label" "#GameUI_GameMenu_ActivateVR"
		"command" "engine vr_activate"
		"InGameOrder" "40"
		"OnlyWhenVREnabled" "1"
		"OnlyWhenVRInactive" "1"
	}
	"7_6"
	{
		"label" "#GameUI_GameMenu_DeactivateVR"
		"command" "engine vr_deactivate"
		"InGameOrder" "40"
		"OnlyWhenVREnabled" "1"
		"OnlyWhenVRActive" "1"
	}
	"8"
	{
		"label" "#GameUI_GameMenu_Achievements"
		"command" "OpenAchievementsDialog"
		"InGameOrder" "50"
	}
	"9"
	{
		"label" "#GameUI_Controller"
		"command" "OpenControllerDialog"
		"InGameOrder" "60"
		"ConsoleOnly" "1"
	}
	"10"
	{
		"label" "#GameUI_GameMenu_Options"
		"command" "OpenOptionsDialog"
		"InGameOrder" "70"
	}
	"11"
	{
		"label" "#GameUI_GameMenu_Quit"
		"command" "Quit"
		"InGameOrder" "80"
	}
}

