"LightmappedGeneric"
{
	"$basetexture" "RealWorldTextures2\Wood\wood_lattice_01"
	"$translucent" 1
	"$surfaceprop" "wood"
} //Realworld Textures Version 2 - Made by TopHATTwaffle - Please credit me if used! - Contact: www.tophattwaffle.com
