"LightmappedGeneric"
{
	"$basetexture" "RealWorldTextures2\Wood\wood_98"
	"$bumpmap" "RealWorldTextures2\Wood\wood_98_nrm"
	"$surfaceprop" "wood"
} //Realworld Textures Version 2 - Made by TopHATTwaffle - Please credit me if used! - Contact: www.tophattwaffle.com
