"LightmappedGeneric"
{
	"$basetexture" "RealWorldTextures2\Wood\wood_120"
	"$bumpmap" "RealWorldTextures2\Wood\wood_120_nrm"
	"$detail" "RealWorldTextures2\detail\dt_wood2"
	"$detailblendfactor" ".5"
	"$detailscale" "6"
	"$surfaceprop" "wood"
} //Realworld Textures Version 2 - Made by TopHATTwaffle - Please credit me if used! - Contact: www.tophattwaffle.com
