"LightmappedGeneric"
{
	"$basetexture" "RealWorldTextures2\Wood\wood_94"
	"$bumpmap" "RealWorldTextures2\Wood\wood_94_nrm"
	"$surfaceprop" "wood"
	"$envmap" "env_cubemap"
	"$envmaptint" "[.2 .2 .2]"
} //Realworld Textures Version 2 - Made by TopHATTwaffle - Please credit me if used! - Contact: www.tophattwaffle.com
