"LightmappedGeneric"
{
	"$basetexture" "RealWorldTextures2\Wood\wood_28"
	"$detail" "RealWorldTextures2\detail\dt_wood"
	"$detailblendfactor" ".8"
	"$detailscale" "6"
	"$surfaceprop" "wood"
} //Realworld Textures Version 2 - Made by TopHATTwaffle - Please credit me if used! - Contact: www.tophattwaffle.com
