"LightmappedGeneric"
{
	"$basetexture" "RealWorldTextures2\Wood\wood_33"
	"$bumpmap" "RealWorldTextures2\Wood\wood_33_nrm"
	"$detail" "RealWorldTextures2\detail\dt_wood1"
	"$detailblendfactor" ".7"
	"$detailscale" "7"
	"$surfaceprop" "wood"
} //Realworld Textures Version 2 - Made by TopHATTwaffle - Please credit me if used! - Contact: www.tophattwaffle.com
