^C:\SP\SRC\MATHLIB\ALMOSTEQUAL.CPP
G:\SOFTWARE\VS2013\VC\INCLUDE\FLOAT.H
G:\SOFTWARE\VS2013\VC\INCLUDE\CRTDEFS.H
G:\SOFTWARE\VS2013\VC\INCLUDE\SAL.H
G:\SOFTWARE\VS2013\VC\INCLUDE\CONCURRENCYSAL.H
G:\SOFTWARE\VS2013\VC\INCLUDE\VADEFS.H
G:\SOFTWARE\VS2013\VC\INCLUDE\CRTWRN.H
G:\SOFTWARE\VS2013\VC\INCLUDE\MATH.H
C:\SP\SRC\PUBLIC\MATHLIB\MATHLIB.H
C:\SP\SRC\PUBLIC\TIER0\BASETYPES.H
C:\SP\SRC\PUBLIC\TIER0\COMMONMACROS.H
C:\SP\SRC\PUBLIC\TIER0\PLATFORM.H
C:\SP\SRC\PUBLIC\TIER0\WCHARTYPES.H
C:\SP\SRC\PUBLIC\TIER0\VALVE_OFF.H
G:\SOFTWARE\VS2013\VC\INCLUDE\TCHAR.H
G:\SOFTWARE\VS2013\VC\INCLUDE\STRING.H
G:\SOFTWARE\VS2013\VC\INCLUDE\MBSTRING.H
C:\SP\SRC\PUBLIC\TIER0\VALVE_ON.H
G:\SOFTWARE\VS2013\VC\INCLUDE\MALLOC.H
G:\SOFTWARE\VS2013\VC\INCLUDE\NEW
G:\SOFTWARE\VS2013\VC\INCLUDE\EXCEPTION
G:\SOFTWARE\VS2013\VC\INCLUDE\XSTDDEF
G:\SOFTWARE\VS2013\VC\INCLUDE\STDLIB.H
G:\SOFTWARE\VS2013\VC\INCLUDE\LIMITS.H
G:\SOFTWARE\VS2013\VC\INCLUDE\CSTDDEF
G:\SOFTWARE\VS2013\VC\INCLUDE\YVALS.H
G:\SOFTWARE\VS2013\VC\INCLUDE\XKEYCHECK.H
G:\SOFTWARE\VS2013\VC\INCLUDE\USE_ANSI.H
G:\SOFTWARE\VS2013\VC\INCLUDE\STDDEF.H
G:\SOFTWARE\VS2013\VC\INCLUDE\INITIALIZER_LIST
G:\SOFTWARE\VS2013\VC\INCLUDE\XTR1COMMON
G:\SOFTWARE\VS2013\VC\INCLUDE\EH.H
C:\SP\SRC\PUBLIC\TIER0\VALVE_MINMAX_ON.H
C:\SP\SRC\PUBLIC\TIER0\ANNOTATIONS.H
C:\SP\SRC\PUBLIC\TIER0\FASTTIMER.H
G:\SOFTWARE\VS2013\VC\INCLUDE\INTRIN.H
G:\SOFTWARE\VS2013\VC\INCLUDE\SETJMP.H
G:\SOFTWARE\VS2013\VC\INCLUDE\IMMINTRIN.H
G:\SOFTWARE\VS2013\VC\INCLUDE\WMMINTRIN.H
G:\SOFTWARE\VS2013\VC\INCLUDE\NMMINTRIN.H
G:\SOFTWARE\VS2013\VC\INCLUDE\SMMINTRIN.H
G:\SOFTWARE\VS2013\VC\INCLUDE\TMMINTRIN.H
G:\SOFTWARE\VS2013\VC\INCLUDE\PMMINTRIN.H
G:\SOFTWARE\VS2013\VC\INCLUDE\EMMINTRIN.H
G:\SOFTWARE\VS2013\VC\INCLUDE\XMMINTRIN.H
G:\SOFTWARE\VS2013\VC\INCLUDE\MMINTRIN.H
G:\SOFTWARE\VS2013\VC\INCLUDE\AMMINTRIN.H
G:\SOFTWARE\VS2013\VC\INCLUDE\MM3DNOW.H
G:\SOFTWARE\VS2013\VC\INCLUDE\ASSERT.H
C:\SP\SRC\PUBLIC\TIER0\PROTECTED_THINGS.H
C:\SP\SRC\PUBLIC\TIER0\XBOX_CODELINE_DEFINES.H
C:\SP\SRC\PUBLIC\MATHLIB\VECTOR.H
C:\SP\SRC\PUBLIC\TIER0\DBG.H
C:\SP\SRC\PUBLIC\TIER0\DBGFLAG.H
G:\SOFTWARE\VS2013\VC\INCLUDE\STDIO.H
G:\SOFTWARE\VS2013\VC\INCLUDE\SWPRINTF.INL
G:\SOFTWARE\VS2013\VC\INCLUDE\STDARG.H
C:\SP\SRC\PUBLIC\TIER0\THREADTOOLS.H
C:\SP\SRC\PUBLIC\TIER0\VCRMODE.H
G:\SOFTWARE\VS2013\VC\INCLUDE\PROCESS.H
C:\SP\SRC\PUBLIC\TIER0\VCR_SHARED.H
C:\SP\SRC\PUBLIC\MATHLIB\VECTOR2D.H
C:\SP\SRC\PUBLIC\MATHLIB\MATH_PFNS.H
C:\SP\SRC\PUBLIC\MINMAX.H
^C:\SP\SRC\MATHLIB\MATHLIB_BASE.CPP
G:\SOFTWARE\VS2013\VC\INCLUDE\MATH.H
G:\SOFTWARE\VS2013\VC\INCLUDE\CRTDEFS.H
G:\SOFTWARE\VS2013\VC\INCLUDE\SAL.H
G:\SOFTWARE\VS2013\VC\INCLUDE\CONCURRENCYSAL.H
G:\SOFTWARE\VS2013\VC\INCLUDE\VADEFS.H
G:\SOFTWARE\VS2013\VC\INCLUDE\FLOAT.H
G:\SOFTWARE\VS2013\VC\INCLUDE\CRTWRN.H
C:\SP\SRC\PUBLIC\TIER0\BASETYPES.H
C:\SP\SRC\PUBLIC\TIER0\COMMONMACROS.H
C:\SP\SRC\PUBLIC\TIER0\PLATFORM.H
C:\SP\SRC\PUBLIC\TIER0\WCHARTYPES.H
C:\SP\SRC\PUBLIC\TIER0\VALVE_OFF.H
G:\SOFTWARE\VS2013\VC\INCLUDE\TCHAR.H
G:\SOFTWARE\VS2013\VC\INCLUDE\STRING.H
G:\SOFTWARE\VS2013\VC\INCLUDE\MBSTRING.H
C:\SP\SRC\PUBLIC\TIER0\VALVE_ON.H
G:\SOFTWARE\VS2013\VC\INCLUDE\MALLOC.H
G:\SOFTWARE\VS2013\VC\INCLUDE\NEW
G:\SOFTWARE\VS2013\VC\INCLUDE\EXCEPTION
G:\SOFTWARE\VS2013\VC\INCLUDE\XSTDDEF
G:\SOFTWARE\VS2013\VC\INCLUDE\STDLIB.H
G:\SOFTWARE\VS2013\VC\INCLUDE\LIMITS.H
G:\SOFTWARE\VS2013\VC\INCLUDE\CSTDDEF
G:\SOFTWARE\VS2013\VC\INCLUDE\YVALS.H
G:\SOFTWARE\VS2013\VC\INCLUDE\XKEYCHECK.H
G:\SOFTWARE\VS2013\VC\INCLUDE\USE_ANSI.H
G:\SOFTWARE\VS2013\VC\INCLUDE\STDDEF.H
G:\SOFTWARE\VS2013\VC\INCLUDE\INITIALIZER_LIST
G:\SOFTWARE\VS2013\VC\INCLUDE\XTR1COMMON
G:\SOFTWARE\VS2013\VC\INCLUDE\EH.H
C:\SP\SRC\PUBLIC\TIER0\VALVE_MINMAX_ON.H
C:\SP\SRC\PUBLIC\TIER0\ANNOTATIONS.H
C:\SP\SRC\PUBLIC\TIER0\FASTTIMER.H
G:\SOFTWARE\VS2013\VC\INCLUDE\INTRIN.H
G:\SOFTWARE\VS2013\VC\INCLUDE\SETJMP.H
G:\SOFTWARE\VS2013\VC\INCLUDE\IMMINTRIN.H
G:\SOFTWARE\VS2013\VC\INCLUDE\WMMINTRIN.H
G:\SOFTWARE\VS2013\VC\INCLUDE\NMMINTRIN.H
G:\SOFTWARE\VS2013\VC\INCLUDE\SMMINTRIN.H
G:\SOFTWARE\VS2013\VC\INCLUDE\TMMINTRIN.H
G:\SOFTWARE\VS2013\VC\INCLUDE\PMMINTRIN.H
G:\SOFTWARE\VS2013\VC\INCLUDE\EMMINTRIN.H
G:\SOFTWARE\VS2013\VC\INCLUDE\XMMINTRIN.H
G:\SOFTWARE\VS2013\VC\INCLUDE\MMINTRIN.H
G:\SOFTWARE\VS2013\VC\INCLUDE\AMMINTRIN.H
G:\SOFTWARE\VS2013\VC\INCLUDE\MM3DNOW.H
G:\SOFTWARE\VS2013\VC\INCLUDE\ASSERT.H
C:\SP\SRC\PUBLIC\TIER0\PROTECTED_THINGS.H
C:\SP\SRC\PUBLIC\TIER0\XBOX_CODELINE_DEFINES.H
G:\SOFTWARE\VS2013\VC\INCLUDE\MEMORY.H
C:\SP\SRC\PUBLIC\TIER0\DBG.H
C:\SP\SRC\PUBLIC\TIER0\DBGFLAG.H
G:\SOFTWARE\VS2013\VC\INCLUDE\STDIO.H
G:\SOFTWARE\VS2013\VC\INCLUDE\SWPRINTF.INL
G:\SOFTWARE\VS2013\VC\INCLUDE\STDARG.H
C:\SP\SRC\PUBLIC\TIER0\VPROF.H
C:\SP\SRC\PUBLIC\TIER0\L2CACHE.H
C:\SP\SRC\PUBLIC\TIER0\THREADTOOLS.H
C:\SP\SRC\PUBLIC\TIER0\VCRMODE.H
G:\SOFTWARE\VS2013\VC\INCLUDE\PROCESS.H
C:\SP\SRC\PUBLIC\TIER0\VCR_SHARED.H
C:\SP\SRC\PUBLIC\TIER0\VPROF_TELEMETRY.H
C:\SP\SRC\PUBLIC\TIER0\TMAPI_DUMMY.H
C:\SP\SRC\PUBLIC\MATHLIB\MATHLIB.H
C:\SP\SRC\PUBLIC\MATHLIB\VECTOR.H
C:\SP\SRC\PUBLIC\MATHLIB\VECTOR2D.H
C:\SP\SRC\PUBLIC\MATHLIB\MATH_PFNS.H
C:\SP\SRC\PUBLIC\MINMAX.H
C:\SP\SRC\PUBLIC\MATHLIB\AMD3DX.H
C:\SP\SRC\MATHLIB\3DNOW.H
C:\SP\SRC\MATHLIB\SSE.H
C:\SP\SRC\PUBLIC\MATHLIB\SSEMATH.H
C:\SP\SRC\PUBLIC\MATHLIB\SSEQUATERNION.H
C:\SP\SRC\PUBLIC\TIER0\MEMDBGON.H
C:\SP\SRC\PUBLIC\TIER0\MEMALLOC.H
C:\SP\SRC\PUBLIC\TIER0\MEM.H
C:\SP\SRC\PUBLIC\TIER0\MEMDBGOFF.H
^C:\SP\SRC\MATHLIB\SPHERICAL.CPP
G:\SOFTWARE\VS2013\VC\INCLUDE\MATH.H
G:\SOFTWARE\VS2013\VC\INCLUDE\CRTDEFS.H
G:\SOFTWARE\VS2013\VC\INCLUDE\SAL.H
G:\SOFTWARE\VS2013\VC\INCLUDE\CONCURRENCYSAL.H
G:\SOFTWARE\VS2013\VC\INCLUDE\VADEFS.H
G:\SOFTWARE\VS2013\VC\INCLUDE\FLOAT.H
G:\SOFTWARE\VS2013\VC\INCLUDE\CRTWRN.H
C:\SP\SRC\PUBLIC\TIER0\BASETYPES.H
C:\SP\SRC\PUBLIC\TIER0\COMMONMACROS.H
C:\SP\SRC\PUBLIC\TIER0\PLATFORM.H
C:\SP\SRC\PUBLIC\TIER0\WCHARTYPES.H
C:\SP\SRC\PUBLIC\TIER0\VALVE_OFF.H
G:\SOFTWARE\VS2013\VC\INCLUDE\TCHAR.H
G:\SOFTWARE\VS2013\VC\INCLUDE\STRING.H
G:\SOFTWARE\VS2013\VC\INCLUDE\MBSTRING.H
C:\SP\SRC\PUBLIC\TIER0\VALVE_ON.H
G:\SOFTWARE\VS2013\VC\INCLUDE\MALLOC.H
G:\SOFTWARE\VS2013\VC\INCLUDE\NEW
G:\SOFTWARE\VS2013\VC\INCLUDE\EXCEPTION
G:\SOFTWARE\VS2013\VC\INCLUDE\XSTDDEF
G:\SOFTWARE\VS2013\VC\INCLUDE\STDLIB.H
G:\SOFTWARE\VS2013\VC\INCLUDE\LIMITS.H
G:\SOFTWARE\VS2013\VC\INCLUDE\CSTDDEF
G:\SOFTWARE\VS2013\VC\INCLUDE\YVALS.H
G:\SOFTWARE\VS2013\VC\INCLUDE\XKEYCHECK.H
G:\SOFTWARE\VS2013\VC\INCLUDE\USE_ANSI.H
G:\SOFTWARE\VS2013\VC\INCLUDE\STDDEF.H
G:\SOFTWARE\VS2013\VC\INCLUDE\INITIALIZER_LIST
G:\SOFTWARE\VS2013\VC\INCLUDE\XTR1COMMON
G:\SOFTWARE\VS2013\VC\INCLUDE\EH.H
C:\SP\SRC\PUBLIC\TIER0\VALVE_MINMAX_ON.H
C:\SP\SRC\PUBLIC\TIER0\ANNOTATIONS.H
C:\SP\SRC\PUBLIC\TIER0\FASTTIMER.H
G:\SOFTWARE\VS2013\VC\INCLUDE\INTRIN.H
G:\SOFTWARE\VS2013\VC\INCLUDE\SETJMP.H
G:\SOFTWARE\VS2013\VC\INCLUDE\IMMINTRIN.H
G:\SOFTWARE\VS2013\VC\INCLUDE\WMMINTRIN.H
G:\SOFTWARE\VS2013\VC\INCLUDE\NMMINTRIN.H
G:\SOFTWARE\VS2013\VC\INCLUDE\SMMINTRIN.H
G:\SOFTWARE\VS2013\VC\INCLUDE\TMMINTRIN.H
G:\SOFTWARE\VS2013\VC\INCLUDE\PMMINTRIN.H
G:\SOFTWARE\VS2013\VC\INCLUDE\EMMINTRIN.H
G:\SOFTWARE\VS2013\VC\INCLUDE\XMMINTRIN.H
G:\SOFTWARE\VS2013\VC\INCLUDE\MMINTRIN.H
G:\SOFTWARE\VS2013\VC\INCLUDE\AMMINTRIN.H
G:\SOFTWARE\VS2013\VC\INCLUDE\MM3DNOW.H
G:\SOFTWARE\VS2013\VC\INCLUDE\ASSERT.H
C:\SP\SRC\PUBLIC\TIER0\PROTECTED_THINGS.H
C:\SP\SRC\PUBLIC\TIER0\XBOX_CODELINE_DEFINES.H
G:\SOFTWARE\VS2013\VC\INCLUDE\MEMORY.H
C:\SP\SRC\PUBLIC\TIER0\DBG.H
C:\SP\SRC\PUBLIC\TIER0\DBGFLAG.H
G:\SOFTWARE\VS2013\VC\INCLUDE\STDIO.H
G:\SOFTWARE\VS2013\VC\INCLUDE\SWPRINTF.INL
G:\SOFTWARE\VS2013\VC\INCLUDE\STDARG.H
C:\SP\SRC\PUBLIC\MATHLIB\MATHLIB.H
C:\SP\SRC\PUBLIC\MATHLIB\VECTOR.H
C:\SP\SRC\PUBLIC\TIER0\THREADTOOLS.H
C:\SP\SRC\PUBLIC\TIER0\VCRMODE.H
G:\SOFTWARE\VS2013\VC\INCLUDE\PROCESS.H
C:\SP\SRC\PUBLIC\TIER0\VCR_SHARED.H
C:\SP\SRC\PUBLIC\MATHLIB\VECTOR2D.H
C:\SP\SRC\PUBLIC\MATHLIB\MATH_PFNS.H
C:\SP\SRC\PUBLIC\MINMAX.H
C:\SP\SRC\PUBLIC\MATHLIB\SPHERICAL_GEOMETRY.H
C:\SP\SRC\PUBLIC\TIER0\MEMDBGON.H
C:\SP\SRC\PUBLIC\TIER0\MEMALLOC.H
C:\SP\SRC\PUBLIC\TIER0\MEM.H
C:\SP\SRC\PUBLIC\TIER0\MEMDBGOFF.H
^C:\SP\SRC\MATHLIB\VECTOR.CPP
C:\SP\SRC\PUBLIC\MATHLIB\VECTOR.H
G:\SOFTWARE\VS2013\VC\INCLUDE\MATH.H
G:\SOFTWARE\VS2013\VC\INCLUDE\CRTDEFS.H
G:\SOFTWARE\VS2013\VC\INCLUDE\SAL.H
G:\SOFTWARE\VS2013\VC\INCLUDE\CONCURRENCYSAL.H
G:\SOFTWARE\VS2013\VC\INCLUDE\VADEFS.H
G:\SOFTWARE\VS2013\VC\INCLUDE\FLOAT.H
G:\SOFTWARE\VS2013\VC\INCLUDE\CRTWRN.H
C:\SP\SRC\PUBLIC\TIER0\BASETYPES.H
C:\SP\SRC\PUBLIC\TIER0\COMMONMACROS.H
C:\SP\SRC\PUBLIC\TIER0\PLATFORM.H
C:\SP\SRC\PUBLIC\TIER0\WCHARTYPES.H
C:\SP\SRC\PUBLIC\TIER0\VALVE_OFF.H
G:\SOFTWARE\VS2013\VC\INCLUDE\TCHAR.H
G:\SOFTWARE\VS2013\VC\INCLUDE\STRING.H
G:\SOFTWARE\VS2013\VC\INCLUDE\MBSTRING.H
C:\SP\SRC\PUBLIC\TIER0\VALVE_ON.H
G:\SOFTWARE\VS2013\VC\INCLUDE\MALLOC.H
G:\SOFTWARE\VS2013\VC\INCLUDE\NEW
G:\SOFTWARE\VS2013\VC\INCLUDE\EXCEPTION
G:\SOFTWARE\VS2013\VC\INCLUDE\XSTDDEF
G:\SOFTWARE\VS2013\VC\INCLUDE\STDLIB.H
G:\SOFTWARE\VS2013\VC\INCLUDE\LIMITS.H
G:\SOFTWARE\VS2013\VC\INCLUDE\CSTDDEF
G:\SOFTWARE\VS2013\VC\INCLUDE\YVALS.H
G:\SOFTWARE\VS2013\VC\INCLUDE\XKEYCHECK.H
G:\SOFTWARE\VS2013\VC\INCLUDE\USE_ANSI.H
G:\SOFTWARE\VS2013\VC\INCLUDE\STDDEF.H
G:\SOFTWARE\VS2013\VC\INCLUDE\INITIALIZER_LIST
G:\SOFTWARE\VS2013\VC\INCLUDE\XTR1COMMON
G:\SOFTWARE\VS2013\VC\INCLUDE\EH.H
C:\SP\SRC\PUBLIC\TIER0\VALVE_MINMAX_ON.H
C:\SP\SRC\PUBLIC\TIER0\ANNOTATIONS.H
C:\SP\SRC\PUBLIC\TIER0\FASTTIMER.H
G:\SOFTWARE\VS2013\VC\INCLUDE\INTRIN.H
G:\SOFTWARE\VS2013\VC\INCLUDE\SETJMP.H
G:\SOFTWARE\VS2013\VC\INCLUDE\IMMINTRIN.H
G:\SOFTWARE\VS2013\VC\INCLUDE\WMMINTRIN.H
G:\SOFTWARE\VS2013\VC\INCLUDE\NMMINTRIN.H
G:\SOFTWARE\VS2013\VC\INCLUDE\SMMINTRIN.H
G:\SOFTWARE\VS2013\VC\INCLUDE\TMMINTRIN.H
G:\SOFTWARE\VS2013\VC\INCLUDE\PMMINTRIN.H
G:\SOFTWARE\VS2013\VC\INCLUDE\EMMINTRIN.H
G:\SOFTWARE\VS2013\VC\INCLUDE\XMMINTRIN.H
G:\SOFTWARE\VS2013\VC\INCLUDE\MMINTRIN.H
G:\SOFTWARE\VS2013\VC\INCLUDE\AMMINTRIN.H
G:\SOFTWARE\VS2013\VC\INCLUDE\MM3DNOW.H
G:\SOFTWARE\VS2013\VC\INCLUDE\ASSERT.H
C:\SP\SRC\PUBLIC\TIER0\PROTECTED_THINGS.H
C:\SP\SRC\PUBLIC\TIER0\XBOX_CODELINE_DEFINES.H
C:\SP\SRC\PUBLIC\TIER0\DBG.H
C:\SP\SRC\PUBLIC\TIER0\DBGFLAG.H
G:\SOFTWARE\VS2013\VC\INCLUDE\STDIO.H
G:\SOFTWARE\VS2013\VC\INCLUDE\SWPRINTF.INL
G:\SOFTWARE\VS2013\VC\INCLUDE\STDARG.H
C:\SP\SRC\PUBLIC\TIER0\THREADTOOLS.H
C:\SP\SRC\PUBLIC\TIER0\VCRMODE.H
G:\SOFTWARE\VS2013\VC\INCLUDE\PROCESS.H
C:\SP\SRC\PUBLIC\TIER0\VCR_SHARED.H
C:\SP\SRC\PUBLIC\MATHLIB\VECTOR2D.H
C:\SP\SRC\PUBLIC\MATHLIB\MATH_PFNS.H
C:\SP\SRC\PUBLIC\MINMAX.H
^C:\SP\SRC\MATHLIB\ANORMS.CPP
C:\SP\SRC\PUBLIC\MATHLIB\VECTOR.H
G:\SOFTWARE\VS2013\VC\INCLUDE\MATH.H
G:\SOFTWARE\VS2013\VC\INCLUDE\CRTDEFS.H
G:\SOFTWARE\VS2013\VC\INCLUDE\SAL.H
G:\SOFTWARE\VS2013\VC\INCLUDE\CONCURRENCYSAL.H
G:\SOFTWARE\VS2013\VC\INCLUDE\VADEFS.H
G:\SOFTWARE\VS2013\VC\INCLUDE\FLOAT.H
G:\SOFTWARE\VS2013\VC\INCLUDE\CRTWRN.H
C:\SP\SRC\PUBLIC\TIER0\BASETYPES.H
C:\SP\SRC\PUBLIC\TIER0\COMMONMACROS.H
C:\SP\SRC\PUBLIC\TIER0\PLATFORM.H
C:\SP\SRC\PUBLIC\TIER0\WCHARTYPES.H
C:\SP\SRC\PUBLIC\TIER0\VALVE_OFF.H
G:\SOFTWARE\VS2013\VC\INCLUDE\TCHAR.H
G:\SOFTWARE\VS2013\VC\INCLUDE\STRING.H
G:\SOFTWARE\VS2013\VC\INCLUDE\MBSTRING.H
C:\SP\SRC\PUBLIC\TIER0\VALVE_ON.H
G:\SOFTWARE\VS2013\VC\INCLUDE\MALLOC.H
G:\SOFTWARE\VS2013\VC\INCLUDE\NEW
G:\SOFTWARE\VS2013\VC\INCLUDE\EXCEPTION
G:\SOFTWARE\VS2013\VC\INCLUDE\XSTDDEF
G:\SOFTWARE\VS2013\VC\INCLUDE\STDLIB.H
G:\SOFTWARE\VS2013\VC\INCLUDE\LIMITS.H
G:\SOFTWARE\VS2013\VC\INCLUDE\CSTDDEF
G:\SOFTWARE\VS2013\VC\INCLUDE\YVALS.H
G:\SOFTWARE\VS2013\VC\INCLUDE\XKEYCHECK.H
G:\SOFTWARE\VS2013\VC\INCLUDE\USE_ANSI.H
G:\SOFTWARE\VS2013\VC\INCLUDE\STDDEF.H
G:\SOFTWARE\VS2013\VC\INCLUDE\INITIALIZER_LIST
G:\SOFTWARE\VS2013\VC\INCLUDE\XTR1COMMON
G:\SOFTWARE\VS2013\VC\INCLUDE\EH.H
C:\SP\SRC\PUBLIC\TIER0\VALVE_MINMAX_ON.H
C:\SP\SRC\PUBLIC\TIER0\ANNOTATIONS.H
C:\SP\SRC\PUBLIC\TIER0\FASTTIMER.H
G:\SOFTWARE\VS2013\VC\INCLUDE\INTRIN.H
G:\SOFTWARE\VS2013\VC\INCLUDE\SETJMP.H
G:\SOFTWARE\VS2013\VC\INCLUDE\IMMINTRIN.H
G:\SOFTWARE\VS2013\VC\INCLUDE\WMMINTRIN.H
G:\SOFTWARE\VS2013\VC\INCLUDE\NMMINTRIN.H
G:\SOFTWARE\VS2013\VC\INCLUDE\SMMINTRIN.H
G:\SOFTWARE\VS2013\VC\INCLUDE\TMMINTRIN.H
G:\SOFTWARE\VS2013\VC\INCLUDE\PMMINTRIN.H
G:\SOFTWARE\VS2013\VC\INCLUDE\EMMINTRIN.H
G:\SOFTWARE\VS2013\VC\INCLUDE\XMMINTRIN.H
G:\SOFTWARE\VS2013\VC\INCLUDE\MMINTRIN.H
G:\SOFTWARE\VS2013\VC\INCLUDE\AMMINTRIN.H
G:\SOFTWARE\VS2013\VC\INCLUDE\MM3DNOW.H
G:\SOFTWARE\VS2013\VC\INCLUDE\ASSERT.H
C:\SP\SRC\PUBLIC\TIER0\PROTECTED_THINGS.H
C:\SP\SRC\PUBLIC\TIER0\XBOX_CODELINE_DEFINES.H
C:\SP\SRC\PUBLIC\TIER0\DBG.H
C:\SP\SRC\PUBLIC\TIER0\DBGFLAG.H
G:\SOFTWARE\VS2013\VC\INCLUDE\STDIO.H
G:\SOFTWARE\VS2013\VC\INCLUDE\SWPRINTF.INL
G:\SOFTWARE\VS2013\VC\INCLUDE\STDARG.H
C:\SP\SRC\PUBLIC\TIER0\THREADTOOLS.H
C:\SP\SRC\PUBLIC\TIER0\VCRMODE.H
G:\SOFTWARE\VS2013\VC\INCLUDE\PROCESS.H
C:\SP\SRC\PUBLIC\TIER0\VCR_SHARED.H
C:\SP\SRC\PUBLIC\MATHLIB\VECTOR2D.H
C:\SP\SRC\PUBLIC\MATHLIB\MATH_PFNS.H
C:\SP\SRC\PUBLIC\MINMAX.H
C:\SP\SRC\PUBLIC\MATHLIB\ANORMS.H
C:\SP\SRC\PUBLIC\TIER0\MEMDBGON.H
C:\SP\SRC\PUBLIC\TIER0\MEMALLOC.H
C:\SP\SRC\PUBLIC\TIER0\MEM.H
C:\SP\SRC\PUBLIC\TIER0\MEMDBGOFF.H
^C:\SP\SRC\MATHLIB\ICEKEY.CPP
C:\SP\SRC\PUBLIC\MATHLIB\ICEKEY.H
C:\SP\SRC\PUBLIC\TIER0\MEMDBGON.H
C:\SP\SRC\PUBLIC\TIER0\BASETYPES.H
C:\SP\SRC\PUBLIC\TIER0\COMMONMACROS.H
C:\SP\SRC\PUBLIC\TIER0\PLATFORM.H
C:\SP\SRC\PUBLIC\TIER0\WCHARTYPES.H
C:\SP\SRC\PUBLIC\TIER0\VALVE_OFF.H
G:\SOFTWARE\VS2013\VC\INCLUDE\TCHAR.H
G:\SOFTWARE\VS2013\VC\INCLUDE\CRTDEFS.H
G:\SOFTWARE\VS2013\VC\INCLUDE\SAL.H
G:\SOFTWARE\VS2013\VC\INCLUDE\CONCURRENCYSAL.H
G:\SOFTWARE\VS2013\VC\INCLUDE\VADEFS.H
G:\SOFTWARE\VS2013\VC\INCLUDE\STRING.H
G:\SOFTWARE\VS2013\VC\INCLUDE\MBSTRING.H
C:\SP\SRC\PUBLIC\TIER0\VALVE_ON.H
G:\SOFTWARE\VS2013\VC\INCLUDE\MALLOC.H
G:\SOFTWARE\VS2013\VC\INCLUDE\NEW
G:\SOFTWARE\VS2013\VC\INCLUDE\EXCEPTION
G:\SOFTWARE\VS2013\VC\INCLUDE\XSTDDEF
G:\SOFTWARE\VS2013\VC\INCLUDE\STDLIB.H
G:\SOFTWARE\VS2013\VC\INCLUDE\LIMITS.H
G:\SOFTWARE\VS2013\VC\INCLUDE\CSTDDEF
G:\SOFTWARE\VS2013\VC\INCLUDE\YVALS.H
G:\SOFTWARE\VS2013\VC\INCLUDE\XKEYCHECK.H
G:\SOFTWARE\VS2013\VC\INCLUDE\USE_ANSI.H
G:\SOFTWARE\VS2013\VC\INCLUDE\STDDEF.H
G:\SOFTWARE\VS2013\VC\INCLUDE\INITIALIZER_LIST
G:\SOFTWARE\VS2013\VC\INCLUDE\XTR1COMMON
G:\SOFTWARE\VS2013\VC\INCLUDE\EH.H
C:\SP\SRC\PUBLIC\TIER0\VALVE_MINMAX_ON.H
C:\SP\SRC\PUBLIC\TIER0\ANNOTATIONS.H
C:\SP\SRC\PUBLIC\TIER0\FASTTIMER.H
G:\SOFTWARE\VS2013\VC\INCLUDE\INTRIN.H
G:\SOFTWARE\VS2013\VC\INCLUDE\SETJMP.H
G:\SOFTWARE\VS2013\VC\INCLUDE\IMMINTRIN.H
G:\SOFTWARE\VS2013\VC\INCLUDE\WMMINTRIN.H
G:\SOFTWARE\VS2013\VC\INCLUDE\NMMINTRIN.H
G:\SOFTWARE\VS2013\VC\INCLUDE\SMMINTRIN.H
G:\SOFTWARE\VS2013\VC\INCLUDE\TMMINTRIN.H
G:\SOFTWARE\VS2013\VC\INCLUDE\PMMINTRIN.H
G:\SOFTWARE\VS2013\VC\INCLUDE\EMMINTRIN.H
G:\SOFTWARE\VS2013\VC\INCLUDE\XMMINTRIN.H
G:\SOFTWARE\VS2013\VC\INCLUDE\MMINTRIN.H
G:\SOFTWARE\VS2013\VC\INCLUDE\AMMINTRIN.H
G:\SOFTWARE\VS2013\VC\INCLUDE\MM3DNOW.H
G:\SOFTWARE\VS2013\VC\INCLUDE\ASSERT.H
C:\SP\SRC\PUBLIC\TIER0\PROTECTED_THINGS.H
C:\SP\SRC\PUBLIC\TIER0\XBOX_CODELINE_DEFINES.H
C:\SP\SRC\PUBLIC\TIER0\MEMALLOC.H
C:\SP\SRC\PUBLIC\TIER0\MEM.H
C:\SP\SRC\PUBLIC\TIER0\MEMDBGOFF.H
^C:\SP\SRC\MATHLIB\POWSSE.CPP
C:\SP\SRC\PUBLIC\MATHLIB\SSEMATH.H
G:\SOFTWARE\VS2013\VC\INCLUDE\XMMINTRIN.H
G:\SOFTWARE\VS2013\VC\INCLUDE\MMINTRIN.H
G:\SOFTWARE\VS2013\VC\INCLUDE\CRTDEFS.H
G:\SOFTWARE\VS2013\VC\INCLUDE\SAL.H
G:\SOFTWARE\VS2013\VC\INCLUDE\CONCURRENCYSAL.H
G:\SOFTWARE\VS2013\VC\INCLUDE\VADEFS.H
G:\SOFTWARE\VS2013\VC\INCLUDE\MALLOC.H
C:\SP\SRC\PUBLIC\MATHLIB\VECTOR.H
G:\SOFTWARE\VS2013\VC\INCLUDE\MATH.H
G:\SOFTWARE\VS2013\VC\INCLUDE\FLOAT.H
G:\SOFTWARE\VS2013\VC\INCLUDE\CRTWRN.H
C:\SP\SRC\PUBLIC\TIER0\BASETYPES.H
C:\SP\SRC\PUBLIC\TIER0\COMMONMACROS.H
C:\SP\SRC\PUBLIC\TIER0\PLATFORM.H
C:\SP\SRC\PUBLIC\TIER0\WCHARTYPES.H
C:\SP\SRC\PUBLIC\TIER0\VALVE_OFF.H
G:\SOFTWARE\VS2013\VC\INCLUDE\TCHAR.H
G:\SOFTWARE\VS2013\VC\INCLUDE\STRING.H
G:\SOFTWARE\VS2013\VC\INCLUDE\MBSTRING.H
C:\SP\SRC\PUBLIC\TIER0\VALVE_ON.H
G:\SOFTWARE\VS2013\VC\INCLUDE\NEW
G:\SOFTWARE\VS2013\VC\INCLUDE\EXCEPTION
G:\SOFTWARE\VS2013\VC\INCLUDE\XSTDDEF
G:\SOFTWARE\VS2013\VC\INCLUDE\STDLIB.H
G:\SOFTWARE\VS2013\VC\INCLUDE\LIMITS.H
G:\SOFTWARE\VS2013\VC\INCLUDE\CSTDDEF
G:\SOFTWARE\VS2013\VC\INCLUDE\YVALS.H
G:\SOFTWARE\VS2013\VC\INCLUDE\XKEYCHECK.H
G:\SOFTWARE\VS2013\VC\INCLUDE\USE_ANSI.H
G:\SOFTWARE\VS2013\VC\INCLUDE\STDDEF.H
G:\SOFTWARE\VS2013\VC\INCLUDE\INITIALIZER_LIST
G:\SOFTWARE\VS2013\VC\INCLUDE\XTR1COMMON
G:\SOFTWARE\VS2013\VC\INCLUDE\EH.H
C:\SP\SRC\PUBLIC\TIER0\VALVE_MINMAX_ON.H
C:\SP\SRC\PUBLIC\TIER0\ANNOTATIONS.H
C:\SP\SRC\PUBLIC\TIER0\FASTTIMER.H
G:\SOFTWARE\VS2013\VC\INCLUDE\INTRIN.H
G:\SOFTWARE\VS2013\VC\INCLUDE\SETJMP.H
G:\SOFTWARE\VS2013\VC\INCLUDE\IMMINTRIN.H
G:\SOFTWARE\VS2013\VC\INCLUDE\WMMINTRIN.H
G:\SOFTWARE\VS2013\VC\INCLUDE\NMMINTRIN.H
G:\SOFTWARE\VS2013\VC\INCLUDE\SMMINTRIN.H
G:\SOFTWARE\VS2013\VC\INCLUDE\TMMINTRIN.H
G:\SOFTWARE\VS2013\VC\INCLUDE\PMMINTRIN.H
G:\SOFTWARE\VS2013\VC\INCLUDE\EMMINTRIN.H
G:\SOFTWARE\VS2013\VC\INCLUDE\AMMINTRIN.H
G:\SOFTWARE\VS2013\VC\INCLUDE\MM3DNOW.H
G:\SOFTWARE\VS2013\VC\INCLUDE\ASSERT.H
C:\SP\SRC\PUBLIC\TIER0\PROTECTED_THINGS.H
C:\SP\SRC\PUBLIC\TIER0\XBOX_CODELINE_DEFINES.H
C:\SP\SRC\PUBLIC\TIER0\DBG.H
C:\SP\SRC\PUBLIC\TIER0\DBGFLAG.H
G:\SOFTWARE\VS2013\VC\INCLUDE\STDIO.H
G:\SOFTWARE\VS2013\VC\INCLUDE\SWPRINTF.INL
G:\SOFTWARE\VS2013\VC\INCLUDE\STDARG.H
C:\SP\SRC\PUBLIC\TIER0\THREADTOOLS.H
C:\SP\SRC\PUBLIC\TIER0\VCRMODE.H
G:\SOFTWARE\VS2013\VC\INCLUDE\PROCESS.H
C:\SP\SRC\PUBLIC\TIER0\VCR_SHARED.H
C:\SP\SRC\PUBLIC\MATHLIB\VECTOR2D.H
C:\SP\SRC\PUBLIC\MATHLIB\MATH_PFNS.H
C:\SP\SRC\PUBLIC\MINMAX.H
C:\SP\SRC\PUBLIC\MATHLIB\MATHLIB.H
C:\SP\SRC\PUBLIC\TIER0\MEMDBGON.H
C:\SP\SRC\PUBLIC\TIER0\MEMALLOC.H
C:\SP\SRC\PUBLIC\TIER0\MEM.H
C:\SP\SRC\PUBLIC\TIER0\MEMDBGOFF.H
^C:\SP\SRC\MATHLIB\SSE.CPP
G:\SOFTWARE\VS2013\VC\INCLUDE\MATH.H
G:\SOFTWARE\VS2013\VC\INCLUDE\CRTDEFS.H
G:\SOFTWARE\VS2013\VC\INCLUDE\SAL.H
G:\SOFTWARE\VS2013\VC\INCLUDE\CONCURRENCYSAL.H
G:\SOFTWARE\VS2013\VC\INCLUDE\VADEFS.H
G:\SOFTWARE\VS2013\VC\INCLUDE\FLOAT.H
G:\SOFTWARE\VS2013\VC\INCLUDE\CRTWRN.H
C:\SP\SRC\PUBLIC\TIER0\BASETYPES.H
C:\SP\SRC\PUBLIC\TIER0\COMMONMACROS.H
C:\SP\SRC\PUBLIC\TIER0\PLATFORM.H
C:\SP\SRC\PUBLIC\TIER0\WCHARTYPES.H
C:\SP\SRC\PUBLIC\TIER0\VALVE_OFF.H
G:\SOFTWARE\VS2013\VC\INCLUDE\TCHAR.H
G:\SOFTWARE\VS2013\VC\INCLUDE\STRING.H
G:\SOFTWARE\VS2013\VC\INCLUDE\MBSTRING.H
C:\SP\SRC\PUBLIC\TIER0\VALVE_ON.H
G:\SOFTWARE\VS2013\VC\INCLUDE\MALLOC.H
G:\SOFTWARE\VS2013\VC\INCLUDE\NEW
G:\SOFTWARE\VS2013\VC\INCLUDE\EXCEPTION
G:\SOFTWARE\VS2013\VC\INCLUDE\XSTDDEF
G:\SOFTWARE\VS2013\VC\INCLUDE\STDLIB.H
G:\SOFTWARE\VS2013\VC\INCLUDE\LIMITS.H
G:\SOFTWARE\VS2013\VC\INCLUDE\CSTDDEF
G:\SOFTWARE\VS2013\VC\INCLUDE\YVALS.H
G:\SOFTWARE\VS2013\VC\INCLUDE\XKEYCHECK.H
G:\SOFTWARE\VS2013\VC\INCLUDE\USE_ANSI.H
G:\SOFTWARE\VS2013\VC\INCLUDE\STDDEF.H
G:\SOFTWARE\VS2013\VC\INCLUDE\INITIALIZER_LIST
G:\SOFTWARE\VS2013\VC\INCLUDE\XTR1COMMON
G:\SOFTWARE\VS2013\VC\INCLUDE\EH.H
C:\SP\SRC\PUBLIC\TIER0\VALVE_MINMAX_ON.H
C:\SP\SRC\PUBLIC\TIER0\ANNOTATIONS.H
C:\SP\SRC\PUBLIC\TIER0\FASTTIMER.H
G:\SOFTWARE\VS2013\VC\INCLUDE\INTRIN.H
G:\SOFTWARE\VS2013\VC\INCLUDE\SETJMP.H
G:\SOFTWARE\VS2013\VC\INCLUDE\IMMINTRIN.H
G:\SOFTWARE\VS2013\VC\INCLUDE\WMMINTRIN.H
G:\SOFTWARE\VS2013\VC\INCLUDE\NMMINTRIN.H
G:\SOFTWARE\VS2013\VC\INCLUDE\SMMINTRIN.H
G:\SOFTWARE\VS2013\VC\INCLUDE\TMMINTRIN.H
G:\SOFTWARE\VS2013\VC\INCLUDE\PMMINTRIN.H
G:\SOFTWARE\VS2013\VC\INCLUDE\EMMINTRIN.H
G:\SOFTWARE\VS2013\VC\INCLUDE\XMMINTRIN.H
G:\SOFTWARE\VS2013\VC\INCLUDE\MMINTRIN.H
G:\SOFTWARE\VS2013\VC\INCLUDE\AMMINTRIN.H
G:\SOFTWARE\VS2013\VC\INCLUDE\MM3DNOW.H
G:\SOFTWARE\VS2013\VC\INCLUDE\ASSERT.H
C:\SP\SRC\PUBLIC\TIER0\PROTECTED_THINGS.H
C:\SP\SRC\PUBLIC\TIER0\XBOX_CODELINE_DEFINES.H
G:\SOFTWARE\VS2013\VC\INCLUDE\MEMORY.H
C:\SP\SRC\PUBLIC\TIER0\DBG.H
C:\SP\SRC\PUBLIC\TIER0\DBGFLAG.H
G:\SOFTWARE\VS2013\VC\INCLUDE\STDIO.H
G:\SOFTWARE\VS2013\VC\INCLUDE\SWPRINTF.INL
G:\SOFTWARE\VS2013\VC\INCLUDE\STDARG.H
C:\SP\SRC\PUBLIC\MATHLIB\MATHLIB.H
C:\SP\SRC\PUBLIC\MATHLIB\VECTOR.H
C:\SP\SRC\PUBLIC\TIER0\THREADTOOLS.H
C:\SP\SRC\PUBLIC\TIER0\VCRMODE.H
G:\SOFTWARE\VS2013\VC\INCLUDE\PROCESS.H
C:\SP\SRC\PUBLIC\TIER0\VCR_SHARED.H
C:\SP\SRC\PUBLIC\MATHLIB\VECTOR2D.H
C:\SP\SRC\PUBLIC\MATHLIB\MATH_PFNS.H
C:\SP\SRC\PUBLIC\MINMAX.H
C:\SP\SRC\MATHLIB\SSE.H
C:\SP\SRC\PUBLIC\TIER0\MEMDBGON.H
C:\SP\SRC\PUBLIC\TIER0\MEMALLOC.H
C:\SP\SRC\PUBLIC\TIER0\MEM.H
C:\SP\SRC\PUBLIC\TIER0\MEMDBGOFF.H
^C:\SP\SRC\MATHLIB\HALTON.CPP
C:\SP\SRC\PUBLIC\MATHLIB\HALTON.H
C:\SP\SRC\PUBLIC\TIER0\PLATFORM.H
C:\SP\SRC\PUBLIC\TIER0\WCHARTYPES.H
C:\SP\SRC\PUBLIC\TIER0\VALVE_OFF.H
G:\SOFTWARE\VS2013\VC\INCLUDE\TCHAR.H
G:\SOFTWARE\VS2013\VC\INCLUDE\CRTDEFS.H
G:\SOFTWARE\VS2013\VC\INCLUDE\SAL.H
G:\SOFTWARE\VS2013\VC\INCLUDE\CONCURRENCYSAL.H
G:\SOFTWARE\VS2013\VC\INCLUDE\VADEFS.H
G:\SOFTWARE\VS2013\VC\INCLUDE\STRING.H
G:\SOFTWARE\VS2013\VC\INCLUDE\MBSTRING.H
C:\SP\SRC\PUBLIC\TIER0\VALVE_ON.H
C:\SP\SRC\PUBLIC\TIER0\BASETYPES.H
C:\SP\SRC\PUBLIC\TIER0\COMMONMACROS.H
C:\SP\SRC\PUBLIC\TIER0\PROTECTED_THINGS.H
C:\SP\SRC\PUBLIC\TIER0\XBOX_CODELINE_DEFINES.H
C:\SP\SRC\PUBLIC\TIER0\VALVE_MINMAX_ON.H
G:\SOFTWARE\VS2013\VC\INCLUDE\MALLOC.H
G:\SOFTWARE\VS2013\VC\INCLUDE\NEW
G:\SOFTWARE\VS2013\VC\INCLUDE\EXCEPTION
G:\SOFTWARE\VS2013\VC\INCLUDE\XSTDDEF
G:\SOFTWARE\VS2013\VC\INCLUDE\STDLIB.H
G:\SOFTWARE\VS2013\VC\INCLUDE\LIMITS.H
G:\SOFTWARE\VS2013\VC\INCLUDE\CSTDDEF
G:\SOFTWARE\VS2013\VC\INCLUDE\YVALS.H
G:\SOFTWARE\VS2013\VC\INCLUDE\XKEYCHECK.H
G:\SOFTWARE\VS2013\VC\INCLUDE\USE_ANSI.H
G:\SOFTWARE\VS2013\VC\INCLUDE\STDDEF.H
G:\SOFTWARE\VS2013\VC\INCLUDE\INITIALIZER_LIST
G:\SOFTWARE\VS2013\VC\INCLUDE\XTR1COMMON
G:\SOFTWARE\VS2013\VC\INCLUDE\EH.H
C:\SP\SRC\PUBLIC\TIER0\ANNOTATIONS.H
C:\SP\SRC\PUBLIC\TIER0\FASTTIMER.H
G:\SOFTWARE\VS2013\VC\INCLUDE\INTRIN.H
G:\SOFTWARE\VS2013\VC\INCLUDE\SETJMP.H
G:\SOFTWARE\VS2013\VC\INCLUDE\IMMINTRIN.H
G:\SOFTWARE\VS2013\VC\INCLUDE\WMMINTRIN.H
G:\SOFTWARE\VS2013\VC\INCLUDE\NMMINTRIN.H
G:\SOFTWARE\VS2013\VC\INCLUDE\SMMINTRIN.H
G:\SOFTWARE\VS2013\VC\INCLUDE\TMMINTRIN.H
G:\SOFTWARE\VS2013\VC\INCLUDE\PMMINTRIN.H
G:\SOFTWARE\VS2013\VC\INCLUDE\EMMINTRIN.H
G:\SOFTWARE\VS2013\VC\INCLUDE\XMMINTRIN.H
G:\SOFTWARE\VS2013\VC\INCLUDE\MMINTRIN.H
G:\SOFTWARE\VS2013\VC\INCLUDE\AMMINTRIN.H
G:\SOFTWARE\VS2013\VC\INCLUDE\MM3DNOW.H
G:\SOFTWARE\VS2013\VC\INCLUDE\ASSERT.H
C:\SP\SRC\PUBLIC\MATHLIB\VECTOR.H
G:\SOFTWARE\VS2013\VC\INCLUDE\MATH.H
G:\SOFTWARE\VS2013\VC\INCLUDE\FLOAT.H
G:\SOFTWARE\VS2013\VC\INCLUDE\CRTWRN.H
C:\SP\SRC\PUBLIC\TIER0\DBG.H
C:\SP\SRC\PUBLIC\TIER0\DBGFLAG.H
G:\SOFTWARE\VS2013\VC\INCLUDE\STDIO.H
G:\SOFTWARE\VS2013\VC\INCLUDE\SWPRINTF.INL
G:\SOFTWARE\VS2013\VC\INCLUDE\STDARG.H
C:\SP\SRC\PUBLIC\TIER0\THREADTOOLS.H
C:\SP\SRC\PUBLIC\TIER0\VCRMODE.H
G:\SOFTWARE\VS2013\VC\INCLUDE\PROCESS.H
C:\SP\SRC\PUBLIC\TIER0\VCR_SHARED.H
C:\SP\SRC\PUBLIC\MATHLIB\VECTOR2D.H
C:\SP\SRC\PUBLIC\MATHLIB\MATH_PFNS.H
C:\SP\SRC\PUBLIC\MINMAX.H
^C:\SP\SRC\MATHLIB\QUANTIZE.CPP
G:\SOFTWARE\VS2013\VC\INCLUDE\STDIO.H
G:\SOFTWARE\VS2013\VC\INCLUDE\CRTDEFS.H
G:\SOFTWARE\VS2013\VC\INCLUDE\SAL.H
G:\SOFTWARE\VS2013\VC\INCLUDE\CONCURRENCYSAL.H
G:\SOFTWARE\VS2013\VC\INCLUDE\VADEFS.H
G:\SOFTWARE\VS2013\VC\INCLUDE\SWPRINTF.INL
G:\SOFTWARE\VS2013\VC\INCLUDE\STRING.H
C:\SP\SRC\PUBLIC\MATHLIB\QUANTIZE.H
C:\SP\SRC\PUBLIC\TIER0\PLATFORM.H
C:\SP\SRC\PUBLIC\TIER0\WCHARTYPES.H
C:\SP\SRC\PUBLIC\TIER0\VALVE_OFF.H
G:\SOFTWARE\VS2013\VC\INCLUDE\TCHAR.H
G:\SOFTWARE\VS2013\VC\INCLUDE\MBSTRING.H
C:\SP\SRC\PUBLIC\TIER0\VALVE_ON.H
C:\SP\SRC\PUBLIC\TIER0\BASETYPES.H
C:\SP\SRC\PUBLIC\TIER0\COMMONMACROS.H
C:\SP\SRC\PUBLIC\TIER0\PROTECTED_THINGS.H
C:\SP\SRC\PUBLIC\TIER0\XBOX_CODELINE_DEFINES.H
C:\SP\SRC\PUBLIC\TIER0\VALVE_MINMAX_ON.H
G:\SOFTWARE\VS2013\VC\INCLUDE\MALLOC.H
G:\SOFTWARE\VS2013\VC\INCLUDE\NEW
G:\SOFTWARE\VS2013\VC\INCLUDE\EXCEPTION
G:\SOFTWARE\VS2013\VC\INCLUDE\XSTDDEF
G:\SOFTWARE\VS2013\VC\INCLUDE\STDLIB.H
G:\SOFTWARE\VS2013\VC\INCLUDE\LIMITS.H
G:\SOFTWARE\VS2013\VC\INCLUDE\CSTDDEF
G:\SOFTWARE\VS2013\VC\INCLUDE\YVALS.H
G:\SOFTWARE\VS2013\VC\INCLUDE\XKEYCHECK.H
G:\SOFTWARE\VS2013\VC\INCLUDE\USE_ANSI.H
G:\SOFTWARE\VS2013\VC\INCLUDE\STDDEF.H
G:\SOFTWARE\VS2013\VC\INCLUDE\INITIALIZER_LIST
G:\SOFTWARE\VS2013\VC\INCLUDE\XTR1COMMON
G:\SOFTWARE\VS2013\VC\INCLUDE\EH.H
C:\SP\SRC\PUBLIC\TIER0\ANNOTATIONS.H
C:\SP\SRC\PUBLIC\TIER0\FASTTIMER.H
G:\SOFTWARE\VS2013\VC\INCLUDE\INTRIN.H
G:\SOFTWARE\VS2013\VC\INCLUDE\SETJMP.H
G:\SOFTWARE\VS2013\VC\INCLUDE\IMMINTRIN.H
G:\SOFTWARE\VS2013\VC\INCLUDE\WMMINTRIN.H
G:\SOFTWARE\VS2013\VC\INCLUDE\NMMINTRIN.H
G:\SOFTWARE\VS2013\VC\INCLUDE\SMMINTRIN.H
G:\SOFTWARE\VS2013\VC\INCLUDE\TMMINTRIN.H
G:\SOFTWARE\VS2013\VC\INCLUDE\PMMINTRIN.H
G:\SOFTWARE\VS2013\VC\INCLUDE\EMMINTRIN.H
G:\SOFTWARE\VS2013\VC\INCLUDE\XMMINTRIN.H
G:\SOFTWARE\VS2013\VC\INCLUDE\MMINTRIN.H
G:\SOFTWARE\VS2013\VC\INCLUDE\AMMINTRIN.H
G:\SOFTWARE\VS2013\VC\INCLUDE\MM3DNOW.H
G:\SOFTWARE\VS2013\VC\INCLUDE\ASSERT.H
C:\SP\SRC\PUBLIC\MINMAX.H
G:\SOFTWARE\VS2013\VC\INCLUDE\MATH.H
^C:\SP\SRC\MATHLIB\SIMDVECTORMATRIX.CPP
C:\SP\SRC\PUBLIC\TIER0\BASETYPES.H
C:\SP\SRC\PUBLIC\TIER0\COMMONMACROS.H
C:\SP\SRC\PUBLIC\TIER0\PLATFORM.H
C:\SP\SRC\PUBLIC\TIER0\WCHARTYPES.H
C:\SP\SRC\PUBLIC\TIER0\VALVE_OFF.H
G:\SOFTWARE\VS2013\VC\INCLUDE\TCHAR.H
G:\SOFTWARE\VS2013\VC\INCLUDE\CRTDEFS.H
G:\SOFTWARE\VS2013\VC\INCLUDE\SAL.H
G:\SOFTWARE\VS2013\VC\INCLUDE\CONCURRENCYSAL.H
G:\SOFTWARE\VS2013\VC\INCLUDE\VADEFS.H
G:\SOFTWARE\VS2013\VC\INCLUDE\STRING.H
G:\SOFTWARE\VS2013\VC\INCLUDE\MBSTRING.H
C:\SP\SRC\PUBLIC\TIER0\VALVE_ON.H
G:\SOFTWARE\VS2013\VC\INCLUDE\MALLOC.H
G:\SOFTWARE\VS2013\VC\INCLUDE\NEW
G:\SOFTWARE\VS2013\VC\INCLUDE\EXCEPTION
G:\SOFTWARE\VS2013\VC\INCLUDE\XSTDDEF
G:\SOFTWARE\VS2013\VC\INCLUDE\STDLIB.H
G:\SOFTWARE\VS2013\VC\INCLUDE\LIMITS.H
G:\SOFTWARE\VS2013\VC\INCLUDE\CSTDDEF
G:\SOFTWARE\VS2013\VC\INCLUDE\YVALS.H
G:\SOFTWARE\VS2013\VC\INCLUDE\XKEYCHECK.H
G:\SOFTWARE\VS2013\VC\INCLUDE\USE_ANSI.H
G:\SOFTWARE\VS2013\VC\INCLUDE\STDDEF.H
G:\SOFTWARE\VS2013\VC\INCLUDE\INITIALIZER_LIST
G:\SOFTWARE\VS2013\VC\INCLUDE\XTR1COMMON
G:\SOFTWARE\VS2013\VC\INCLUDE\EH.H
C:\SP\SRC\PUBLIC\TIER0\VALVE_MINMAX_ON.H
C:\SP\SRC\PUBLIC\TIER0\ANNOTATIONS.H
C:\SP\SRC\PUBLIC\TIER0\FASTTIMER.H
G:\SOFTWARE\VS2013\VC\INCLUDE\INTRIN.H
G:\SOFTWARE\VS2013\VC\INCLUDE\SETJMP.H
G:\SOFTWARE\VS2013\VC\INCLUDE\IMMINTRIN.H
G:\SOFTWARE\VS2013\VC\INCLUDE\WMMINTRIN.H
G:\SOFTWARE\VS2013\VC\INCLUDE\NMMINTRIN.H
G:\SOFTWARE\VS2013\VC\INCLUDE\SMMINTRIN.H
G:\SOFTWARE\VS2013\VC\INCLUDE\TMMINTRIN.H
G:\SOFTWARE\VS2013\VC\INCLUDE\PMMINTRIN.H
G:\SOFTWARE\VS2013\VC\INCLUDE\EMMINTRIN.H
G:\SOFTWARE\VS2013\VC\INCLUDE\XMMINTRIN.H
G:\SOFTWARE\VS2013\VC\INCLUDE\MMINTRIN.H
G:\SOFTWARE\VS2013\VC\INCLUDE\AMMINTRIN.H
G:\SOFTWARE\VS2013\VC\INCLUDE\MM3DNOW.H
G:\SOFTWARE\VS2013\VC\INCLUDE\ASSERT.H
C:\SP\SRC\PUBLIC\TIER0\PROTECTED_THINGS.H
C:\SP\SRC\PUBLIC\TIER0\XBOX_CODELINE_DEFINES.H
C:\SP\SRC\PUBLIC\MATHLIB\MATHLIB.H
G:\SOFTWARE\VS2013\VC\INCLUDE\MATH.H
C:\SP\SRC\PUBLIC\MATHLIB\VECTOR.H
G:\SOFTWARE\VS2013\VC\INCLUDE\FLOAT.H
G:\SOFTWARE\VS2013\VC\INCLUDE\CRTWRN.H
C:\SP\SRC\PUBLIC\TIER0\DBG.H
C:\SP\SRC\PUBLIC\TIER0\DBGFLAG.H
G:\SOFTWARE\VS2013\VC\INCLUDE\STDIO.H
G:\SOFTWARE\VS2013\VC\INCLUDE\SWPRINTF.INL
G:\SOFTWARE\VS2013\VC\INCLUDE\STDARG.H
C:\SP\SRC\PUBLIC\TIER0\THREADTOOLS.H
C:\SP\SRC\PUBLIC\TIER0\VCRMODE.H
G:\SOFTWARE\VS2013\VC\INCLUDE\PROCESS.H
C:\SP\SRC\PUBLIC\TIER0\VCR_SHARED.H
C:\SP\SRC\PUBLIC\MATHLIB\VECTOR2D.H
C:\SP\SRC\PUBLIC\MATHLIB\MATH_PFNS.H
C:\SP\SRC\PUBLIC\MINMAX.H
C:\SP\SRC\PUBLIC\MATHLIB\SIMDVECTORMATRIX.H
C:\SP\SRC\PUBLIC\TIER1\UTLSOACONTAINER.H
C:\SP\SRC\PUBLIC\TIER1\UTLMEMORY.H
C:\SP\SRC\PUBLIC\TIER0\MEMALLOC.H
C:\SP\SRC\PUBLIC\TIER0\MEM.H
C:\SP\SRC\PUBLIC\TIER0\MEMDBGON.H
C:\SP\SRC\PUBLIC\TIER0\MEMDBGOFF.H
C:\SP\SRC\PUBLIC\TIER1\UTLBLOCKMEMORY.H
C:\SP\SRC\PUBLIC\MATHLIB\SSEMATH.H
^C:\SP\SRC\MATHLIB\VMATRIX.CPP
C:\SP\SRC\PUBLIC\TIER0\BASETYPES.H
C:\SP\SRC\PUBLIC\TIER0\COMMONMACROS.H
C:\SP\SRC\PUBLIC\TIER0\PLATFORM.H
C:\SP\SRC\PUBLIC\TIER0\WCHARTYPES.H
C:\SP\SRC\PUBLIC\TIER0\VALVE_OFF.H
G:\SOFTWARE\VS2013\VC\INCLUDE\TCHAR.H
G:\SOFTWARE\VS2013\VC\INCLUDE\CRTDEFS.H
G:\SOFTWARE\VS2013\VC\INCLUDE\SAL.H
G:\SOFTWARE\VS2013\VC\INCLUDE\CONCURRENCYSAL.H
G:\SOFTWARE\VS2013\VC\INCLUDE\VADEFS.H
G:\SOFTWARE\VS2013\VC\INCLUDE\STRING.H
G:\SOFTWARE\VS2013\VC\INCLUDE\MBSTRING.H
C:\SP\SRC\PUBLIC\TIER0\VALVE_ON.H
G:\SOFTWARE\VS2013\VC\INCLUDE\MALLOC.H
G:\SOFTWARE\VS2013\VC\INCLUDE\NEW
G:\SOFTWARE\VS2013\VC\INCLUDE\EXCEPTION
G:\SOFTWARE\VS2013\VC\INCLUDE\XSTDDEF
G:\SOFTWARE\VS2013\VC\INCLUDE\STDLIB.H
G:\SOFTWARE\VS2013\VC\INCLUDE\LIMITS.H
G:\SOFTWARE\VS2013\VC\INCLUDE\CSTDDEF
G:\SOFTWARE\VS2013\VC\INCLUDE\YVALS.H
G:\SOFTWARE\VS2013\VC\INCLUDE\XKEYCHECK.H
G:\SOFTWARE\VS2013\VC\INCLUDE\USE_ANSI.H
G:\SOFTWARE\VS2013\VC\INCLUDE\STDDEF.H
G:\SOFTWARE\VS2013\VC\INCLUDE\INITIALIZER_LIST
G:\SOFTWARE\VS2013\VC\INCLUDE\XTR1COMMON
G:\SOFTWARE\VS2013\VC\INCLUDE\EH.H
C:\SP\SRC\PUBLIC\TIER0\VALVE_MINMAX_ON.H
C:\SP\SRC\PUBLIC\TIER0\ANNOTATIONS.H
C:\SP\SRC\PUBLIC\TIER0\FASTTIMER.H
G:\SOFTWARE\VS2013\VC\INCLUDE\INTRIN.H
G:\SOFTWARE\VS2013\VC\INCLUDE\SETJMP.H
G:\SOFTWARE\VS2013\VC\INCLUDE\IMMINTRIN.H
G:\SOFTWARE\VS2013\VC\INCLUDE\WMMINTRIN.H
G:\SOFTWARE\VS2013\VC\INCLUDE\NMMINTRIN.H
G:\SOFTWARE\VS2013\VC\INCLUDE\SMMINTRIN.H
G:\SOFTWARE\VS2013\VC\INCLUDE\TMMINTRIN.H
G:\SOFTWARE\VS2013\VC\INCLUDE\PMMINTRIN.H
G:\SOFTWARE\VS2013\VC\INCLUDE\EMMINTRIN.H
G:\SOFTWARE\VS2013\VC\INCLUDE\XMMINTRIN.H
G:\SOFTWARE\VS2013\VC\INCLUDE\MMINTRIN.H
G:\SOFTWARE\VS2013\VC\INCLUDE\AMMINTRIN.H
G:\SOFTWARE\VS2013\VC\INCLUDE\MM3DNOW.H
G:\SOFTWARE\VS2013\VC\INCLUDE\ASSERT.H
C:\SP\SRC\PUBLIC\TIER0\PROTECTED_THINGS.H
C:\SP\SRC\PUBLIC\TIER0\XBOX_CODELINE_DEFINES.H
C:\SP\SRC\PUBLIC\MATHLIB\VMATRIX.H
C:\SP\SRC\PUBLIC\MATHLIB\VECTOR.H
G:\SOFTWARE\VS2013\VC\INCLUDE\MATH.H
G:\SOFTWARE\VS2013\VC\INCLUDE\FLOAT.H
G:\SOFTWARE\VS2013\VC\INCLUDE\CRTWRN.H
C:\SP\SRC\PUBLIC\TIER0\DBG.H
C:\SP\SRC\PUBLIC\TIER0\DBGFLAG.H
G:\SOFTWARE\VS2013\VC\INCLUDE\STDIO.H
G:\SOFTWARE\VS2013\VC\INCLUDE\SWPRINTF.INL
G:\SOFTWARE\VS2013\VC\INCLUDE\STDARG.H
C:\SP\SRC\PUBLIC\TIER0\THREADTOOLS.H
C:\SP\SRC\PUBLIC\TIER0\VCRMODE.H
G:\SOFTWARE\VS2013\VC\INCLUDE\PROCESS.H
C:\SP\SRC\PUBLIC\TIER0\VCR_SHARED.H
C:\SP\SRC\PUBLIC\MATHLIB\VECTOR2D.H
C:\SP\SRC\PUBLIC\MATHLIB\MATH_PFNS.H
C:\SP\SRC\PUBLIC\MINMAX.H
C:\SP\SRC\PUBLIC\MATHLIB\VPLANE.H
C:\SP\SRC\PUBLIC\MATHLIB\VECTOR4D.H
C:\SP\SRC\PUBLIC\MATHLIB\MATHLIB.H
C:\SP\SRC\PUBLIC\TIER0\MEMDBGON.H
C:\SP\SRC\PUBLIC\TIER0\MEMALLOC.H
C:\SP\SRC\PUBLIC\TIER0\MEM.H
C:\SP\SRC\PUBLIC\TIER0\MEMDBGOFF.H
^C:\SP\SRC\MATHLIB\COLOR_CONVERSION.CPP
G:\SOFTWARE\VS2013\VC\INCLUDE\MATH.H
G:\SOFTWARE\VS2013\VC\INCLUDE\CRTDEFS.H
G:\SOFTWARE\VS2013\VC\INCLUDE\SAL.H
G:\SOFTWARE\VS2013\VC\INCLUDE\CONCURRENCYSAL.H
G:\SOFTWARE\VS2013\VC\INCLUDE\VADEFS.H
G:\SOFTWARE\VS2013\VC\INCLUDE\FLOAT.H
G:\SOFTWARE\VS2013\VC\INCLUDE\CRTWRN.H
C:\SP\SRC\PUBLIC\TIER0\BASETYPES.H
C:\SP\SRC\PUBLIC\TIER0\COMMONMACROS.H
C:\SP\SRC\PUBLIC\TIER0\PLATFORM.H
C:\SP\SRC\PUBLIC\TIER0\WCHARTYPES.H
C:\SP\SRC\PUBLIC\TIER0\VALVE_OFF.H
G:\SOFTWARE\VS2013\VC\INCLUDE\TCHAR.H
G:\SOFTWARE\VS2013\VC\INCLUDE\STRING.H
G:\SOFTWARE\VS2013\VC\INCLUDE\MBSTRING.H
C:\SP\SRC\PUBLIC\TIER0\VALVE_ON.H
G:\SOFTWARE\VS2013\VC\INCLUDE\MALLOC.H
G:\SOFTWARE\VS2013\VC\INCLUDE\NEW
G:\SOFTWARE\VS2013\VC\INCLUDE\EXCEPTION
G:\SOFTWARE\VS2013\VC\INCLUDE\XSTDDEF
G:\SOFTWARE\VS2013\VC\INCLUDE\STDLIB.H
G:\SOFTWARE\VS2013\VC\INCLUDE\LIMITS.H
G:\SOFTWARE\VS2013\VC\INCLUDE\CSTDDEF
G:\SOFTWARE\VS2013\VC\INCLUDE\YVALS.H
G:\SOFTWARE\VS2013\VC\INCLUDE\XKEYCHECK.H
G:\SOFTWARE\VS2013\VC\INCLUDE\USE_ANSI.H
G:\SOFTWARE\VS2013\VC\INCLUDE\STDDEF.H
G:\SOFTWARE\VS2013\VC\INCLUDE\INITIALIZER_LIST
G:\SOFTWARE\VS2013\VC\INCLUDE\XTR1COMMON
G:\SOFTWARE\VS2013\VC\INCLUDE\EH.H
C:\SP\SRC\PUBLIC\TIER0\VALVE_MINMAX_ON.H
C:\SP\SRC\PUBLIC\TIER0\ANNOTATIONS.H
C:\SP\SRC\PUBLIC\TIER0\FASTTIMER.H
G:\SOFTWARE\VS2013\VC\INCLUDE\INTRIN.H
G:\SOFTWARE\VS2013\VC\INCLUDE\SETJMP.H
G:\SOFTWARE\VS2013\VC\INCLUDE\IMMINTRIN.H
G:\SOFTWARE\VS2013\VC\INCLUDE\WMMINTRIN.H
G:\SOFTWARE\VS2013\VC\INCLUDE\NMMINTRIN.H
G:\SOFTWARE\VS2013\VC\INCLUDE\SMMINTRIN.H
G:\SOFTWARE\VS2013\VC\INCLUDE\TMMINTRIN.H
G:\SOFTWARE\VS2013\VC\INCLUDE\PMMINTRIN.H
G:\SOFTWARE\VS2013\VC\INCLUDE\EMMINTRIN.H
G:\SOFTWARE\VS2013\VC\INCLUDE\XMMINTRIN.H
G:\SOFTWARE\VS2013\VC\INCLUDE\MMINTRIN.H
G:\SOFTWARE\VS2013\VC\INCLUDE\AMMINTRIN.H
G:\SOFTWARE\VS2013\VC\INCLUDE\MM3DNOW.H
G:\SOFTWARE\VS2013\VC\INCLUDE\ASSERT.H
C:\SP\SRC\PUBLIC\TIER0\PROTECTED_THINGS.H
C:\SP\SRC\PUBLIC\TIER0\XBOX_CODELINE_DEFINES.H
G:\SOFTWARE\VS2013\VC\INCLUDE\MEMORY.H
C:\SP\SRC\PUBLIC\TIER0\DBG.H
C:\SP\SRC\PUBLIC\TIER0\DBGFLAG.H
G:\SOFTWARE\VS2013\VC\INCLUDE\STDIO.H
G:\SOFTWARE\VS2013\VC\INCLUDE\SWPRINTF.INL
G:\SOFTWARE\VS2013\VC\INCLUDE\STDARG.H
C:\SP\SRC\PUBLIC\MATHLIB\MATHLIB.H
C:\SP\SRC\PUBLIC\MATHLIB\VECTOR.H
C:\SP\SRC\PUBLIC\TIER0\THREADTOOLS.H
C:\SP\SRC\PUBLIC\TIER0\VCRMODE.H
G:\SOFTWARE\VS2013\VC\INCLUDE\PROCESS.H
C:\SP\SRC\PUBLIC\TIER0\VCR_SHARED.H
C:\SP\SRC\PUBLIC\MATHLIB\VECTOR2D.H
C:\SP\SRC\PUBLIC\MATHLIB\MATH_PFNS.H
C:\SP\SRC\PUBLIC\MINMAX.H
C:\SP\SRC\PUBLIC\TIER0\MEMDBGON.H
C:\SP\SRC\PUBLIC\TIER0\MEMALLOC.H
C:\SP\SRC\PUBLIC\TIER0\MEM.H
C:\SP\SRC\PUBLIC\TIER0\MEMDBGOFF.H
^C:\SP\SRC\MATHLIB\LIGHTDESC.CPP
C:\SP\SRC\PUBLIC\MATHLIB\SSEMATH.H
G:\SOFTWARE\VS2013\VC\INCLUDE\XMMINTRIN.H
G:\SOFTWARE\VS2013\VC\INCLUDE\MMINTRIN.H
G:\SOFTWARE\VS2013\VC\INCLUDE\CRTDEFS.H
G:\SOFTWARE\VS2013\VC\INCLUDE\SAL.H
G:\SOFTWARE\VS2013\VC\INCLUDE\CONCURRENCYSAL.H
G:\SOFTWARE\VS2013\VC\INCLUDE\VADEFS.H
G:\SOFTWARE\VS2013\VC\INCLUDE\MALLOC.H
C:\SP\SRC\PUBLIC\MATHLIB\VECTOR.H
G:\SOFTWARE\VS2013\VC\INCLUDE\MATH.H
G:\SOFTWARE\VS2013\VC\INCLUDE\FLOAT.H
G:\SOFTWARE\VS2013\VC\INCLUDE\CRTWRN.H
C:\SP\SRC\PUBLIC\TIER0\BASETYPES.H
C:\SP\SRC\PUBLIC\TIER0\COMMONMACROS.H
C:\SP\SRC\PUBLIC\TIER0\PLATFORM.H
C:\SP\SRC\PUBLIC\TIER0\WCHARTYPES.H
C:\SP\SRC\PUBLIC\TIER0\VALVE_OFF.H
G:\SOFTWARE\VS2013\VC\INCLUDE\TCHAR.H
G:\SOFTWARE\VS2013\VC\INCLUDE\STRING.H
G:\SOFTWARE\VS2013\VC\INCLUDE\MBSTRING.H
C:\SP\SRC\PUBLIC\TIER0\VALVE_ON.H
G:\SOFTWARE\VS2013\VC\INCLUDE\NEW
G:\SOFTWARE\VS2013\VC\INCLUDE\EXCEPTION
G:\SOFTWARE\VS2013\VC\INCLUDE\XSTDDEF
G:\SOFTWARE\VS2013\VC\INCLUDE\STDLIB.H
G:\SOFTWARE\VS2013\VC\INCLUDE\LIMITS.H
G:\SOFTWARE\VS2013\VC\INCLUDE\CSTDDEF
G:\SOFTWARE\VS2013\VC\INCLUDE\YVALS.H
G:\SOFTWARE\VS2013\VC\INCLUDE\XKEYCHECK.H
G:\SOFTWARE\VS2013\VC\INCLUDE\USE_ANSI.H
G:\SOFTWARE\VS2013\VC\INCLUDE\STDDEF.H
G:\SOFTWARE\VS2013\VC\INCLUDE\INITIALIZER_LIST
G:\SOFTWARE\VS2013\VC\INCLUDE\XTR1COMMON
G:\SOFTWARE\VS2013\VC\INCLUDE\EH.H
C:\SP\SRC\PUBLIC\TIER0\VALVE_MINMAX_ON.H
C:\SP\SRC\PUBLIC\TIER0\ANNOTATIONS.H
C:\SP\SRC\PUBLIC\TIER0\FASTTIMER.H
G:\SOFTWARE\VS2013\VC\INCLUDE\INTRIN.H
G:\SOFTWARE\VS2013\VC\INCLUDE\SETJMP.H
G:\SOFTWARE\VS2013\VC\INCLUDE\IMMINTRIN.H
G:\SOFTWARE\VS2013\VC\INCLUDE\WMMINTRIN.H
G:\SOFTWARE\VS2013\VC\INCLUDE\NMMINTRIN.H
G:\SOFTWARE\VS2013\VC\INCLUDE\SMMINTRIN.H
G:\SOFTWARE\VS2013\VC\INCLUDE\TMMINTRIN.H
G:\SOFTWARE\VS2013\VC\INCLUDE\PMMINTRIN.H
G:\SOFTWARE\VS2013\VC\INCLUDE\EMMINTRIN.H
G:\SOFTWARE\VS2013\VC\INCLUDE\AMMINTRIN.H
G:\SOFTWARE\VS2013\VC\INCLUDE\MM3DNOW.H
G:\SOFTWARE\VS2013\VC\INCLUDE\ASSERT.H
C:\SP\SRC\PUBLIC\TIER0\PROTECTED_THINGS.H
C:\SP\SRC\PUBLIC\TIER0\XBOX_CODELINE_DEFINES.H
C:\SP\SRC\PUBLIC\TIER0\DBG.H
C:\SP\SRC\PUBLIC\TIER0\DBGFLAG.H
G:\SOFTWARE\VS2013\VC\INCLUDE\STDIO.H
G:\SOFTWARE\VS2013\VC\INCLUDE\SWPRINTF.INL
G:\SOFTWARE\VS2013\VC\INCLUDE\STDARG.H
C:\SP\SRC\PUBLIC\TIER0\THREADTOOLS.H
C:\SP\SRC\PUBLIC\TIER0\VCRMODE.H
G:\SOFTWARE\VS2013\VC\INCLUDE\PROCESS.H
C:\SP\SRC\PUBLIC\TIER0\VCR_SHARED.H
C:\SP\SRC\PUBLIC\MATHLIB\VECTOR2D.H
C:\SP\SRC\PUBLIC\MATHLIB\MATH_PFNS.H
C:\SP\SRC\PUBLIC\MINMAX.H
C:\SP\SRC\PUBLIC\MATHLIB\MATHLIB.H
C:\SP\SRC\PUBLIC\MATHLIB\LIGHTDESC.H
^C:\SP\SRC\MATHLIB\SSECONST.CPP
C:\SP\SRC\PUBLIC\MATHLIB\SSEMATH.H
G:\SOFTWARE\VS2013\VC\INCLUDE\XMMINTRIN.H
G:\SOFTWARE\VS2013\VC\INCLUDE\MMINTRIN.H
G:\SOFTWARE\VS2013\VC\INCLUDE\CRTDEFS.H
G:\SOFTWARE\VS2013\VC\INCLUDE\SAL.H
G:\SOFTWARE\VS2013\VC\INCLUDE\CONCURRENCYSAL.H
G:\SOFTWARE\VS2013\VC\INCLUDE\VADEFS.H
G:\SOFTWARE\VS2013\VC\INCLUDE\MALLOC.H
C:\SP\SRC\PUBLIC\MATHLIB\VECTOR.H
G:\SOFTWARE\VS2013\VC\INCLUDE\MATH.H
G:\SOFTWARE\VS2013\VC\INCLUDE\FLOAT.H
G:\SOFTWARE\VS2013\VC\INCLUDE\CRTWRN.H
C:\SP\SRC\PUBLIC\TIER0\BASETYPES.H
C:\SP\SRC\PUBLIC\TIER0\COMMONMACROS.H
C:\SP\SRC\PUBLIC\TIER0\PLATFORM.H
C:\SP\SRC\PUBLIC\TIER0\WCHARTYPES.H
C:\SP\SRC\PUBLIC\TIER0\VALVE_OFF.H
G:\SOFTWARE\VS2013\VC\INCLUDE\TCHAR.H
G:\SOFTWARE\VS2013\VC\INCLUDE\STRING.H
G:\SOFTWARE\VS2013\VC\INCLUDE\MBSTRING.H
C:\SP\SRC\PUBLIC\TIER0\VALVE_ON.H
G:\SOFTWARE\VS2013\VC\INCLUDE\NEW
G:\SOFTWARE\VS2013\VC\INCLUDE\EXCEPTION
G:\SOFTWARE\VS2013\VC\INCLUDE\XSTDDEF
G:\SOFTWARE\VS2013\VC\INCLUDE\STDLIB.H
G:\SOFTWARE\VS2013\VC\INCLUDE\LIMITS.H
G:\SOFTWARE\VS2013\VC\INCLUDE\CSTDDEF
G:\SOFTWARE\VS2013\VC\INCLUDE\YVALS.H
G:\SOFTWARE\VS2013\VC\INCLUDE\XKEYCHECK.H
G:\SOFTWARE\VS2013\VC\INCLUDE\USE_ANSI.H
G:\SOFTWARE\VS2013\VC\INCLUDE\STDDEF.H
G:\SOFTWARE\VS2013\VC\INCLUDE\INITIALIZER_LIST
G:\SOFTWARE\VS2013\VC\INCLUDE\XTR1COMMON
G:\SOFTWARE\VS2013\VC\INCLUDE\EH.H
C:\SP\SRC\PUBLIC\TIER0\VALVE_MINMAX_ON.H
C:\SP\SRC\PUBLIC\TIER0\ANNOTATIONS.H
C:\SP\SRC\PUBLIC\TIER0\FASTTIMER.H
G:\SOFTWARE\VS2013\VC\INCLUDE\INTRIN.H
G:\SOFTWARE\VS2013\VC\INCLUDE\SETJMP.H
G:\SOFTWARE\VS2013\VC\INCLUDE\IMMINTRIN.H
G:\SOFTWARE\VS2013\VC\INCLUDE\WMMINTRIN.H
G:\SOFTWARE\VS2013\VC\INCLUDE\NMMINTRIN.H
G:\SOFTWARE\VS2013\VC\INCLUDE\SMMINTRIN.H
G:\SOFTWARE\VS2013\VC\INCLUDE\TMMINTRIN.H
G:\SOFTWARE\VS2013\VC\INCLUDE\PMMINTRIN.H
G:\SOFTWARE\VS2013\VC\INCLUDE\EMMINTRIN.H
G:\SOFTWARE\VS2013\VC\INCLUDE\AMMINTRIN.H
G:\SOFTWARE\VS2013\VC\INCLUDE\MM3DNOW.H
G:\SOFTWARE\VS2013\VC\INCLUDE\ASSERT.H
C:\SP\SRC\PUBLIC\TIER0\PROTECTED_THINGS.H
C:\SP\SRC\PUBLIC\TIER0\XBOX_CODELINE_DEFINES.H
C:\SP\SRC\PUBLIC\TIER0\DBG.H
C:\SP\SRC\PUBLIC\TIER0\DBGFLAG.H
G:\SOFTWARE\VS2013\VC\INCLUDE\STDIO.H
G:\SOFTWARE\VS2013\VC\INCLUDE\SWPRINTF.INL
G:\SOFTWARE\VS2013\VC\INCLUDE\STDARG.H
C:\SP\SRC\PUBLIC\TIER0\THREADTOOLS.H
C:\SP\SRC\PUBLIC\TIER0\VCRMODE.H
G:\SOFTWARE\VS2013\VC\INCLUDE\PROCESS.H
C:\SP\SRC\PUBLIC\TIER0\VCR_SHARED.H
C:\SP\SRC\PUBLIC\MATHLIB\VECTOR2D.H
C:\SP\SRC\PUBLIC\MATHLIB\MATH_PFNS.H
C:\SP\SRC\PUBLIC\MINMAX.H
C:\SP\SRC\PUBLIC\MATHLIB\MATHLIB.H
C:\SP\SRC\PUBLIC\MATHLIB\SSEQUATERNION.H
^C:\SP\SRC\MATHLIB\3DNOW.CPP
G:\SOFTWARE\VS2013\VC\INCLUDE\MATH.H
G:\SOFTWARE\VS2013\VC\INCLUDE\CRTDEFS.H
G:\SOFTWARE\VS2013\VC\INCLUDE\SAL.H
G:\SOFTWARE\VS2013\VC\INCLUDE\CONCURRENCYSAL.H
G:\SOFTWARE\VS2013\VC\INCLUDE\VADEFS.H
G:\SOFTWARE\VS2013\VC\INCLUDE\FLOAT.H
G:\SOFTWARE\VS2013\VC\INCLUDE\CRTWRN.H
C:\SP\SRC\PUBLIC\TIER0\BASETYPES.H
C:\SP\SRC\PUBLIC\TIER0\COMMONMACROS.H
C:\SP\SRC\PUBLIC\TIER0\PLATFORM.H
C:\SP\SRC\PUBLIC\TIER0\WCHARTYPES.H
C:\SP\SRC\PUBLIC\TIER0\VALVE_OFF.H
G:\SOFTWARE\VS2013\VC\INCLUDE\TCHAR.H
G:\SOFTWARE\VS2013\VC\INCLUDE\STRING.H
G:\SOFTWARE\VS2013\VC\INCLUDE\MBSTRING.H
C:\SP\SRC\PUBLIC\TIER0\VALVE_ON.H
G:\SOFTWARE\VS2013\VC\INCLUDE\MALLOC.H
G:\SOFTWARE\VS2013\VC\INCLUDE\NEW
G:\SOFTWARE\VS2013\VC\INCLUDE\EXCEPTION
G:\SOFTWARE\VS2013\VC\INCLUDE\XSTDDEF
G:\SOFTWARE\VS2013\VC\INCLUDE\STDLIB.H
G:\SOFTWARE\VS2013\VC\INCLUDE\LIMITS.H
G:\SOFTWARE\VS2013\VC\INCLUDE\CSTDDEF
G:\SOFTWARE\VS2013\VC\INCLUDE\YVALS.H
G:\SOFTWARE\VS2013\VC\INCLUDE\XKEYCHECK.H
G:\SOFTWARE\VS2013\VC\INCLUDE\USE_ANSI.H
G:\SOFTWARE\VS2013\VC\INCLUDE\STDDEF.H
G:\SOFTWARE\VS2013\VC\INCLUDE\INITIALIZER_LIST
G:\SOFTWARE\VS2013\VC\INCLUDE\XTR1COMMON
G:\SOFTWARE\VS2013\VC\INCLUDE\EH.H
C:\SP\SRC\PUBLIC\TIER0\VALVE_MINMAX_ON.H
C:\SP\SRC\PUBLIC\TIER0\ANNOTATIONS.H
C:\SP\SRC\PUBLIC\TIER0\FASTTIMER.H
G:\SOFTWARE\VS2013\VC\INCLUDE\INTRIN.H
G:\SOFTWARE\VS2013\VC\INCLUDE\SETJMP.H
G:\SOFTWARE\VS2013\VC\INCLUDE\IMMINTRIN.H
G:\SOFTWARE\VS2013\VC\INCLUDE\WMMINTRIN.H
G:\SOFTWARE\VS2013\VC\INCLUDE\NMMINTRIN.H
G:\SOFTWARE\VS2013\VC\INCLUDE\SMMINTRIN.H
G:\SOFTWARE\VS2013\VC\INCLUDE\TMMINTRIN.H
G:\SOFTWARE\VS2013\VC\INCLUDE\PMMINTRIN.H
G:\SOFTWARE\VS2013\VC\INCLUDE\EMMINTRIN.H
G:\SOFTWARE\VS2013\VC\INCLUDE\XMMINTRIN.H
G:\SOFTWARE\VS2013\VC\INCLUDE\MMINTRIN.H
G:\SOFTWARE\VS2013\VC\INCLUDE\AMMINTRIN.H
G:\SOFTWARE\VS2013\VC\INCLUDE\MM3DNOW.H
G:\SOFTWARE\VS2013\VC\INCLUDE\ASSERT.H
C:\SP\SRC\PUBLIC\TIER0\PROTECTED_THINGS.H
C:\SP\SRC\PUBLIC\TIER0\XBOX_CODELINE_DEFINES.H
G:\SOFTWARE\VS2013\VC\INCLUDE\MEMORY.H
C:\SP\SRC\PUBLIC\TIER0\DBG.H
C:\SP\SRC\PUBLIC\TIER0\DBGFLAG.H
G:\SOFTWARE\VS2013\VC\INCLUDE\STDIO.H
G:\SOFTWARE\VS2013\VC\INCLUDE\SWPRINTF.INL
G:\SOFTWARE\VS2013\VC\INCLUDE\STDARG.H
C:\SP\SRC\PUBLIC\MATHLIB\MATHLIB.H
C:\SP\SRC\PUBLIC\MATHLIB\VECTOR.H
C:\SP\SRC\PUBLIC\TIER0\THREADTOOLS.H
C:\SP\SRC\PUBLIC\TIER0\VCRMODE.H
G:\SOFTWARE\VS2013\VC\INCLUDE\PROCESS.H
C:\SP\SRC\PUBLIC\TIER0\VCR_SHARED.H
C:\SP\SRC\PUBLIC\MATHLIB\VECTOR2D.H
C:\SP\SRC\PUBLIC\MATHLIB\MATH_PFNS.H
C:\SP\SRC\PUBLIC\MINMAX.H
C:\SP\SRC\PUBLIC\MATHLIB\AMD3DX.H
C:\SP\SRC\PUBLIC\TIER0\MEMDBGON.H
C:\SP\SRC\PUBLIC\TIER0\MEMALLOC.H
C:\SP\SRC\PUBLIC\TIER0\MEM.H
C:\SP\SRC\PUBLIC\TIER0\MEMDBGOFF.H
^C:\SP\SRC\MATHLIB\IMAGEQUANT.CPP
C:\SP\SRC\PUBLIC\MATHLIB\QUANTIZE.H
G:\SOFTWARE\VS2013\VC\INCLUDE\STRING.H
G:\SOFTWARE\VS2013\VC\INCLUDE\CRTDEFS.H
G:\SOFTWARE\VS2013\VC\INCLUDE\SAL.H
G:\SOFTWARE\VS2013\VC\INCLUDE\CONCURRENCYSAL.H
G:\SOFTWARE\VS2013\VC\INCLUDE\VADEFS.H
C:\SP\SRC\PUBLIC\TIER0\PLATFORM.H
C:\SP\SRC\PUBLIC\TIER0\WCHARTYPES.H
C:\SP\SRC\PUBLIC\TIER0\VALVE_OFF.H
G:\SOFTWARE\VS2013\VC\INCLUDE\TCHAR.H
G:\SOFTWARE\VS2013\VC\INCLUDE\MBSTRING.H
C:\SP\SRC\PUBLIC\TIER0\VALVE_ON.H
C:\SP\SRC\PUBLIC\TIER0\BASETYPES.H
C:\SP\SRC\PUBLIC\TIER0\COMMONMACROS.H
C:\SP\SRC\PUBLIC\TIER0\PROTECTED_THINGS.H
C:\SP\SRC\PUBLIC\TIER0\XBOX_CODELINE_DEFINES.H
C:\SP\SRC\PUBLIC\TIER0\VALVE_MINMAX_ON.H
G:\SOFTWARE\VS2013\VC\INCLUDE\MALLOC.H
G:\SOFTWARE\VS2013\VC\INCLUDE\NEW
G:\SOFTWARE\VS2013\VC\INCLUDE\EXCEPTION
G:\SOFTWARE\VS2013\VC\INCLUDE\XSTDDEF
G:\SOFTWARE\VS2013\VC\INCLUDE\STDLIB.H
G:\SOFTWARE\VS2013\VC\INCLUDE\LIMITS.H
G:\SOFTWARE\VS2013\VC\INCLUDE\CSTDDEF
G:\SOFTWARE\VS2013\VC\INCLUDE\YVALS.H
G:\SOFTWARE\VS2013\VC\INCLUDE\XKEYCHECK.H
G:\SOFTWARE\VS2013\VC\INCLUDE\USE_ANSI.H
G:\SOFTWARE\VS2013\VC\INCLUDE\STDDEF.H
G:\SOFTWARE\VS2013\VC\INCLUDE\INITIALIZER_LIST
G:\SOFTWARE\VS2013\VC\INCLUDE\XTR1COMMON
G:\SOFTWARE\VS2013\VC\INCLUDE\EH.H
C:\SP\SRC\PUBLIC\TIER0\ANNOTATIONS.H
C:\SP\SRC\PUBLIC\TIER0\FASTTIMER.H
G:\SOFTWARE\VS2013\VC\INCLUDE\INTRIN.H
G:\SOFTWARE\VS2013\VC\INCLUDE\SETJMP.H
G:\SOFTWARE\VS2013\VC\INCLUDE\IMMINTRIN.H
G:\SOFTWARE\VS2013\VC\INCLUDE\WMMINTRIN.H
G:\SOFTWARE\VS2013\VC\INCLUDE\NMMINTRIN.H
G:\SOFTWARE\VS2013\VC\INCLUDE\SMMINTRIN.H
G:\SOFTWARE\VS2013\VC\INCLUDE\TMMINTRIN.H
G:\SOFTWARE\VS2013\VC\INCLUDE\PMMINTRIN.H
G:\SOFTWARE\VS2013\VC\INCLUDE\EMMINTRIN.H
G:\SOFTWARE\VS2013\VC\INCLUDE\XMMINTRIN.H
G:\SOFTWARE\VS2013\VC\INCLUDE\MMINTRIN.H
G:\SOFTWARE\VS2013\VC\INCLUDE\AMMINTRIN.H
G:\SOFTWARE\VS2013\VC\INCLUDE\MM3DNOW.H
G:\SOFTWARE\VS2013\VC\INCLUDE\ASSERT.H
C:\SP\SRC\PUBLIC\MINMAX.H
^C:\SP\SRC\MATHLIB\RANDSSE.CPP
G:\SOFTWARE\VS2013\VC\INCLUDE\MATH.H
G:\SOFTWARE\VS2013\VC\INCLUDE\CRTDEFS.H
G:\SOFTWARE\VS2013\VC\INCLUDE\SAL.H
G:\SOFTWARE\VS2013\VC\INCLUDE\CONCURRENCYSAL.H
G:\SOFTWARE\VS2013\VC\INCLUDE\VADEFS.H
G:\SOFTWARE\VS2013\VC\INCLUDE\FLOAT.H
G:\SOFTWARE\VS2013\VC\INCLUDE\CRTWRN.H
C:\SP\SRC\PUBLIC\TIER0\BASETYPES.H
C:\SP\SRC\PUBLIC\TIER0\COMMONMACROS.H
C:\SP\SRC\PUBLIC\TIER0\PLATFORM.H
C:\SP\SRC\PUBLIC\TIER0\WCHARTYPES.H
C:\SP\SRC\PUBLIC\TIER0\VALVE_OFF.H
G:\SOFTWARE\VS2013\VC\INCLUDE\TCHAR.H
G:\SOFTWARE\VS2013\VC\INCLUDE\STRING.H
G:\SOFTWARE\VS2013\VC\INCLUDE\MBSTRING.H
C:\SP\SRC\PUBLIC\TIER0\VALVE_ON.H
G:\SOFTWARE\VS2013\VC\INCLUDE\MALLOC.H
G:\SOFTWARE\VS2013\VC\INCLUDE\NEW
G:\SOFTWARE\VS2013\VC\INCLUDE\EXCEPTION
G:\SOFTWARE\VS2013\VC\INCLUDE\XSTDDEF
G:\SOFTWARE\VS2013\VC\INCLUDE\STDLIB.H
G:\SOFTWARE\VS2013\VC\INCLUDE\LIMITS.H
G:\SOFTWARE\VS2013\VC\INCLUDE\CSTDDEF
G:\SOFTWARE\VS2013\VC\INCLUDE\YVALS.H
G:\SOFTWARE\VS2013\VC\INCLUDE\XKEYCHECK.H
G:\SOFTWARE\VS2013\VC\INCLUDE\USE_ANSI.H
G:\SOFTWARE\VS2013\VC\INCLUDE\STDDEF.H
G:\SOFTWARE\VS2013\VC\INCLUDE\INITIALIZER_LIST
G:\SOFTWARE\VS2013\VC\INCLUDE\XTR1COMMON
G:\SOFTWARE\VS2013\VC\INCLUDE\EH.H
C:\SP\SRC\PUBLIC\TIER0\VALVE_MINMAX_ON.H
C:\SP\SRC\PUBLIC\TIER0\ANNOTATIONS.H
C:\SP\SRC\PUBLIC\TIER0\FASTTIMER.H
G:\SOFTWARE\VS2013\VC\INCLUDE\INTRIN.H
G:\SOFTWARE\VS2013\VC\INCLUDE\SETJMP.H
G:\SOFTWARE\VS2013\VC\INCLUDE\IMMINTRIN.H
G:\SOFTWARE\VS2013\VC\INCLUDE\WMMINTRIN.H
G:\SOFTWARE\VS2013\VC\INCLUDE\NMMINTRIN.H
G:\SOFTWARE\VS2013\VC\INCLUDE\SMMINTRIN.H
G:\SOFTWARE\VS2013\VC\INCLUDE\TMMINTRIN.H
G:\SOFTWARE\VS2013\VC\INCLUDE\PMMINTRIN.H
G:\SOFTWARE\VS2013\VC\INCLUDE\EMMINTRIN.H
G:\SOFTWARE\VS2013\VC\INCLUDE\XMMINTRIN.H
G:\SOFTWARE\VS2013\VC\INCLUDE\MMINTRIN.H
G:\SOFTWARE\VS2013\VC\INCLUDE\AMMINTRIN.H
G:\SOFTWARE\VS2013\VC\INCLUDE\MM3DNOW.H
G:\SOFTWARE\VS2013\VC\INCLUDE\ASSERT.H
C:\SP\SRC\PUBLIC\TIER0\PROTECTED_THINGS.H
C:\SP\SRC\PUBLIC\TIER0\XBOX_CODELINE_DEFINES.H
G:\SOFTWARE\VS2013\VC\INCLUDE\MEMORY.H
C:\SP\SRC\PUBLIC\TIER0\DBG.H
C:\SP\SRC\PUBLIC\TIER0\DBGFLAG.H
G:\SOFTWARE\VS2013\VC\INCLUDE\STDIO.H
G:\SOFTWARE\VS2013\VC\INCLUDE\SWPRINTF.INL
G:\SOFTWARE\VS2013\VC\INCLUDE\STDARG.H
C:\SP\SRC\PUBLIC\MATHLIB\MATHLIB.H
C:\SP\SRC\PUBLIC\MATHLIB\VECTOR.H
C:\SP\SRC\PUBLIC\TIER0\THREADTOOLS.H
C:\SP\SRC\PUBLIC\TIER0\VCRMODE.H
G:\SOFTWARE\VS2013\VC\INCLUDE\PROCESS.H
C:\SP\SRC\PUBLIC\TIER0\VCR_SHARED.H
C:\SP\SRC\PUBLIC\MATHLIB\VECTOR2D.H
C:\SP\SRC\PUBLIC\MATHLIB\MATH_PFNS.H
C:\SP\SRC\PUBLIC\MINMAX.H
C:\SP\SRC\PUBLIC\MATHLIB\SSEMATH.H
C:\SP\SRC\PUBLIC\TIER0\MEMDBGON.H
C:\SP\SRC\PUBLIC\TIER0\MEMALLOC.H
C:\SP\SRC\PUBLIC\TIER0\MEM.H
C:\SP\SRC\PUBLIC\TIER0\MEMDBGOFF.H
^C:\SP\SRC\MATHLIB\SSENOISE.CPP
G:\SOFTWARE\VS2013\VC\INCLUDE\MATH.H
G:\SOFTWARE\VS2013\VC\INCLUDE\CRTDEFS.H
G:\SOFTWARE\VS2013\VC\INCLUDE\SAL.H
G:\SOFTWARE\VS2013\VC\INCLUDE\CONCURRENCYSAL.H
G:\SOFTWARE\VS2013\VC\INCLUDE\VADEFS.H
G:\SOFTWARE\VS2013\VC\INCLUDE\FLOAT.H
G:\SOFTWARE\VS2013\VC\INCLUDE\CRTWRN.H
C:\SP\SRC\PUBLIC\TIER0\BASETYPES.H
C:\SP\SRC\PUBLIC\TIER0\COMMONMACROS.H
C:\SP\SRC\PUBLIC\TIER0\PLATFORM.H
C:\SP\SRC\PUBLIC\TIER0\WCHARTYPES.H
C:\SP\SRC\PUBLIC\TIER0\VALVE_OFF.H
G:\SOFTWARE\VS2013\VC\INCLUDE\TCHAR.H
G:\SOFTWARE\VS2013\VC\INCLUDE\STRING.H
G:\SOFTWARE\VS2013\VC\INCLUDE\MBSTRING.H
C:\SP\SRC\PUBLIC\TIER0\VALVE_ON.H
G:\SOFTWARE\VS2013\VC\INCLUDE\MALLOC.H
G:\SOFTWARE\VS2013\VC\INCLUDE\NEW
G:\SOFTWARE\VS2013\VC\INCLUDE\EXCEPTION
G:\SOFTWARE\VS2013\VC\INCLUDE\XSTDDEF
G:\SOFTWARE\VS2013\VC\INCLUDE\STDLIB.H
G:\SOFTWARE\VS2013\VC\INCLUDE\LIMITS.H
G:\SOFTWARE\VS2013\VC\INCLUDE\CSTDDEF
G:\SOFTWARE\VS2013\VC\INCLUDE\YVALS.H
G:\SOFTWARE\VS2013\VC\INCLUDE\XKEYCHECK.H
G:\SOFTWARE\VS2013\VC\INCLUDE\USE_ANSI.H
G:\SOFTWARE\VS2013\VC\INCLUDE\STDDEF.H
G:\SOFTWARE\VS2013\VC\INCLUDE\INITIALIZER_LIST
G:\SOFTWARE\VS2013\VC\INCLUDE\XTR1COMMON
G:\SOFTWARE\VS2013\VC\INCLUDE\EH.H
C:\SP\SRC\PUBLIC\TIER0\VALVE_MINMAX_ON.H
C:\SP\SRC\PUBLIC\TIER0\ANNOTATIONS.H
C:\SP\SRC\PUBLIC\TIER0\FASTTIMER.H
G:\SOFTWARE\VS2013\VC\INCLUDE\INTRIN.H
G:\SOFTWARE\VS2013\VC\INCLUDE\SETJMP.H
G:\SOFTWARE\VS2013\VC\INCLUDE\IMMINTRIN.H
G:\SOFTWARE\VS2013\VC\INCLUDE\WMMINTRIN.H
G:\SOFTWARE\VS2013\VC\INCLUDE\NMMINTRIN.H
G:\SOFTWARE\VS2013\VC\INCLUDE\SMMINTRIN.H
G:\SOFTWARE\VS2013\VC\INCLUDE\TMMINTRIN.H
G:\SOFTWARE\VS2013\VC\INCLUDE\PMMINTRIN.H
G:\SOFTWARE\VS2013\VC\INCLUDE\EMMINTRIN.H
G:\SOFTWARE\VS2013\VC\INCLUDE\XMMINTRIN.H
G:\SOFTWARE\VS2013\VC\INCLUDE\MMINTRIN.H
G:\SOFTWARE\VS2013\VC\INCLUDE\AMMINTRIN.H
G:\SOFTWARE\VS2013\VC\INCLUDE\MM3DNOW.H
G:\SOFTWARE\VS2013\VC\INCLUDE\ASSERT.H
C:\SP\SRC\PUBLIC\TIER0\PROTECTED_THINGS.H
C:\SP\SRC\PUBLIC\TIER0\XBOX_CODELINE_DEFINES.H
G:\SOFTWARE\VS2013\VC\INCLUDE\MEMORY.H
C:\SP\SRC\PUBLIC\TIER0\DBG.H
C:\SP\SRC\PUBLIC\TIER0\DBGFLAG.H
G:\SOFTWARE\VS2013\VC\INCLUDE\STDIO.H
G:\SOFTWARE\VS2013\VC\INCLUDE\SWPRINTF.INL
G:\SOFTWARE\VS2013\VC\INCLUDE\STDARG.H
C:\SP\SRC\PUBLIC\MATHLIB\MATHLIB.H
C:\SP\SRC\PUBLIC\MATHLIB\VECTOR.H
C:\SP\SRC\PUBLIC\TIER0\THREADTOOLS.H
C:\SP\SRC\PUBLIC\TIER0\VCRMODE.H
G:\SOFTWARE\VS2013\VC\INCLUDE\PROCESS.H
C:\SP\SRC\PUBLIC\TIER0\VCR_SHARED.H
C:\SP\SRC\PUBLIC\MATHLIB\VECTOR2D.H
C:\SP\SRC\PUBLIC\MATHLIB\MATH_PFNS.H
C:\SP\SRC\PUBLIC\MINMAX.H
C:\SP\SRC\PUBLIC\MATHLIB\SSEMATH.H
C:\SP\SRC\PUBLIC\TIER0\MEMDBGON.H
C:\SP\SRC\PUBLIC\TIER0\MEMALLOC.H
C:\SP\SRC\PUBLIC\TIER0\MEM.H
C:\SP\SRC\PUBLIC\TIER0\MEMDBGOFF.H
C:\SP\SRC\MATHLIB\NOISEDATA.H
^C:\SP\SRC\MATHLIB\BUMPVECTS.CPP
C:\SP\SRC\PUBLIC\MATHLIB\BUMPVECTS.H
C:\SP\SRC\PUBLIC\MATHLIB\MATHLIB.H
G:\SOFTWARE\VS2013\VC\INCLUDE\MATH.H
G:\SOFTWARE\VS2013\VC\INCLUDE\CRTDEFS.H
G:\SOFTWARE\VS2013\VC\INCLUDE\SAL.H
G:\SOFTWARE\VS2013\VC\INCLUDE\CONCURRENCYSAL.H
G:\SOFTWARE\VS2013\VC\INCLUDE\VADEFS.H
C:\SP\SRC\PUBLIC\TIER0\BASETYPES.H
C:\SP\SRC\PUBLIC\TIER0\COMMONMACROS.H
C:\SP\SRC\PUBLIC\TIER0\PLATFORM.H
C:\SP\SRC\PUBLIC\TIER0\WCHARTYPES.H
C:\SP\SRC\PUBLIC\TIER0\VALVE_OFF.H
G:\SOFTWARE\VS2013\VC\INCLUDE\TCHAR.H
G:\SOFTWARE\VS2013\VC\INCLUDE\STRING.H
G:\SOFTWARE\VS2013\VC\INCLUDE\MBSTRING.H
C:\SP\SRC\PUBLIC\TIER0\VALVE_ON.H
G:\SOFTWARE\VS2013\VC\INCLUDE\MALLOC.H
G:\SOFTWARE\VS2013\VC\INCLUDE\NEW
G:\SOFTWARE\VS2013\VC\INCLUDE\EXCEPTION
G:\SOFTWARE\VS2013\VC\INCLUDE\XSTDDEF
G:\SOFTWARE\VS2013\VC\INCLUDE\STDLIB.H
G:\SOFTWARE\VS2013\VC\INCLUDE\LIMITS.H
G:\SOFTWARE\VS2013\VC\INCLUDE\CSTDDEF
G:\SOFTWARE\VS2013\VC\INCLUDE\YVALS.H
G:\SOFTWARE\VS2013\VC\INCLUDE\XKEYCHECK.H
G:\SOFTWARE\VS2013\VC\INCLUDE\USE_ANSI.H
G:\SOFTWARE\VS2013\VC\INCLUDE\STDDEF.H
G:\SOFTWARE\VS2013\VC\INCLUDE\INITIALIZER_LIST
G:\SOFTWARE\VS2013\VC\INCLUDE\XTR1COMMON
G:\SOFTWARE\VS2013\VC\INCLUDE\EH.H
C:\SP\SRC\PUBLIC\TIER0\VALVE_MINMAX_ON.H
C:\SP\SRC\PUBLIC\TIER0\ANNOTATIONS.H
C:\SP\SRC\PUBLIC\TIER0\FASTTIMER.H
G:\SOFTWARE\VS2013\VC\INCLUDE\INTRIN.H
G:\SOFTWARE\VS2013\VC\INCLUDE\SETJMP.H
G:\SOFTWARE\VS2013\VC\INCLUDE\IMMINTRIN.H
G:\SOFTWARE\VS2013\VC\INCLUDE\WMMINTRIN.H
G:\SOFTWARE\VS2013\VC\INCLUDE\NMMINTRIN.H
G:\SOFTWARE\VS2013\VC\INCLUDE\SMMINTRIN.H
G:\SOFTWARE\VS2013\VC\INCLUDE\TMMINTRIN.H
G:\SOFTWARE\VS2013\VC\INCLUDE\PMMINTRIN.H
G:\SOFTWARE\VS2013\VC\INCLUDE\EMMINTRIN.H
G:\SOFTWARE\VS2013\VC\INCLUDE\XMMINTRIN.H
G:\SOFTWARE\VS2013\VC\INCLUDE\MMINTRIN.H
G:\SOFTWARE\VS2013\VC\INCLUDE\AMMINTRIN.H
G:\SOFTWARE\VS2013\VC\INCLUDE\MM3DNOW.H
G:\SOFTWARE\VS2013\VC\INCLUDE\ASSERT.H
C:\SP\SRC\PUBLIC\TIER0\PROTECTED_THINGS.H
C:\SP\SRC\PUBLIC\TIER0\XBOX_CODELINE_DEFINES.H
C:\SP\SRC\PUBLIC\MATHLIB\VECTOR.H
G:\SOFTWARE\VS2013\VC\INCLUDE\FLOAT.H
G:\SOFTWARE\VS2013\VC\INCLUDE\CRTWRN.H
C:\SP\SRC\PUBLIC\TIER0\DBG.H
C:\SP\SRC\PUBLIC\TIER0\DBGFLAG.H
G:\SOFTWARE\VS2013\VC\INCLUDE\STDIO.H
G:\SOFTWARE\VS2013\VC\INCLUDE\SWPRINTF.INL
G:\SOFTWARE\VS2013\VC\INCLUDE\STDARG.H
C:\SP\SRC\PUBLIC\TIER0\THREADTOOLS.H
C:\SP\SRC\PUBLIC\TIER0\VCRMODE.H
G:\SOFTWARE\VS2013\VC\INCLUDE\PROCESS.H
C:\SP\SRC\PUBLIC\TIER0\VCR_SHARED.H
C:\SP\SRC\PUBLIC\MATHLIB\VECTOR2D.H
C:\SP\SRC\PUBLIC\MATHLIB\MATH_PFNS.H
C:\SP\SRC\PUBLIC\MINMAX.H
C:\SP\SRC\PUBLIC\TIER0\MEMDBGON.H
C:\SP\SRC\PUBLIC\TIER0\MEMALLOC.H
C:\SP\SRC\PUBLIC\TIER0\MEM.H
C:\SP\SRC\PUBLIC\TIER0\MEMDBGOFF.H
^C:\SP\SRC\MATHLIB\POLYHEDRON.CPP
C:\SP\SRC\PUBLIC\MATHLIB\POLYHEDRON.H
C:\SP\SRC\PUBLIC\MATHLIB\MATHLIB.H
G:\SOFTWARE\VS2013\VC\INCLUDE\MATH.H
G:\SOFTWARE\VS2013\VC\INCLUDE\CRTDEFS.H
G:\SOFTWARE\VS2013\VC\INCLUDE\SAL.H
G:\SOFTWARE\VS2013\VC\INCLUDE\CONCURRENCYSAL.H
G:\SOFTWARE\VS2013\VC\INCLUDE\VADEFS.H
C:\SP\SRC\PUBLIC\TIER0\BASETYPES.H
C:\SP\SRC\PUBLIC\TIER0\COMMONMACROS.H
C:\SP\SRC\PUBLIC\TIER0\PLATFORM.H
C:\SP\SRC\PUBLIC\TIER0\WCHARTYPES.H
C:\SP\SRC\PUBLIC\TIER0\VALVE_OFF.H
G:\SOFTWARE\VS2013\VC\INCLUDE\TCHAR.H
G:\SOFTWARE\VS2013\VC\INCLUDE\STRING.H
G:\SOFTWARE\VS2013\VC\INCLUDE\MBSTRING.H
C:\SP\SRC\PUBLIC\TIER0\VALVE_ON.H
G:\SOFTWARE\VS2013\VC\INCLUDE\MALLOC.H
G:\SOFTWARE\VS2013\VC\INCLUDE\NEW
G:\SOFTWARE\VS2013\VC\INCLUDE\EXCEPTION
G:\SOFTWARE\VS2013\VC\INCLUDE\XSTDDEF
G:\SOFTWARE\VS2013\VC\INCLUDE\STDLIB.H
G:\SOFTWARE\VS2013\VC\INCLUDE\LIMITS.H
G:\SOFTWARE\VS2013\VC\INCLUDE\CSTDDEF
G:\SOFTWARE\VS2013\VC\INCLUDE\YVALS.H
G:\SOFTWARE\VS2013\VC\INCLUDE\XKEYCHECK.H
G:\SOFTWARE\VS2013\VC\INCLUDE\USE_ANSI.H
G:\SOFTWARE\VS2013\VC\INCLUDE\STDDEF.H
G:\SOFTWARE\VS2013\VC\INCLUDE\INITIALIZER_LIST
G:\SOFTWARE\VS2013\VC\INCLUDE\XTR1COMMON
G:\SOFTWARE\VS2013\VC\INCLUDE\EH.H
C:\SP\SRC\PUBLIC\TIER0\VALVE_MINMAX_ON.H
C:\SP\SRC\PUBLIC\TIER0\ANNOTATIONS.H
C:\SP\SRC\PUBLIC\TIER0\FASTTIMER.H
G:\SOFTWARE\VS2013\VC\INCLUDE\INTRIN.H
G:\SOFTWARE\VS2013\VC\INCLUDE\SETJMP.H
G:\SOFTWARE\VS2013\VC\INCLUDE\IMMINTRIN.H
G:\SOFTWARE\VS2013\VC\INCLUDE\WMMINTRIN.H
G:\SOFTWARE\VS2013\VC\INCLUDE\NMMINTRIN.H
G:\SOFTWARE\VS2013\VC\INCLUDE\SMMINTRIN.H
G:\SOFTWARE\VS2013\VC\INCLUDE\TMMINTRIN.H
G:\SOFTWARE\VS2013\VC\INCLUDE\PMMINTRIN.H
G:\SOFTWARE\VS2013\VC\INCLUDE\EMMINTRIN.H
G:\SOFTWARE\VS2013\VC\INCLUDE\XMMINTRIN.H
G:\SOFTWARE\VS2013\VC\INCLUDE\MMINTRIN.H
G:\SOFTWARE\VS2013\VC\INCLUDE\AMMINTRIN.H
G:\SOFTWARE\VS2013\VC\INCLUDE\MM3DNOW.H
G:\SOFTWARE\VS2013\VC\INCLUDE\ASSERT.H
C:\SP\SRC\PUBLIC\TIER0\PROTECTED_THINGS.H
C:\SP\SRC\PUBLIC\TIER0\XBOX_CODELINE_DEFINES.H
C:\SP\SRC\PUBLIC\MATHLIB\VECTOR.H
G:\SOFTWARE\VS2013\VC\INCLUDE\FLOAT.H
G:\SOFTWARE\VS2013\VC\INCLUDE\CRTWRN.H
C:\SP\SRC\PUBLIC\TIER0\DBG.H
C:\SP\SRC\PUBLIC\TIER0\DBGFLAG.H
G:\SOFTWARE\VS2013\VC\INCLUDE\STDIO.H
G:\SOFTWARE\VS2013\VC\INCLUDE\SWPRINTF.INL
G:\SOFTWARE\VS2013\VC\INCLUDE\STDARG.H
C:\SP\SRC\PUBLIC\TIER0\THREADTOOLS.H
C:\SP\SRC\PUBLIC\TIER0\VCRMODE.H
G:\SOFTWARE\VS2013\VC\INCLUDE\PROCESS.H
C:\SP\SRC\PUBLIC\TIER0\VCR_SHARED.H
C:\SP\SRC\PUBLIC\MATHLIB\VECTOR2D.H
C:\SP\SRC\PUBLIC\MATHLIB\MATH_PFNS.H
C:\SP\SRC\PUBLIC\MINMAX.H
C:\SP\SRC\PUBLIC\MATHLIB\VMATRIX.H
C:\SP\SRC\PUBLIC\MATHLIB\VPLANE.H
C:\SP\SRC\PUBLIC\MATHLIB\VECTOR4D.H
C:\SP\SRC\PUBLIC\TIER1\UTLVECTOR.H
C:\SP\SRC\PUBLIC\TIER1\UTLMEMORY.H
C:\SP\SRC\PUBLIC\TIER0\MEMALLOC.H
C:\SP\SRC\PUBLIC\TIER0\MEM.H
C:\SP\SRC\PUBLIC\TIER0\MEMDBGON.H
C:\SP\SRC\PUBLIC\TIER0\MEMDBGOFF.H
C:\SP\SRC\PUBLIC\TIER1\UTLBLOCKMEMORY.H
C:\SP\SRC\PUBLIC\TIER1\STRTOOLS.H
G:\SOFTWARE\VS2013\VC\INCLUDE\CTYPE.H
^C:\SP\SRC\MATHLIB\SPARSE_CONVOLUTION_NOISE.CPP
G:\SOFTWARE\VS2013\VC\INCLUDE\MATH.H
G:\SOFTWARE\VS2013\VC\INCLUDE\CRTDEFS.H
G:\SOFTWARE\VS2013\VC\INCLUDE\SAL.H
G:\SOFTWARE\VS2013\VC\INCLUDE\CONCURRENCYSAL.H
G:\SOFTWARE\VS2013\VC\INCLUDE\VADEFS.H
C:\SP\SRC\PUBLIC\TIER0\BASETYPES.H
C:\SP\SRC\PUBLIC\TIER0\COMMONMACROS.H
C:\SP\SRC\PUBLIC\TIER0\PLATFORM.H
C:\SP\SRC\PUBLIC\TIER0\WCHARTYPES.H
C:\SP\SRC\PUBLIC\TIER0\VALVE_OFF.H
G:\SOFTWARE\VS2013\VC\INCLUDE\TCHAR.H
G:\SOFTWARE\VS2013\VC\INCLUDE\STRING.H
G:\SOFTWARE\VS2013\VC\INCLUDE\MBSTRING.H
C:\SP\SRC\PUBLIC\TIER0\VALVE_ON.H
G:\SOFTWARE\VS2013\VC\INCLUDE\MALLOC.H
G:\SOFTWARE\VS2013\VC\INCLUDE\NEW
G:\SOFTWARE\VS2013\VC\INCLUDE\EXCEPTION
G:\SOFTWARE\VS2013\VC\INCLUDE\XSTDDEF
G:\SOFTWARE\VS2013\VC\INCLUDE\STDLIB.H
G:\SOFTWARE\VS2013\VC\INCLUDE\LIMITS.H
G:\SOFTWARE\VS2013\VC\INCLUDE\CSTDDEF
G:\SOFTWARE\VS2013\VC\INCLUDE\YVALS.H
G:\SOFTWARE\VS2013\VC\INCLUDE\XKEYCHECK.H
G:\SOFTWARE\VS2013\VC\INCLUDE\USE_ANSI.H
G:\SOFTWARE\VS2013\VC\INCLUDE\STDDEF.H
G:\SOFTWARE\VS2013\VC\INCLUDE\INITIALIZER_LIST
G:\SOFTWARE\VS2013\VC\INCLUDE\XTR1COMMON
G:\SOFTWARE\VS2013\VC\INCLUDE\EH.H
C:\SP\SRC\PUBLIC\TIER0\VALVE_MINMAX_ON.H
C:\SP\SRC\PUBLIC\TIER0\ANNOTATIONS.H
C:\SP\SRC\PUBLIC\TIER0\FASTTIMER.H
G:\SOFTWARE\VS2013\VC\INCLUDE\INTRIN.H
G:\SOFTWARE\VS2013\VC\INCLUDE\SETJMP.H
G:\SOFTWARE\VS2013\VC\INCLUDE\IMMINTRIN.H
G:\SOFTWARE\VS2013\VC\INCLUDE\WMMINTRIN.H
G:\SOFTWARE\VS2013\VC\INCLUDE\NMMINTRIN.H
G:\SOFTWARE\VS2013\VC\INCLUDE\SMMINTRIN.H
G:\SOFTWARE\VS2013\VC\INCLUDE\TMMINTRIN.H
G:\SOFTWARE\VS2013\VC\INCLUDE\PMMINTRIN.H
G:\SOFTWARE\VS2013\VC\INCLUDE\EMMINTRIN.H
G:\SOFTWARE\VS2013\VC\INCLUDE\XMMINTRIN.H
G:\SOFTWARE\VS2013\VC\INCLUDE\MMINTRIN.H
G:\SOFTWARE\VS2013\VC\INCLUDE\AMMINTRIN.H
G:\SOFTWARE\VS2013\VC\INCLUDE\MM3DNOW.H
G:\SOFTWARE\VS2013\VC\INCLUDE\ASSERT.H
C:\SP\SRC\PUBLIC\TIER0\PROTECTED_THINGS.H
C:\SP\SRC\PUBLIC\TIER0\XBOX_CODELINE_DEFINES.H
G:\SOFTWARE\VS2013\VC\INCLUDE\MEMORY.H
C:\SP\SRC\PUBLIC\TIER0\DBG.H
C:\SP\SRC\PUBLIC\TIER0\DBGFLAG.H
G:\SOFTWARE\VS2013\VC\INCLUDE\STDIO.H
G:\SOFTWARE\VS2013\VC\INCLUDE\SWPRINTF.INL
G:\SOFTWARE\VS2013\VC\INCLUDE\STDARG.H
C:\SP\SRC\PUBLIC\MATHLIB\MATHLIB.H
C:\SP\SRC\PUBLIC\MATHLIB\VECTOR.H
G:\SOFTWARE\VS2013\VC\INCLUDE\FLOAT.H
G:\SOFTWARE\VS2013\VC\INCLUDE\CRTWRN.H
C:\SP\SRC\PUBLIC\TIER0\THREADTOOLS.H
C:\SP\SRC\PUBLIC\TIER0\VCRMODE.H
G:\SOFTWARE\VS2013\VC\INCLUDE\PROCESS.H
C:\SP\SRC\PUBLIC\TIER0\VCR_SHARED.H
C:\SP\SRC\PUBLIC\MATHLIB\VECTOR2D.H
C:\SP\SRC\PUBLIC\MATHLIB\MATH_PFNS.H
C:\SP\SRC\PUBLIC\MINMAX.H
C:\SP\SRC\PUBLIC\MATHLIB\NOISE.H
C:\SP\SRC\PUBLIC\TIER0\MEMDBGON.H
C:\SP\SRC\PUBLIC\TIER0\MEMALLOC.H
C:\SP\SRC\PUBLIC\TIER0\MEM.H
C:\SP\SRC\PUBLIC\TIER0\MEMDBGOFF.H
C:\SP\SRC\MATHLIB\NOISEDATA.H
