^C:\SP\SRC\RAYTRACE\RELEASE\RAYTRACE.OBJ|C:\SP\SRC\RAYTRACE\RELEASE\TRACE2.OBJ|C:\SP\SRC\RAYTRACE\RELEASE\TRACE3.OBJ
C:\WINDOWS\SYSTEM32\TZRES.DLL
C:\SP\SRC\RAYTRACE\RELEASE\RAYTRACE.OBJ
C:\SP\SRC\RAYTRACE\RELEASE\TRACE2.OBJ
C:\SP\SRC\RAYTRACE\RELEASE\TRACE3.OBJ
C:\WINDOWS\GLOBALIZATION\SORTING\SORTDEFAULT.NLS
