"LightmappedGeneric"
{
	"$basetexture" "RealWorldTextures2\Metal\floor\metal_147"
	"$bumpmap" "RealWorldTextures2\Metal\floor\metal_147_nrm"
	"$surfaceprop" "metal"
} //Realworld Textures Version 2 - Made by TopHATTwaffle - Please credit me if used! - Contact: www.tophattwaffle.com
