"LightmappedGeneric"
{
	"$basetexture" "RealWorldTextures2\Metal\floor\metal_83"
	"$bumpmap" "RealWorldTextures2\Metal\floor\metal_83_84_90_94_nrm"
	"$surfaceprop" "metal"
} //Realworld Textures Version 2 - Made by TopHATTwaffle - Please credit me if used! - Contact: www.tophattwaffle.com
