"LightmappedGeneric"
{
	"$basetexture" "RealWorldTextures2\Metal\floor\metal_93"
	"$bumpmap" "RealWorldTextures2\Metal\floor\metal_81_87_89_93_nrm"
	"$surfaceprop" "metal"
} //Realworld Textures Version 2 - Made by TopHATTwaffle - Please credit me if used! - Contact: www.tophattwaffle.com
