^C:\SP\SRC\LIB\PUBLIC\BITMAP.LIB|C:\SP\SRC\LIB\PUBLIC\MATHLIB.LIB|C:\SP\SRC\LIB\PUBLIC\TIER0.LIB|C:\SP\SRC\LIB\PUBLIC\TIER1.LIB|C:\SP\SRC\LIB\PUBLIC\TIER2.LIB|C:\SP\SRC\LIB\PUBLIC\VSTDLIB.LIB|C:\SP\SRC\UTILS\HEIGHT2NORMAL\RELEASE\HEIGHT2NORMAL.OBJ|C:\SP\SRC\UTILS\HEIGHT2NORMAL\RELEASE\POINTEROVERRIDE.OBJ
C:\PROGRAM FILES (X86)\MICROSOFT SDKS\WINDOWS\V7.1A\LIB\SHELL32.LIB
C:\PROGRAM FILES (X86)\MICROSOFT SDKS\WINDOWS\V7.1A\LIB\USER32.LIB
C:\PROGRAM FILES (X86)\MICROSOFT SDKS\WINDOWS\V7.1A\LIB\ADVAPI32.LIB
C:\PROGRAM FILES (X86)\MICROSOFT SDKS\WINDOWS\V7.1A\LIB\GDI32.LIB
C:\PROGRAM FILES (X86)\MICROSOFT SDKS\WINDOWS\V7.1A\LIB\COMDLG32.LIB
C:\PROGRAM FILES (X86)\MICROSOFT SDKS\WINDOWS\V7.1A\LIB\OLE32.LIB
C:\SP\SRC\UTILS\HEIGHT2NORMAL\RELEASE\POINTEROVERRIDE.OBJ
C:\SP\SRC\UTILS\HEIGHT2NORMAL\RELEASE\HEIGHT2NORMAL.OBJ
C:\SP\SRC\LIB\PUBLIC\BITMAP.LIB
C:\SP\SRC\LIB\PUBLIC\MATHLIB.LIB
C:\SP\SRC\LIB\PUBLIC\TIER0.LIB
C:\SP\SRC\LIB\PUBLIC\TIER1.LIB
C:\SP\SRC\LIB\PUBLIC\TIER2.LIB
C:\SP\SRC\LIB\PUBLIC\VSTDLIB.LIB
C:\WINDOWS\GLOBALIZATION\SORTING\SORTDEFAULT.NLS
G:\SOFTWARE\VS2013\VC\LIB\LIBCPMT.LIB
G:\SOFTWARE\VS2013\VC\LIB\LIBCMT.LIB
G:\SOFTWARE\VS2013\VC\LIB\OLDNAMES.LIB
C:\PROGRAM FILES (X86)\MICROSOFT SDKS\WINDOWS\V7.1A\LIB\UUID.LIB
C:\PROGRAM FILES (X86)\MICROSOFT SDKS\WINDOWS\V7.1A\LIB\KERNEL32.LIB
C:\WINDOWS\SYSTEM32\TZRES.DLL
G:\SOFTWARE\VS2013\VC\BIN\1033\LINKUI.DLL
C:\PROGRAM FILES (X86)\MICROSOFT SDKS\WINDOWS\V7.1A\BIN\RC.EXE
G:\SOFTWARE\VS2013\VC\BIN\CVTRES.EXE
