"LightmappedGeneric"
{
	"$basetexture" "RealWorldTextures2\Misc\fence_03"
	"$bumpmap" "RealWorldTextures2\Misc\fence_01_02_03_nrm"
	"$envmapmask" "RealWorldTextures2\Misc\fence_01_02_03_SPEC"
	"$translucent" 1
	"$surfaceprop" "metal"
	"$envmap" "env_cubemap"
	"$envmaptint" "[.8 .8 .8]"
} //Realworld Textures Version 2 - Made by TopHATTwaffle - Please credit me if used! - Contact: www.tophattwaffle.com
