"LightmappedGeneric"
{
	"$basetexture" "RealWorldTextures2\Misc\leather_02"
	"$surfaceprop" "carpet"
} //Realworld Textures Version 2 - Made by TopHATTwaffle - Please credit me if used! - Contact: www.tophattwaffle.com
