"LightmappedGeneric"
{
	"$basetexture" "RealWorldTextures2\Misc\Mineral_03"
	"$bumpmap" "RealWorldTextures2\Misc\Mineral_03_nrm"
	"$surfaceprop" "rock"
	"$envmap" "env_cubemap"
	"$envmaptint" "[.3 .3 .3]"
	"$detail" "RealWorldTextures2\detail\noise_detail_01"
	"$detailblendfactor" ".3"
	"$detailscale" "4"
} //Realworld Textures Version 2 - Made by TopHATTwaffle - Please credit me if used! - Contact: www.tophattwaffle.com
