"LightmappedGeneric"
{
	"$basetexture" "RealWorldTextures2\Misc\tech_07"
	"$reflectivity" "[0 1 0]"
} //Realworld Textures Version 2 - Made by TopHATTwaffle - Please credit me if used! - Contact: www.tophattwaffle.com
