"LightmappedGeneric"
{
	"$basetexture" "RealWorldTextures2\wood\blinds\blinds_06"
	"$translucent" 1
	"$surfaceprop" "wood"
	"$detail" "RealWorldTextures2\detail\dt_wood2"
	"$detailblendfactor" ".6"
	"$detailscale" "7"
} //Realworld Textures Version 2 - Made by TopHATTwaffle - Please credit me if used! - Contact: www.tophattwaffle.com
