^C:\MP\SRC\PUBLIC\TIER0\POINTEROVERRIDE.ASM
C:\MP\SRC\MATERIALSYSTEM\STDSHADERS\RELEASE_DX9_MOD_HL2MP\POINTEROVERRIDE.OBJ
^C:\MP\SRC\MATERIALSYSTEM\STDSHADERS\GAME_SHADER_DX9_HL2MP.VPC
C:\MP\SRC\MATERIALSYSTEM\STDSHADERS\GAME_SHADER_DX9_HL2MP.VPC.SENTINEL
