^C:\mp\src\materialsystem\stdshaders\game_shader_dx9_hl2mp.vcxproj
C:\mp\src\materialsystem\stdshaders\Release_dx9_mod_hl2mp\game_shader_dx9.lib
C:\mp\src\materialsystem\stdshaders\Release_dx9_mod_hl2mp\game_shader_dx9.exp
