"UnLitGeneric"
{
	"$basetexture"		"models/aileen/pyro_new/eyes/fall2013_the_special_eyes_color"
	"$lightwarptexture"		"models/player/pyro/pyro_lightwarp"
	"$phong"		"1"
	"$phongexponent"		"10000.000000"
	"$phongboost"		"0.000000"
	"$phongfresnelranges"		"[.25 .5 1]"
	"$rimlight"		"1"
	"$rimlightexponent"		"10000.000000"
	"$rimlightboost"		"0.000000"
	"$blendtintbybasealpha"		"0"
	"$blendtintcoloroverbase"		"0.000000"
	"$colortint_base"		"{ 0 255 0 }"
	"$color2"		"{ 0 255 0 }"
	"$colortint_tmp"		"[0 0 0]"
	"$bumpmapalphaphongmask"		"1"
	"$cloakPassEnabled"		"1"
	//"$detail"		"effects/tiledfire/fireLayeredSlowTiled512"
	//"$detailscale"		"5"
	//"$detailblendfactor"		"0"
	//"$detailblendmode"		"6"
	"$yellow"		"0"
	//">=DX90"
	//{
	//	"$selfillum"		"1"
	//}
	"$selfillumtint"		"[1 1 1]"
	"Proxies"
	{
		"invis"
		{
		}
		"AnimatedTexture"
		{
			"animatedtexturevar" "$detail"
			"animatedtextureframenumvar" "$detailframe"
			"animatedtextureframerate" 30
		}
		"BurnLevel"
		{
			"resultVar" "$detailblendfactor"
		}
		"ItemTintColor"
		{
			"resultVar" "$colortint_tmp"
		}
		"SelectFirstIfNonZero"
		{
			"srcVar1"	"$colortint_tmp"
			"srcVar2"	"$colortint_base"
			"resultVar" "$color2"
		}
		"YellowLevel"
		{
			"resultVar" "$yellow"
		}
		"Multiply"
		{
			"srcVar1" "$color2"
			"srcVar2" "$yellow"
			"resultVar" "$color2"
		}
	}
}