^C:\MP\SRC\PUBLIC\TIER0\POINTEROVERRIDE.ASM
C:\MP\SRC\UTILS\PHONEMEEXTRACTOR\RELEASE\POINTEROVERRIDE.OBJ
^C:\MP\SRC\UTILS\PHONEMEEXTRACTOR\PHONEMEEXTRACTOR.VPC
C:\MP\SRC\UTILS\PHONEMEEXTRACTOR\PHONEMEEXTRACTOR.VPC.SENTINEL
