^C:\MP\SRC\PUBLIC\TIER0\POINTEROVERRIDE.ASM
"G:\Software\VS2013\VC\bin\ml.exe" /safeseh /c /Cp /Zi /Fo".\Release\.\\pointeroverride.obj" "C:\mp\src\public\tier0\pointeroverride.asm"
^C:\MP\SRC\UTILS\PHONEMEEXTRACTOR\PHONEMEEXTRACTOR.VPC
if exist "..\..\devtools\bin\vpc.exe" "..\..\devtools\bin\vpc.exe" -crc2 "phonemeextractor.vcxproj"if ERRORLEVEL 1 exit /b 1echo crc_complete > C:\mp\src\utils\phonemeextractor\phonemeextractor.vpc.sentinel
