"LightmappedGeneric"
{
	"$basetexture" "RealWorldTextures2\Metal\cast_iron_01"
	"$bumpmap" "RealWorldTextures2\Metal\cast_iron_01_nrm"
	"$bumpscale" ".7"
	"$surfaceprop" "metal"
} //Realworld Textures Version 2 - Made by TopHATTwaffle - Please credit me if used! - Contact: www.tophattwaffle.com
