"LightmappedGeneric"
{
	"$basetexture" "RealWorldTextures2\Metal\metal_197"
	"$surfaceprop" "metal"
} //Realworld Textures Version 2 - Made by TopHATTwaffle - Please credit me if used! - Contact: www.tophattwaffle.com
