"LightmappedGeneric"
{
	"$basetexture" "RealWorldTextures2\Metal\metal_120"
	"$bumpmap" "RealWorldTextures2\Metal\metal_120_nrm"
	"$envmapmask" "RealWorldTextures2\Metal\metal_120_spec"
	"$detail" "RealWorldTextures2\detail\noise_detail_01"
	"$detailblendfactor" ".6"
	"$detailscale" "4"
	"$surfaceprop" "metal"
	"$envmap" "env_cubemap"
} //Realworld Textures Version 2 - Made by TopHATTwaffle - Please credit me if used! - Contact: www.tophattwaffle.com
