"LightmappedGeneric"
{
	"$basetexture" "RealWorldTextures2\Metal\metal_99"
	"$bumpmap" "RealWorldTextures2\Metal\metal_99_nrm"
	"$envmapmask" "RealWorldTextures2\Metal\metal_99_spec"
	"$surfaceprop" "metal"
	"$envmap" "env_cubemap"
} //Realworld Textures Version 2 - Made by TopHATTwaffle - Please credit me if used! - Contact: www.tophattwaffle.com
