"LightmappedGeneric"
{
	"$basetexture" "RealWorldTextures2\Wall\wallpaper_08"
	"$surfaceprop" "plaster"
	"$detail" "RealWorldTextures2\detail\dt_smooth1"
	"$detailblendfactor" ".5"
	"$detailscale" "5"
} //Realworld Textures Version 2 - Made by TopHATTwaffle - Please credit me if used! - Contact: www.tophattwaffle.com
