^C:\SP\SRC\UTILS\VVIS_LAUNCHER\STDAFX.CPP
C:\SP\SRC\UTILS\VVIS_LAUNCHER\DEBUG\VVIS_LAUNCHER.PCH
C:\SP\SRC\UTILS\VVIS_LAUNCHER\RELEASE\VC120.PDB
C:\SP\SRC\UTILS\VVIS_LAUNCHER\RELEASE\STDAFX.OBJ
^C:\SP\SRC\PUBLIC\TIER0\MEMOVERRIDE.CPP
C:\SP\SRC\UTILS\VVIS_LAUNCHER\RELEASE\VC120.PDB
C:\SP\SRC\UTILS\VVIS_LAUNCHER\RELEASE\MEMOVERRIDE.OBJ
^C:\SP\SRC\UTILS\VVIS_LAUNCHER\VVIS_LAUNCHER.CPP
C:\SP\SRC\UTILS\VVIS_LAUNCHER\RELEASE\VC120.PDB
C:\SP\SRC\UTILS\VVIS_LAUNCHER\RELEASE\VVIS_LAUNCHER.OBJ
