"VertexlitGeneric"
{
"$baseTexture" "models/aileen/pyro_new/witchhat/witchhat_eye"
"$yellow" "0"
"$colortint_base" "{0 255 0}"
"$color2" "{0 255 0}"
">=DX90"
 {
  "$selfillum" "1"
 }
"$selfillum" "1"
"$selfillumtint" "[0 3 0]"
"$phong" "1"
"$phongexponent" ".1"
"$phongboost" "1"
"$phongfresnelranges""[0.01 1 3]"

"$lightwarptexture" "models/player/pyro/pyro_lightwarp"

"$rimlight" "1"
"$rimlightexponent" ".014"
"$rimlightboost" "2"
// Cloaking
"$cloakPassEnabled" "1"

	"Proxies"
	{
		"Sine"
		{
			"sinemax" "1"
			"sinemin" ".25"
			"sineperiod" "2"
			"resultvar" "$selfillumtint"
  		}
		"invis"
		{
		}
		"AnimatedTexture"
		{
			"animatedtexturevar" "$detail"
			"animatedtextureframenumvar" "$detailframe"
			"animatedtextureframerate" 30
		}
		"BurnLevel"
		{
			"resultVar" "$detailblendfactor"
		}
		"YellowLevel"
		{
			"resultVar" "$yellow"
		}
		"Equals"
		{
			"srcVar1" "$yellow"
			"resultVar" "$color2"
		}
	}
}