"LightmappedGeneric"
{
	"$basetexture" "RealWorldTextures2\Concrete\concrete_57"
	"$bumpmap" "RealWorldTextures2\Concrete\concrete_57_nrm"
	"$detail" "RealWorldTextures2\detail\detailconcrete001a"
	"$surfaceprop" "concrete"
	"$detailblendfactor" ".4"
	"$envmap" "env_cubemap"
	"$envmaptint" "[.4 .4 .4]"
} //Realworld Textures Version 2 - Made by TopHATTwaffle - Please credit me if used! - Contact: www.tophattwaffle.com
