"LightmappedGeneric"
{
	"$basetexture" "RealWorldTextures2\rock\rock_18"
	"$bumpmap" "RealWorldTextures2\rock\rock_18_nrm"
	"$surfaceprop" "rock"
	"$detail" "RealWorldTextures2\detail\dt_stone3"
	"$detailblendfactor" ".7"
	"$detailscale" "8"
} //Realworld Textures Version 2 - Made by TopHATTwaffle - Please credit me if used! - Contact: www.tophattwaffle.com
