"LightmappedGeneric"
{
	"$basetexture" "RealWorldTextures2\marble\inserts\marble_07"
	"$bumpmap" "RealWorldTextures2\marble\inserts\marble_07_nrm"
	"$surfaceprop" "rock"
	"$envmap" "env_cubemap"
	"$envmaptint" "[.8 .8 .8]"
} //Realworld Textures Version 2 - Made by TopHATTwaffle - Please credit me if used! - Contact: www.tophattwaffle.com
