^C:\MP\SRC\LIB\PUBLIC\BITMAP.LIB|C:\MP\SRC\LIB\PUBLIC\MATHLIB.LIB|C:\MP\SRC\LIB\PUBLIC\TIER0.LIB|C:\MP\SRC\LIB\PUBLIC\TIER1.LIB|C:\MP\SRC\LIB\PUBLIC\TIER2.LIB|C:\MP\SRC\LIB\PUBLIC\VSTDLIB.LIB|C:\MP\SRC\LIB\PUBLIC\VTF.LIB|C:\MP\SRC\UTILS\VTFDIFF\RELEASE\MEMOVERRIDE.OBJ|C:\MP\SRC\UTILS\VTFDIFF\RELEASE\POINTEROVERRIDE.OBJ|C:\MP\SRC\UTILS\VTFDIFF\RELEASE\VTFDIFF.OBJ
C:\MP\SRC\UTILS\VTFDIFF\RELEASE\VTFDIFF.EXE
C:\MP\SRC\UTILS\VTFDIFF\RELEASE\VTFDIFF.PDB
