"LightmappedGeneric"
{
	"$basetexture" "RealWorldTextures2\rock\rock_44"
	"$bumpmap" "RealWorldTextures2\rock\rock_44_nrm"
	"$surfaceprop" "rock"
	"$detail" "RealWorldTextures2\detail\rock_detail_01"
	"$detailblendfactor" ".7"
	"$detailscale" "2"
} //Realworld Textures Version 2 - Made by TopHATTwaffle - Please credit me if used! - Contact: www.tophattwaffle.com
