"LightmappedGeneric"
{
	"$basetexture" "RealWorldTextures2\rock\rock_13"
	"$bumpmap" "RealWorldTextures2\rock\rock_13_nrm"
	"$surfaceprop" "rock"
	"$detail" "RealWorldTextures2\detail\detailconcrete001a"
	"$detailblendfactor" ".9"
	"$detailscale" "2"
} //Realworld Textures Version 2 - Made by TopHATTwaffle - Please credit me if used! - Contact: www.tophattwaffle.com
