^C:\MP\SRC\LIB\COMMON\LZMA.LIB|C:\MP\SRC\LIB\PUBLIC\BITMAP.LIB|C:\MP\SRC\LIB\PUBLIC\MATHLIB.LIB|C:\MP\SRC\LIB\PUBLIC\RAYTRACE.LIB|C:\MP\SRC\LIB\PUBLIC\TIER0.LIB|C:\MP\SRC\LIB\PUBLIC\TIER1.LIB|C:\MP\SRC\LIB\PUBLIC\TIER2.LIB|C:\MP\SRC\LIB\PUBLIC\VMPI.LIB|C:\MP\SRC\LIB\PUBLIC\VSTDLIB.LIB|C:\MP\SRC\LIB\PUBLIC\VTF.LIB|C:\MP\SRC\UTILS\VRAD\RELEASE\BSPLIB.OBJ|C:\MP\SRC\UTILS\VRAD\RELEASE\BSPTREEDATA.OBJ|C:\MP\SRC\UTILS\VRAD\RELEASE\BUILDDISP.OBJ|C:\MP\SRC\UTILS\VRAD\RELEASE\CHUNKFILE.OBJ|C:\MP\SRC\UTILS\VRAD\RELEASE\CMDLIB.OBJ|C:\MP\SRC\UTILS\VRAD\RELEASE\COLLISIONUTILS.OBJ|C:\MP\SRC\UTILS\VRAD\RELEASE\DISPCOLL_COMMON.OBJ|C:\MP\SRC\UTILS\VRAD\RELEASE\DISP_COMMON.OBJ|C:\MP\SRC\UTILS\VRAD\RELEASE\DISP_POWERINFO.OBJ|C:\MP\SRC\UTILS\VRAD\RELEASE\DISP_VRAD.OBJ|C:\MP\SRC\UTILS\VRAD\RELEASE\FILESYSTEM_HELPERS.OBJ|C:\MP\SRC\UTILS\VRAD\RELEASE\IMAGEPACKER.OBJ|C:\MP\SRC\UTILS\VRAD\RELEASE\INCREMENTAL.OBJ|C:\MP\SRC\UTILS\VRAD\RELEASE\LEAF_AMBIENT_LIGHTING.OBJ|C:\MP\SRC\UTILS\VRAD\RELEASE\LIGHTMAP.OBJ|C:\MP\SRC\UTILS\VRAD\RELEASE\LOADCMDLINE.OBJ|C:\MP\SRC\UTILS\VRAD\RELEASE\LUMPFILES.OBJ|C:\MP\SRC\UTILS\VRAD\RELEASE\MACRO_TEXTURE.OBJ|C:\MP\SRC\UTILS\VRAD\RELEASE\MAP_SHARED.OBJ|C:\MP\SRC\UTILS\VRAD\RELEASE\MEMOVERRIDE.OBJ|C:\MP\SRC\UTILS\VRAD\RELEASE\MPIVRAD.OBJ|C:\MP\SRC\UTILS\VRAD\RELEASE\MPI_STATS.OBJ|C:\MP\SRC\UTILS\VRAD\RELEASE\MYSQLDATABASE.OBJ|C:\MP\SRC\UTILS\VRAD\RELEASE\PACIFIER.OBJ|C:\MP\SRC\UTILS\VRAD\RELEASE\PHYSDLL.OBJ|C:\MP\SRC\UTILS\VRAD\RELEASE\POINTEROVERRIDE.OBJ|C:\MP\SRC\UTILS\VRAD\RELEASE\POLYLIB.OBJ|C:\MP\SRC\UTILS\VRAD\RELEASE\RADIAL.OBJ|C:\MP\SRC\UTILS\VRAD\RELEASE\SAMPLEHASH.OBJ|C:\MP\SRC\UTILS\VRAD\RELEASE\SCRATCHPAD3D.OBJ|C:\MP\SRC\UTILS\VRAD\RELEASE\SCRATCHPADUTILS.OBJ|C:\MP\SRC\UTILS\VRAD\RELEASE\SCRIPLIB.OBJ|C:\MP\SRC\UTILS\VRAD\RELEASE\THREADS.OBJ|C:\MP\SRC\UTILS\VRAD\RELEASE\TOOLS_MINIDUMP.OBJ|C:\MP\SRC\UTILS\VRAD\RELEASE\TRACE.OBJ|C:\MP\SRC\UTILS\VRAD\RELEASE\UTILMATLIB.OBJ|C:\MP\SRC\UTILS\VRAD\RELEASE\VISMAT.OBJ|C:\MP\SRC\UTILS\VRAD\RELEASE\VMPI_TOOLS_SHARED.OBJ|C:\MP\SRC\UTILS\VRAD\RELEASE\VRAD.OBJ|C:\MP\SRC\UTILS\VRAD\RELEASE\VRADDETAILPROPS.OBJ|C:\MP\SRC\UTILS\VRAD\RELEASE\VRADDISPS.OBJ|C:\MP\SRC\UTILS\VRAD\RELEASE\VRADDLL.OBJ|C:\MP\SRC\UTILS\VRAD\RELEASE\VRADSTATICPROPS.OBJ|C:\MP\SRC\UTILS\VRAD\RELEASE\VRAD_DISPCOLL.OBJ|C:\MP\SRC\UTILS\VRAD\RELEASE\ZIP_UTILS.OBJ
C:\PROGRAM FILES (X86)\MICROSOFT SDKS\WINDOWS\V7.1A\LIB\SHELL32.LIB
C:\PROGRAM FILES (X86)\MICROSOFT SDKS\WINDOWS\V7.1A\LIB\USER32.LIB
C:\PROGRAM FILES (X86)\MICROSOFT SDKS\WINDOWS\V7.1A\LIB\ADVAPI32.LIB
C:\PROGRAM FILES (X86)\MICROSOFT SDKS\WINDOWS\V7.1A\LIB\GDI32.LIB
C:\PROGRAM FILES (X86)\MICROSOFT SDKS\WINDOWS\V7.1A\LIB\COMDLG32.LIB
C:\PROGRAM FILES (X86)\MICROSOFT SDKS\WINDOWS\V7.1A\LIB\OLE32.LIB
C:\PROGRAM FILES (X86)\MICROSOFT SDKS\WINDOWS\V7.1A\LIB\WS2_32.LIB
C:\MP\SRC\UTILS\VRAD\RELEASE\POINTEROVERRIDE.OBJ
C:\MP\SRC\UTILS\VRAD\RELEASE\BSPTREEDATA.OBJ
C:\MP\SRC\UTILS\VRAD\RELEASE\DISP_COMMON.OBJ
C:\MP\SRC\UTILS\VRAD\RELEASE\DISP_POWERINFO.OBJ
C:\MP\SRC\UTILS\VRAD\RELEASE\DISP_VRAD.OBJ
C:\MP\SRC\UTILS\VRAD\RELEASE\IMAGEPACKER.OBJ
C:\MP\SRC\UTILS\VRAD\RELEASE\INCREMENTAL.OBJ
C:\MP\SRC\UTILS\VRAD\RELEASE\LEAF_AMBIENT_LIGHTING.OBJ
C:\MP\SRC\UTILS\VRAD\RELEASE\LIGHTMAP.OBJ
C:\MP\SRC\UTILS\VRAD\RELEASE\LOADCMDLINE.OBJ
C:\MP\SRC\UTILS\VRAD\RELEASE\LUMPFILES.OBJ
C:\MP\SRC\UTILS\VRAD\RELEASE\MACRO_TEXTURE.OBJ
C:\MP\SRC\UTILS\VRAD\RELEASE\MEMOVERRIDE.OBJ
C:\MP\SRC\UTILS\VRAD\RELEASE\MPI_STATS.OBJ
C:\MP\SRC\UTILS\VRAD\RELEASE\MPIVRAD.OBJ
C:\MP\SRC\UTILS\VRAD\RELEASE\MYSQLDATABASE.OBJ
C:\MP\SRC\UTILS\VRAD\RELEASE\PACIFIER.OBJ
C:\MP\SRC\UTILS\VRAD\RELEASE\PHYSDLL.OBJ
C:\MP\SRC\UTILS\VRAD\RELEASE\RADIAL.OBJ
C:\MP\SRC\UTILS\VRAD\RELEASE\SAMPLEHASH.OBJ
C:\MP\SRC\UTILS\VRAD\RELEASE\TRACE.OBJ
C:\MP\SRC\UTILS\VRAD\RELEASE\UTILMATLIB.OBJ
C:\MP\SRC\UTILS\VRAD\RELEASE\VISMAT.OBJ
C:\MP\SRC\UTILS\VRAD\RELEASE\VMPI_TOOLS_SHARED.OBJ
C:\MP\SRC\UTILS\VRAD\RELEASE\VRAD.OBJ
C:\MP\SRC\UTILS\VRAD\RELEASE\VRAD_DISPCOLL.OBJ
C:\MP\SRC\UTILS\VRAD\RELEASE\VRADDETAILPROPS.OBJ
C:\MP\SRC\UTILS\VRAD\RELEASE\VRADDISPS.OBJ
C:\MP\SRC\UTILS\VRAD\RELEASE\VRADDLL.OBJ
C:\MP\SRC\UTILS\VRAD\RELEASE\VRADSTATICPROPS.OBJ
C:\MP\SRC\UTILS\VRAD\RELEASE\ZIP_UTILS.OBJ
C:\MP\SRC\UTILS\VRAD\RELEASE\BSPLIB.OBJ
C:\MP\SRC\UTILS\VRAD\RELEASE\BUILDDISP.OBJ
C:\MP\SRC\UTILS\VRAD\RELEASE\CHUNKFILE.OBJ
C:\MP\SRC\UTILS\VRAD\RELEASE\CMDLIB.OBJ
C:\MP\SRC\UTILS\VRAD\RELEASE\DISPCOLL_COMMON.OBJ
C:\MP\SRC\UTILS\VRAD\RELEASE\MAP_SHARED.OBJ
C:\MP\SRC\UTILS\VRAD\RELEASE\POLYLIB.OBJ
C:\MP\SRC\UTILS\VRAD\RELEASE\SCRIPLIB.OBJ
C:\MP\SRC\UTILS\VRAD\RELEASE\THREADS.OBJ
C:\MP\SRC\UTILS\VRAD\RELEASE\TOOLS_MINIDUMP.OBJ
C:\MP\SRC\UTILS\VRAD\RELEASE\COLLISIONUTILS.OBJ
C:\MP\SRC\UTILS\VRAD\RELEASE\FILESYSTEM_HELPERS.OBJ
C:\MP\SRC\UTILS\VRAD\RELEASE\SCRATCHPAD3D.OBJ
C:\MP\SRC\UTILS\VRAD\RELEASE\SCRATCHPADUTILS.OBJ
C:\MP\SRC\LIB\PUBLIC\BITMAP.LIB
C:\MP\SRC\LIB\COMMON\LZMA.LIB
C:\MP\SRC\LIB\PUBLIC\MATHLIB.LIB
C:\MP\SRC\LIB\PUBLIC\RAYTRACE.LIB
C:\MP\SRC\LIB\PUBLIC\TIER0.LIB
C:\MP\SRC\LIB\PUBLIC\TIER1.LIB
C:\MP\SRC\LIB\PUBLIC\TIER2.LIB
C:\MP\SRC\LIB\PUBLIC\VMPI.LIB
C:\MP\SRC\LIB\PUBLIC\VSTDLIB.LIB
C:\MP\SRC\LIB\PUBLIC\VTF.LIB
C:\WINDOWS\GLOBALIZATION\SORTING\SORTDEFAULT.NLS
G:\SOFTWARE\VS2013\VC\LIB\LIBCPMT.LIB
G:\SOFTWARE\VS2013\VC\LIB\LIBCMT.LIB
G:\SOFTWARE\VS2013\VC\LIB\OLDNAMES.LIB
C:\PROGRAM FILES (X86)\MICROSOFT SDKS\WINDOWS\V7.1A\LIB\UUID.LIB
C:\PROGRAM FILES (X86)\MICROSOFT SDKS\WINDOWS\V7.1A\LIB\KERNEL32.LIB
C:\WINDOWS\SYSTEM32\TZRES.DLL
G:\SOFTWARE\VS2013\VC\BIN\1033\LINKUI.DLL
