"EyeRefract"
{
	"$Iris"               "models/cyber/eye-iris-blue"			  // Iris color in RGB with cornea noise in A
	"$AmbientOcclTexture" "models/cyber/eyeball_ao"				  // Ambient occlusion in RGB, A unused
	"$Envmap"             "models/cyber/eye-reflection-cubemap-"    // Reflection environment map
	"$CorneaTexture"      "models/cyber/eye-cornea"                 // Special texture that has 2D cornea normal in RG and other data in BA
	"$lightwarptexture"   "models/cyber/eye_lightwarp"        	      // This enables TF NPR lighting

	"$EyeballRadius" "0.7"				// Default 0.5
	"$AmbientOcclColor" "[0.3 0.3 0.3]"	// Default 0.33, 0.33, 0.33
	"$Dilation" "0.5"					// Default 0.5
	"$ParallaxStrength" "0.25"          // Default 0.25
	"$CorneaBumpStrength" "1.3"			// Default 1.0

	"$halflambert" "1"
	"$nodecal" "1"

	// These effects are only available in ps.2.0b and later
	"$ambientocclusion" "1"
	"$RaytraceSphere" "1"				// Default 1 - Enables raytracing in the pixel shader to make the eyeball look round
	"$SphereTexkillCombo" "1"			// Default 1 - Enables killing pixels that don't ray-intersect the sphere
}