"VertexLitGeneric"
{
	"$basetexture" "models/cyber/scout_shirt_red"
	"$bumpmap" "models/cyber\scout_shirt_normal"

	"$phong" "1"
	"$phongexponent" "10"
	"$phongboost" "0.1"	
	"$lightwarptexture" "models/cyber/pyro_lightwarp"
	"$phongfresnelranges"	"[.3 1 8]"
	"$halflambert" "0"
	"$color"	"{ 0 0 0 }"
	"$color2" "{ 0 0 0 }"
	"$colortint_base" "{ 0 0 0 }"
	"$rimlight" "1"
	"$rimlightexponent" "4"
	"$rimlightboost" "1"
}
