"VertexLitGeneric"
{
	"$basetexture" "models/cyber\scout_paintable_red2"
	"$bumpmap" "models/cyber\scout_normal"

	"$detail" "effects/tiledfire/fireLayeredSlowTiled512.vtf"	
	"$detailscale" "5"
	"$detailblendfactor" .01
	"$detailblendmode" 6

	"$color2" "{ 230 230 230 }"
	"$colortint_base" "{ 230 230 230 }"
	"$colortint_tmp" "[0 0 0]"
	"$blendtintbybasealpha" "1"

	"$yellow" "0"
	"$one" "1"

	"$phong" "1"
	"$phongexponent" "20"
	"$phongboost" "1"	
	"$lightwarptexture" "models/cyber/pyro_lightwarp"
	"$phongfresnelranges"	"[.3 1 8]"
	"$halflambert" "0"

	// Rim lighting parameters
	"$rimlight" "1"												// To enable rim lighting (requires phong)
	"$rimlightexponent" "4"										// Exponent for phong component of rim lighting	
	"$rimlightboost" "0.5"										// Boost for ambient cube component of rim lighting

	// Cloaking
	"$cloakPassEnabled" "1"
	"Proxies"
	{
		"spy_invis"
		{
		}
		"AnimatedTexture"
		{
			"animatedtexturevar" "$detail"
			"animatedtextureframenumvar" "$detailframe"
			"animatedtextureframerate" 30
		}
		"BurnLevel"
		{
			"resultVar" "$detailblendfactor"
		}
		"YellowLevel"
		{
			"resultVar" "$yellow"
		}
		"Equals"
		{
			"srcVar1"  "$yellow"
			"resultVar" "$color2"
		}
		"ItemTintColor"
		{
			"resultVar" "$colortint_tmp"
		}
		"SelectFirstIfNonZero"
		{
			"srcVar1"	"$colortint_tmp"
			"srcVar2"	"$colortint_base"
			"resultVar" "$color2"
		}
	}
}
