^C:\MP\SRC\UTILS\COMMON\BSPLIB.CPP
C:\MP\SRC\UTILS\VVIS\RELEASE\VC120.PDB
^C:\MP\SRC\UTILS\COMMON\CMDLIB.CPP
C:\MP\SRC\UTILS\VVIS\RELEASE\VC120.PDB
^C:\MP\SRC\PUBLIC\COLLISIONUTILS.CPP
C:\MP\SRC\UTILS\VVIS\RELEASE\VC120.PDB
^C:\MP\SRC\PUBLIC\FILESYSTEM_HELPERS.CPP
C:\MP\SRC\UTILS\VVIS\RELEASE\VC120.PDB
^C:\MP\SRC\UTILS\VVIS\FLOW.CPP
C:\MP\SRC\UTILS\VVIS\RELEASE\VC120.PDB
^C:\MP\SRC\PUBLIC\LOADCMDLINE.CPP
C:\MP\SRC\UTILS\VVIS\RELEASE\VC120.PDB
^C:\MP\SRC\PUBLIC\LUMPFILES.CPP
C:\MP\SRC\UTILS\VVIS\RELEASE\VC120.PDB
^C:\MP\SRC\UTILS\COMMON\MPI_STATS.CPP
C:\MP\SRC\UTILS\VVIS\RELEASE\VC120.PDB
^C:\MP\SRC\UTILS\VVIS\MPIVIS.CPP
C:\MP\SRC\UTILS\VVIS\RELEASE\VC120.PDB
^C:\MP\SRC\UTILS\COMMON\MYSQLDATABASE.CPP
C:\MP\SRC\UTILS\VVIS\RELEASE\VC120.PDB
^C:\MP\SRC\UTILS\COMMON\PACIFIER.CPP
C:\MP\SRC\UTILS\VVIS\RELEASE\VC120.PDB
^C:\MP\SRC\PUBLIC\SCRATCHPAD3D.CPP
C:\MP\SRC\UTILS\VVIS\RELEASE\VC120.PDB
^C:\MP\SRC\UTILS\COMMON\SCRATCHPAD_HELPERS.CPP
C:\MP\SRC\UTILS\VVIS\RELEASE\VC120.PDB
^C:\MP\SRC\UTILS\COMMON\SCRIPLIB.CPP
C:\MP\SRC\UTILS\VVIS\RELEASE\VC120.PDB
^C:\MP\SRC\UTILS\COMMON\THREADS.CPP
C:\MP\SRC\UTILS\VVIS\RELEASE\VC120.PDB
^C:\MP\SRC\UTILS\COMMON\TOOLS_MINIDUMP.CPP
C:\MP\SRC\UTILS\VVIS\RELEASE\VC120.PDB
^C:\MP\SRC\UTILS\COMMON\VMPI_TOOLS_SHARED.CPP
C:\MP\SRC\UTILS\VVIS\RELEASE\VC120.PDB
^C:\MP\SRC\UTILS\VVIS\VVIS.CPP
C:\MP\SRC\UTILS\VVIS\RELEASE\VC120.PDB
^C:\MP\SRC\UTILS\VVIS\WATERDIST.CPP
C:\MP\SRC\UTILS\VVIS\RELEASE\VC120.PDB
^C:\MP\SRC\PUBLIC\ZIP_UTILS.CPP
C:\MP\SRC\UTILS\VVIS\RELEASE\VC120.PDB
