^C:\MP\SRC\LIB\COMMON\LZMA.LIB|C:\MP\SRC\LIB\PUBLIC\MATHLIB.LIB|C:\MP\SRC\LIB\PUBLIC\TIER0.LIB|C:\MP\SRC\LIB\PUBLIC\TIER1.LIB|C:\MP\SRC\LIB\PUBLIC\TIER2.LIB|C:\MP\SRC\LIB\PUBLIC\VMPI.LIB|C:\MP\SRC\LIB\PUBLIC\VSTDLIB.LIB|C:\MP\SRC\UTILS\VVIS\RELEASE\BSPLIB.OBJ|C:\MP\SRC\UTILS\VVIS\RELEASE\CMDLIB.OBJ|C:\MP\SRC\UTILS\VVIS\RELEASE\COLLISIONUTILS.OBJ|C:\MP\SRC\UTILS\VVIS\RELEASE\FILESYSTEM_HELPERS.OBJ|C:\MP\SRC\UTILS\VVIS\RELEASE\FLOW.OBJ|C:\MP\SRC\UTILS\VVIS\RELEASE\LOADCMDLINE.OBJ|C:\MP\SRC\UTILS\VVIS\RELEASE\LUMPFILES.OBJ|C:\MP\SRC\UTILS\VVIS\RELEASE\MPIVIS.OBJ|C:\MP\SRC\UTILS\VVIS\RELEASE\MPI_STATS.OBJ|C:\MP\SRC\UTILS\VVIS\RELEASE\MYSQLDATABASE.OBJ|C:\MP\SRC\UTILS\VVIS\RELEASE\PACIFIER.OBJ|C:\MP\SRC\UTILS\VVIS\RELEASE\POINTEROVERRIDE.OBJ|C:\MP\SRC\UTILS\VVIS\RELEASE\SCRATCHPAD3D.OBJ|C:\MP\SRC\UTILS\VVIS\RELEASE\SCRATCHPAD_HELPERS.OBJ|C:\MP\SRC\UTILS\VVIS\RELEASE\SCRIPLIB.OBJ|C:\MP\SRC\UTILS\VVIS\RELEASE\THREADS.OBJ|C:\MP\SRC\UTILS\VVIS\RELEASE\TOOLS_MINIDUMP.OBJ|C:\MP\SRC\UTILS\VVIS\RELEASE\VMPI_TOOLS_SHARED.OBJ|C:\MP\SRC\UTILS\VVIS\RELEASE\VVIS.OBJ|C:\MP\SRC\UTILS\VVIS\RELEASE\WATERDIST.OBJ|C:\MP\SRC\UTILS\VVIS\RELEASE\ZIP_UTILS.OBJ
C:\MP\SRC\UTILS\VVIS\RELEASE\VVIS_DLL.DLL
C:\MP\SRC\UTILS\VVIS\RELEASE\VVIS_DLL.PDB
