"VertexLitGeneric"
{
	"$basetexture" "models/cyber\scout_red"
	"$bumpmap" "models/cyber\scout_normal"

	"$detail" "effects/tiledfire/fireLayeredSlowTiled512.vtf"	
	"$detailscale" "5"
	"$detailblendfactor" .00
	"$detailblendmode" 6

	"$yellow" "0"
	"$one" "1"

	"$phong" "1"
	"$phongexponent" "20"
	"$phongboost" "1"	
	"$lightwarptexture" "models/cyber/pyro_lightwarp"
	"$phongfresnelranges"	"[.3 1 8]"
	"$halflambert" "0"

	// Rim lighting parameters
	"$rimlight" "1"												// To enable rim lighting (requires phong)
	"$rimlightexponent" "4"										// Exponent for phong component of rim lighting	
	"$rimlightboost" "0.5"										// Boost for ambient cube component of rim lighting

	// Cloaking
	"$cloakPassEnabled" "1"
	"Proxies"
	{
		"spy_invis"
		{
		}
		"AnimatedTexture"
		{
			"animatedtexturevar" "$detail"
			"animatedtextureframenumvar" "$detailframe"
			"animatedtextureframerate" 30
		}
		"BurnLevel"
		{
			"resultVar" "$detailblendfactor"
		}
		"YellowLevel"
		{
			"resultVar" "$yellow"
		}
		"Equals"
		{
			"srcVar1"  "$yellow"
			"resultVar" "$color2"
		}

	}
}
