"LightmappedGeneric"
{
	"$basetexture" "RealWorldTextures2\Metal\grate\metal_grate_04"
	"$translucent" 1
	"$surfaceprop" "metal"
} //Realworld Textures Version 2 - Made by TopHATTwaffle - Please credit me if used! - Contact: www.tophattwaffle.com
