"LightmappedGeneric"
{
	"$basetexture" "RealWorldTextures2\Metal\floor\metal_204"
	"$bumpmap" "RealWorldTextures2\Metal\floor\metal_204_nrm"
	"$surfaceprop" "metal"
	"$detail" "RealWorldTextures2\detail\noise_detail_01"
	"$detailblendfactor" ".6"
	"$detailscale" "7"
} //Realworld Textures Version 2 - Made by TopHATTwaffle - Please credit me if used! - Contact: www.tophattwaffle.com
