"LightmappedGeneric"
{
	"$basetexture" "RealWorldTextures2\Metal\floor\metal_tile_09"
	"$bumpmap" "RealWorldTextures2\Metal\floor\metal_tile_09_nrm"
	"$surfaceprop" "metal"
	"$envmap" "env_cubemap"
	"$envmaptint" "[.8 .8 .8]"
} //Realworld Textures Version 2 - Made by TopHATTwaffle - Please credit me if used! - Contact: www.tophattwaffle.com
