"LightmappedGeneric"
{
	"$basetexture" "RealWorldTextures2\Metal\floor\Metal_04"
	"$bumpmap" "RealWorldTextures2\Metal\floor\Metal_04_nrm"
	"$translucent" 1
	"$surfaceprop" "metal"
	"$envmap" "env_cubemap"
	"$envmaptint" "[.6 .6 .6]"
} //Realworld Textures Version 2 - Made by TopHATTwaffle - Please credit me if used! - Contact: www.tophattwaffle.com
