^C:\SP\SRC\PUBLIC\TIER0\MEMOVERRIDE.CPP
C:\SP\SRC\UTILS\SERVERPLUGIN_SAMPLE\RELEASE\VC120.PDB
^C:\SP\SRC\UTILS\SERVERPLUGIN_SAMPLE\SERVERPLUGIN_BOT.CPP
C:\SP\SRC\UTILS\SERVERPLUGIN_SAMPLE\RELEASE\VC120.PDB
^C:\SP\SRC\UTILS\SERVERPLUGIN_SAMPLE\SERVERPLUGIN_EMPTY.CPP
C:\SP\SRC\UTILS\SERVERPLUGIN_SAMPLE\RELEASE\VC120.PDB
