^C:\SP\SRC\LIB\PUBLIC\MATHLIB.LIB|C:\SP\SRC\LIB\PUBLIC\TIER0.LIB|C:\SP\SRC\LIB\PUBLIC\TIER1.LIB|C:\SP\SRC\LIB\PUBLIC\TIER2.LIB|C:\SP\SRC\LIB\PUBLIC\VSTDLIB.LIB|C:\SP\SRC\UTILS\SERVERPLUGIN_SAMPLE\RELEASE\MEMOVERRIDE.OBJ|C:\SP\SRC\UTILS\SERVERPLUGIN_SAMPLE\RELEASE\POINTEROVERRIDE.OBJ|C:\SP\SRC\UTILS\SERVERPLUGIN_SAMPLE\RELEASE\SERVERPLUGIN_BOT.OBJ|C:\SP\SRC\UTILS\SERVERPLUGIN_SAMPLE\RELEASE\SERVERPLUGIN_EMPTY.OBJ
C:\PROGRAM FILES (X86)\MICROSOFT SDKS\WINDOWS\V7.1A\LIB\SHELL32.LIB
C:\PROGRAM FILES (X86)\MICROSOFT SDKS\WINDOWS\V7.1A\LIB\USER32.LIB
C:\PROGRAM FILES (X86)\MICROSOFT SDKS\WINDOWS\V7.1A\LIB\ADVAPI32.LIB
C:\PROGRAM FILES (X86)\MICROSOFT SDKS\WINDOWS\V7.1A\LIB\GDI32.LIB
C:\PROGRAM FILES (X86)\MICROSOFT SDKS\WINDOWS\V7.1A\LIB\COMDLG32.LIB
C:\PROGRAM FILES (X86)\MICROSOFT SDKS\WINDOWS\V7.1A\LIB\OLE32.LIB
C:\PROGRAM FILES (X86)\MICROSOFT SDKS\WINDOWS\V7.1A\LIB\ODBC32.LIB
C:\PROGRAM FILES (X86)\MICROSOFT SDKS\WINDOWS\V7.1A\LIB\ODBCCP32.LIB
C:\SP\SRC\UTILS\SERVERPLUGIN_SAMPLE\RELEASE\POINTEROVERRIDE.OBJ
C:\SP\SRC\UTILS\SERVERPLUGIN_SAMPLE\RELEASE\MEMOVERRIDE.OBJ
C:\SP\SRC\UTILS\SERVERPLUGIN_SAMPLE\RELEASE\SERVERPLUGIN_BOT.OBJ
C:\SP\SRC\UTILS\SERVERPLUGIN_SAMPLE\RELEASE\SERVERPLUGIN_EMPTY.OBJ
C:\SP\SRC\LIB\PUBLIC\MATHLIB.LIB
C:\SP\SRC\LIB\PUBLIC\TIER0.LIB
C:\SP\SRC\LIB\PUBLIC\TIER1.LIB
C:\SP\SRC\LIB\PUBLIC\TIER2.LIB
C:\SP\SRC\LIB\PUBLIC\VSTDLIB.LIB
C:\WINDOWS\GLOBALIZATION\SORTING\SORTDEFAULT.NLS
C:\PROGRAM FILES (X86)\MICROSOFT SDKS\WINDOWS\V7.1A\LIB\UUID.LIB
G:\SOFTWARE\VS2013\VC\LIB\LIBCPMT.LIB
G:\SOFTWARE\VS2013\VC\LIB\LIBCMT.LIB
G:\SOFTWARE\VS2013\VC\LIB\OLDNAMES.LIB
C:\PROGRAM FILES (X86)\MICROSOFT SDKS\WINDOWS\V7.1A\LIB\KERNEL32.LIB
C:\WINDOWS\SYSTEM32\TZRES.DLL
G:\SOFTWARE\VS2013\VC\BIN\1033\LINKUI.DLL
