^C:\SP\SRC\LIB\PUBLIC\MATHLIB.LIB|C:\SP\SRC\LIB\PUBLIC\TIER0.LIB|C:\SP\SRC\LIB\PUBLIC\TIER1.LIB|C:\SP\SRC\LIB\PUBLIC\TIER2.LIB|C:\SP\SRC\LIB\PUBLIC\VSTDLIB.LIB|C:\SP\SRC\UTILS\SERVERPLUGIN_SAMPLE\RELEASE\MEMOVERRIDE.OBJ|C:\SP\SRC\UTILS\SERVERPLUGIN_SAMPLE\RELEASE\POINTEROVERRIDE.OBJ|C:\SP\SRC\UTILS\SERVERPLUGIN_SAMPLE\RELEASE\SERVERPLUGIN_BOT.OBJ|C:\SP\SRC\UTILS\SERVERPLUGIN_SAMPLE\RELEASE\SERVERPLUGIN_EMPTY.OBJ
C:\SP\SRC\UTILS\SERVERPLUGIN_SAMPLE\RELEASE\SERVERPLUGIN_EMPTY.DLL
C:\SP\SRC\UTILS\SERVERPLUGIN_SAMPLE\RELEASE\SERVERPLUGIN_EMPTY.PDB
