"LightmappedGeneric"
{
	"$basetexture" "RealWorldTextures2\tile\Tile_03"
	"$bumpmap" "RealWorldTextures2\tile\Tile_03_nrm"
	"$envmapmask" "RealWorldTextures2\tile\Tile_03_spec"
	"$envmap" "env_cubemap"
	"$surfaceprop" "tile"
} //Realworld Textures Version 2 - Made by TopHATTwaffle - Please credit me if used! - Contact: www.tophattwaffle.com
