^C:\MP\SRC\PUBLIC\TIER0\POINTEROVERRIDE.ASM
"G:\Software\VS2013\VC\bin\ml.exe" /c /Cp /Zi /Fo".\Release\.\\pointeroverride.obj" "C:\mp\src\public\tier0\pointeroverride.asm"
^C:\MP\SRC\UTILS\QC_EYES\QC_EYES.VPC
if exist "..\..\devtools\bin\vpc.exe" "..\..\devtools\bin\vpc.exe" -crc2 "qc_eyes.vcxproj"if ERRORLEVEL 1 exit /b 1echo crc_complete > C:\mp\src\utils\qc_eyes\qc_eyes.vpc.sentinel
