^C:\MP\SRC\LIB\PUBLIC\TIER0.LIB|C:\MP\SRC\LIB\PUBLIC\TIER1.LIB|C:\MP\SRC\LIB\PUBLIC\VSTDLIB.LIB|C:\MP\SRC\UTILS\QC_EYES\RELEASE\POINTEROVERRIDE.OBJ|C:\MP\SRC\UTILS\QC_EYES\RELEASE\QC_EYES.OBJ|C:\MP\SRC\UTILS\QC_EYES\RELEASE\QC_EYES.RES|C:\MP\SRC\UTILS\QC_EYES\RELEASE\QC_EYESDLG.OBJ|C:\MP\SRC\UTILS\QC_EYES\RELEASE\STDAFX.OBJ
C:\MP\SRC\UTILS\QC_EYES\RELEASE\QC_EYES.EXE
C:\MP\SRC\UTILS\QC_EYES\RELEASE\QC_EYES.PDB
