"LightmappedGeneric"
{
	"$basetexture" "RealWorldTextures2\Rock\ground\pebbles_05"
	"$surfaceprop" "rock"
	"$bumpmap" "RealWorldTextures2\Rock\ground\pebbles_05_nrm"
	"$detail" "RealWorldTextures2\detail\dt_stone3"
	"$detailblendfactor" ".7"
	"$detailscale" "7"
	"$envmap" "env_cubemap"
	"$envmaptint" "[.3 .3 .3]"
} //Realworld Textures Version 2 - Made by TopHATTwaffle - Please credit me if used! - Contact: www.tophattwaffle.com
