"LightmappedGeneric"
{
	"$basetexture" "RealWorldTextures2\Rock\wall\rock_wall_02"
	"$bumpmap" "RealWorldTextures2\Rock\wall\rock_wall_02_nrm"
	"$detail" "RealWorldTextures2\detail\dt_stone2"
	"$detailblendfactor" ".7"
	"$detailscale" "7"
	"$surfaceprop" "rock"
} //Realworld Textures Version 2 - Made by TopHATTwaffle - Please credit me if used! - Contact: www.tophattwaffle.com
