"LightmappedGeneric"
{
	"$basetexture" "RealWorldTextures2\Rock\ground\pebbles_path_04"
	"$bumpmap" "RealWorldTextures2\Rock\ground\pebbles_path_04_nrm"
	"$envmapmask" "RealWorldTextures2\Rock\ground\pebbles_path_04_spec"
	"$surfaceprop" "rock"
	"$envmap" "env_cubemap"
} //Realworld Textures Version 2 - Made by TopHATTwaffle - Please credit me if used! - Contact: www.tophattwaffle.com
