"VertexLitGeneric"
{
	"$basetexture" "models/aileen/pyro_new/pyrotex_red"
	"$bumpmap" "models/aileen/pyro_new/pyrotex_normal"
	"$detail" "effects/tiledfire/fireLayeredSlowTiled512.vtf"	
	"$detailscale" "5"
	"$detailblendfactor" 0.0
	"$detailblendmode" 6

	"$yellow" "0"
	"$one" "1"


	"$phong" "1"
	"$phongexponent" "15" //25
	"$phongboost" "1"	//.5
	"$lightwarptexture" "models/player/pyro/pyro_lightwarp"
	"$phongfresnelranges"	"[2 1 5]"
	"$halflambert" "1"

	// Rim lighting parameters
	"$rimlight" "1"												// To enable rim lighting (requires phong)
	"$rimlightexponent" "4"	//2									// Exponent for phong component of rim lighting	
	"$rimlightboost" "2"										// Boost for ambient cube component of rim lighting

	// Cloaking
	"$cloakPassEnabled" "1"

	"360?$color2" "[ 0.75 0.75 0.7 ]"

	"Proxies"
	{
		"spy_invis"
		{
		}
		"AnimatedTexture"
		{
			"animatedtexturevar" "$detail"
			"animatedtextureframenumvar" "$detailframe"
			"animatedtextureframerate" 30
		}
		"BurnLevel"
		{
			"resultVar" "$detailblendfactor"
		}
		"YellowLevel"
		{
			"resultVar" "$yellow"
		}
		"Equals"
		{
			"srcVar1"  "$yellow"
			"resultVar" "$color2"
		}

	}
}
