"LightmappedGeneric"
{
	"$basetexture" "RealWorldTextures2\Metal\wall\metal_59"
	"$bumpmap" "RealWorldTextures2\Metal\wall\metal_59_nrm"
	"$envmapmask" "RealWorldTextures2\Metal\wall\metal_59_spec"
	"$surfaceprop" "metal"
	"$envmap" "env_cubemap"
} //Realworld Textures Version 2 - Made by TopHATTwaffle - Please credit me if used! - Contact: www.tophattwaffle.com
