"LightmappedGeneric"
{
	"$basetexture" "RealWorldTextures2\Metal\wall\Metal_24"
	//"$bumpmap" "RealWorldTextures2\Metal\wall\Metal_24_nrm"
	"$envmapmask" "RealWorldTextures2\Metal\wall\Metal_24_spec"
	"$detail" "RealWorldTextures2\detail\dt_metal2"
	"$detailblendfactor" ".7"
	"$detailscale" "7"
	"$envmap" "env_cubemap"
	"$surfaceprop" "metal"
} //Realworld Textures Version 2 - Made by TopHATTwaffle - Please credit me if used! - Contact: www.tophattwaffle.com
