"LightmappedGeneric"
{
	"$basetexture" "RealWorldTextures2\Metal\wall\Metal_39"
	"$bumpmap" "RealWorldTextures2\Metal\wall\Metal_38_39_nrm"
	"$envmapmask" "RealWorldTextures2\Metal\wall\Metal_36_37_38_39_40_41_42_43_44_45_SPEC"
	"$detail" "RealWorldTextures2\detail\dt_metal2"
	"$detailblendfactor" ".5"
	"$detailscale" "7"
	"$envmap" "env_cubemap"
	"$surfaceprop" "metal"
} //Realworld Textures Version 2 - Made by TopHATTwaffle - Please credit me if used! - Contact: www.tophattwaffle.com
