"VertexLitGeneric"
{
	"$basetexture" "models\cyber\femscout_mercy\scout_red"
	"$bumpmap" "models\cyber\femscout_mercy\scout_normal"

	"$phong" "1"
	"$phongboost" "0.05"
	"$lightwarptexture" "models/player/pyro/pyro_lightwarp"
	"$phongfresnelranges"	"[.3 1 8]"
	"$halflambert" "0"
		
	"$rimlight" "1"
	"$rimlightexponent" "4"
	"$rimlightboost" "0"
	"$rimmask" "1"
}
