^C:\MP\SRC\LIB\PUBLIC\MATHLIB.LIB|C:\MP\SRC\LIB\PUBLIC\TIER0.LIB|C:\MP\SRC\LIB\PUBLIC\TIER1.LIB|C:\MP\SRC\LIB\PUBLIC\TIER2.LIB|C:\MP\SRC\LIB\PUBLIC\VSTDLIB.LIB|C:\MP\SRC\UTILS\VICE\RELEASE\CMDLIB.OBJ|C:\MP\SRC\UTILS\VICE\RELEASE\FILESYSTEM_HELPERS.OBJ|C:\MP\SRC\UTILS\VICE\RELEASE\FILESYSTEM_INIT.OBJ|C:\MP\SRC\UTILS\VICE\RELEASE\FILESYSTEM_TOOLS.OBJ|C:\MP\SRC\UTILS\VICE\RELEASE\MEMOVERRIDE.OBJ|C:\MP\SRC\UTILS\VICE\RELEASE\POINTEROVERRIDE.OBJ|C:\MP\SRC\UTILS\VICE\RELEASE\VICE.OBJ
C:\MP\SRC\UTILS\VICE\RELEASE\VICE.EXE
C:\MP\SRC\UTILS\VICE\RELEASE\VICE.PDB
