^C:\SP\SRC\FGDLIB\GAMEDATA.CPP
G:\SOFTWARE\VS2013\VC\BIN\MSPDBSRV.EXE
C:\PROGRAM FILES (X86)\MICROSOFT SDKS\WINDOWS\V7.1A\INCLUDE\WINDOWS.H
C:\PROGRAM FILES (X86)\MICROSOFT SDKS\WINDOWS\V7.1A\INCLUDE\SDKDDKVER.H
G:\SOFTWARE\VS2013\VC\INCLUDE\EXCPT.H
G:\SOFTWARE\VS2013\VC\INCLUDE\CRTDEFS.H
G:\SOFTWARE\VS2013\VC\INCLUDE\SAL.H
G:\SOFTWARE\VS2013\VC\INCLUDE\CONCURRENCYSAL.H
G:\SOFTWARE\VS2013\VC\INCLUDE\VADEFS.H
G:\SOFTWARE\VS2013\VC\INCLUDE\STDARG.H
C:\PROGRAM FILES (X86)\MICROSOFT SDKS\WINDOWS\V7.1A\INCLUDE\WINDEF.H
C:\PROGRAM FILES (X86)\MICROSOFT SDKS\WINDOWS\V7.1A\INCLUDE\WINNT.H
G:\SOFTWARE\VS2013\VC\INCLUDE\CTYPE.H
C:\PROGRAM FILES (X86)\MICROSOFT SDKS\WINDOWS\V7.1A\INCLUDE\SPECSTRINGS.H
C:\PROGRAM FILES (X86)\MICROSOFT SDKS\WINDOWS\V7.1A\INCLUDE\SAL_SUPP.H
C:\PROGRAM FILES (X86)\MICROSOFT SDKS\WINDOWS\V7.1A\INCLUDE\SPECSTRINGS_SUPP.H
C:\PROGRAM FILES (X86)\MICROSOFT SDKS\WINDOWS\V7.1A\INCLUDE\SPECSTRINGS_STRICT.H
C:\PROGRAM FILES (X86)\MICROSOFT SDKS\WINDOWS\V7.1A\INCLUDE\SPECSTRINGS_UNDEF.H
C:\PROGRAM FILES (X86)\MICROSOFT SDKS\WINDOWS\V7.1A\INCLUDE\DRIVERSPECS.H
C:\PROGRAM FILES (X86)\MICROSOFT SDKS\WINDOWS\V7.1A\INCLUDE\SDV_DRIVERSPECS.H
C:\PROGRAM FILES (X86)\MICROSOFT SDKS\WINDOWS\V7.1A\INCLUDE\KERNELSPECS.H
C:\PROGRAM FILES (X86)\MICROSOFT SDKS\WINDOWS\V7.1A\INCLUDE\BASETSD.H
C:\PROGRAM FILES (X86)\MICROSOFT SDKS\WINDOWS\V7.1A\INCLUDE\GUIDDEF.H
G:\SOFTWARE\VS2013\VC\INCLUDE\STRING.H
C:\PROGRAM FILES (X86)\MICROSOFT SDKS\WINDOWS\V7.1A\INCLUDE\PSHPACK4.H
C:\PROGRAM FILES (X86)\MICROSOFT SDKS\WINDOWS\V7.1A\INCLUDE\POPPACK.H
C:\PROGRAM FILES (X86)\MICROSOFT SDKS\WINDOWS\V7.1A\INCLUDE\PSHPACK2.H
C:\PROGRAM FILES (X86)\MICROSOFT SDKS\WINDOWS\V7.1A\INCLUDE\PSHPACK8.H
C:\PROGRAM FILES (X86)\MICROSOFT SDKS\WINDOWS\V7.1A\INCLUDE\KTMTYPES.H
C:\PROGRAM FILES (X86)\MICROSOFT SDKS\WINDOWS\V7.1A\INCLUDE\WINBASE.H
C:\PROGRAM FILES (X86)\MICROSOFT SDKS\WINDOWS\V7.1A\INCLUDE\WINERROR.H
C:\PROGRAM FILES (X86)\MICROSOFT SDKS\WINDOWS\V7.1A\INCLUDE\WINGDI.H
C:\PROGRAM FILES (X86)\MICROSOFT SDKS\WINDOWS\V7.1A\INCLUDE\PSHPACK1.H
C:\PROGRAM FILES (X86)\MICROSOFT SDKS\WINDOWS\V7.1A\INCLUDE\WINUSER.H
C:\PROGRAM FILES (X86)\MICROSOFT SDKS\WINDOWS\V7.1A\INCLUDE\TVOUT.H
C:\PROGRAM FILES (X86)\MICROSOFT SDKS\WINDOWS\V7.1A\INCLUDE\WINNLS.H
C:\PROGRAM FILES (X86)\MICROSOFT SDKS\WINDOWS\V7.1A\INCLUDE\WINCON.H
C:\PROGRAM FILES (X86)\MICROSOFT SDKS\WINDOWS\V7.1A\INCLUDE\WINVER.H
C:\PROGRAM FILES (X86)\MICROSOFT SDKS\WINDOWS\V7.1A\INCLUDE\VERRSRC.H
C:\PROGRAM FILES (X86)\MICROSOFT SDKS\WINDOWS\V7.1A\INCLUDE\WINREG.H
C:\PROGRAM FILES (X86)\MICROSOFT SDKS\WINDOWS\V7.1A\INCLUDE\REASON.H
C:\PROGRAM FILES (X86)\MICROSOFT SDKS\WINDOWS\V7.1A\INCLUDE\WINNETWK.H
C:\PROGRAM FILES (X86)\MICROSOFT SDKS\WINDOWS\V7.1A\INCLUDE\WNNC.H
C:\PROGRAM FILES (X86)\MICROSOFT SDKS\WINDOWS\V7.1A\INCLUDE\CDERR.H
C:\PROGRAM FILES (X86)\MICROSOFT SDKS\WINDOWS\V7.1A\INCLUDE\DDE.H
C:\PROGRAM FILES (X86)\MICROSOFT SDKS\WINDOWS\V7.1A\INCLUDE\DDEML.H
C:\PROGRAM FILES (X86)\MICROSOFT SDKS\WINDOWS\V7.1A\INCLUDE\DLGS.H
C:\PROGRAM FILES (X86)\MICROSOFT SDKS\WINDOWS\V7.1A\INCLUDE\LZEXPAND.H
C:\PROGRAM FILES (X86)\MICROSOFT SDKS\WINDOWS\V7.1A\INCLUDE\MMSYSTEM.H
^C:\SP\SRC\FGDLIB\GDVAR.CPP
C:\SP\SRC\PUBLIC\FGDLIB\FGDLIB.H
C:\SP\SRC\PUBLIC\FGDLIB\HELPERINFO.H
C:\SP\SRC\PUBLIC\TIER0\DBG.H
C:\SP\SRC\PUBLIC\TIER0\BASETYPES.H
C:\SP\SRC\PUBLIC\TIER0\COMMONMACROS.H
C:\SP\SRC\PUBLIC\TIER0\PLATFORM.H
C:\SP\SRC\PUBLIC\TIER0\WCHARTYPES.H
C:\SP\SRC\PUBLIC\TIER0\VALVE_OFF.H
G:\SOFTWARE\VS2013\VC\INCLUDE\TCHAR.H
G:\SOFTWARE\VS2013\VC\INCLUDE\CRTDEFS.H
G:\SOFTWARE\VS2013\VC\INCLUDE\SAL.H
G:\SOFTWARE\VS2013\VC\INCLUDE\CONCURRENCYSAL.H
G:\SOFTWARE\VS2013\VC\INCLUDE\VADEFS.H
G:\SOFTWARE\VS2013\VC\INCLUDE\STRING.H
G:\SOFTWARE\VS2013\VC\INCLUDE\MBSTRING.H
C:\SP\SRC\PUBLIC\TIER0\VALVE_ON.H
G:\SOFTWARE\VS2013\VC\INCLUDE\MALLOC.H
G:\SOFTWARE\VS2013\VC\INCLUDE\NEW
G:\SOFTWARE\VS2013\VC\INCLUDE\EXCEPTION
G:\SOFTWARE\VS2013\VC\INCLUDE\XSTDDEF
G:\SOFTWARE\VS2013\VC\INCLUDE\STDLIB.H
G:\SOFTWARE\VS2013\VC\INCLUDE\LIMITS.H
G:\SOFTWARE\VS2013\VC\INCLUDE\CSTDDEF
G:\SOFTWARE\VS2013\VC\INCLUDE\YVALS.H
G:\SOFTWARE\VS2013\VC\INCLUDE\XKEYCHECK.H
G:\SOFTWARE\VS2013\VC\INCLUDE\USE_ANSI.H
G:\SOFTWARE\VS2013\VC\INCLUDE\STDDEF.H
G:\SOFTWARE\VS2013\VC\INCLUDE\INITIALIZER_LIST
G:\SOFTWARE\VS2013\VC\INCLUDE\XTR1COMMON
G:\SOFTWARE\VS2013\VC\INCLUDE\EH.H
C:\SP\SRC\PUBLIC\TIER0\VALVE_MINMAX_ON.H
C:\SP\SRC\PUBLIC\TIER0\ANNOTATIONS.H
C:\SP\SRC\PUBLIC\TIER0\FASTTIMER.H
G:\SOFTWARE\VS2013\VC\INCLUDE\INTRIN.H
G:\SOFTWARE\VS2013\VC\INCLUDE\SETJMP.H
G:\SOFTWARE\VS2013\VC\INCLUDE\IMMINTRIN.H
G:\SOFTWARE\VS2013\VC\INCLUDE\WMMINTRIN.H
G:\SOFTWARE\VS2013\VC\INCLUDE\NMMINTRIN.H
G:\SOFTWARE\VS2013\VC\INCLUDE\SMMINTRIN.H
G:\SOFTWARE\VS2013\VC\INCLUDE\TMMINTRIN.H
G:\SOFTWARE\VS2013\VC\INCLUDE\PMMINTRIN.H
G:\SOFTWARE\VS2013\VC\INCLUDE\EMMINTRIN.H
G:\SOFTWARE\VS2013\VC\INCLUDE\XMMINTRIN.H
G:\SOFTWARE\VS2013\VC\INCLUDE\MMINTRIN.H
G:\SOFTWARE\VS2013\VC\INCLUDE\AMMINTRIN.H
G:\SOFTWARE\VS2013\VC\INCLUDE\MM3DNOW.H
G:\SOFTWARE\VS2013\VC\INCLUDE\ASSERT.H
C:\SP\SRC\PUBLIC\TIER0\PROTECTED_THINGS.H
C:\SP\SRC\PUBLIC\TIER0\XBOX_CODELINE_DEFINES.H
C:\SP\SRC\PUBLIC\TIER0\DBGFLAG.H
G:\SOFTWARE\VS2013\VC\INCLUDE\MATH.H
G:\SOFTWARE\VS2013\VC\INCLUDE\STDIO.H
G:\SOFTWARE\VS2013\VC\INCLUDE\SWPRINTF.INL
G:\SOFTWARE\VS2013\VC\INCLUDE\STDARG.H
C:\SP\SRC\PUBLIC\TIER1\UTLVECTOR.H
C:\SP\SRC\PUBLIC\TIER0\THREADTOOLS.H
C:\SP\SRC\PUBLIC\TIER0\VCRMODE.H
G:\SOFTWARE\VS2013\VC\INCLUDE\PROCESS.H
^C:\SP\SRC\FGDLIB\INPUTOUTPUT.CPP
C:\SP\SRC\PUBLIC\TIER0\DBG.H
C:\SP\SRC\PUBLIC\TIER0\BASETYPES.H
C:\SP\SRC\PUBLIC\TIER0\COMMONMACROS.H
C:\SP\SRC\PUBLIC\TIER0\PLATFORM.H
C:\SP\SRC\PUBLIC\TIER0\WCHARTYPES.H
C:\SP\SRC\PUBLIC\TIER0\VALVE_OFF.H
G:\SOFTWARE\VS2013\VC\INCLUDE\TCHAR.H
G:\SOFTWARE\VS2013\VC\INCLUDE\CRTDEFS.H
G:\SOFTWARE\VS2013\VC\INCLUDE\SAL.H
G:\SOFTWARE\VS2013\VC\INCLUDE\CONCURRENCYSAL.H
G:\SOFTWARE\VS2013\VC\INCLUDE\VADEFS.H
G:\SOFTWARE\VS2013\VC\INCLUDE\STRING.H
G:\SOFTWARE\VS2013\VC\INCLUDE\MBSTRING.H
C:\SP\SRC\PUBLIC\TIER0\VALVE_ON.H
G:\SOFTWARE\VS2013\VC\INCLUDE\MALLOC.H
G:\SOFTWARE\VS2013\VC\INCLUDE\NEW
G:\SOFTWARE\VS2013\VC\INCLUDE\EXCEPTION
G:\SOFTWARE\VS2013\VC\INCLUDE\XSTDDEF
G:\SOFTWARE\VS2013\VC\INCLUDE\STDLIB.H
G:\SOFTWARE\VS2013\VC\INCLUDE\LIMITS.H
G:\SOFTWARE\VS2013\VC\INCLUDE\CSTDDEF
G:\SOFTWARE\VS2013\VC\INCLUDE\YVALS.H
G:\SOFTWARE\VS2013\VC\INCLUDE\XKEYCHECK.H
G:\SOFTWARE\VS2013\VC\INCLUDE\USE_ANSI.H
G:\SOFTWARE\VS2013\VC\INCLUDE\STDDEF.H
G:\SOFTWARE\VS2013\VC\INCLUDE\INITIALIZER_LIST
G:\SOFTWARE\VS2013\VC\INCLUDE\XTR1COMMON
G:\SOFTWARE\VS2013\VC\INCLUDE\EH.H
C:\SP\SRC\PUBLIC\TIER0\VALVE_MINMAX_ON.H
C:\SP\SRC\PUBLIC\TIER0\ANNOTATIONS.H
C:\SP\SRC\PUBLIC\TIER0\FASTTIMER.H
G:\SOFTWARE\VS2013\VC\INCLUDE\INTRIN.H
G:\SOFTWARE\VS2013\VC\INCLUDE\SETJMP.H
G:\SOFTWARE\VS2013\VC\INCLUDE\IMMINTRIN.H
G:\SOFTWARE\VS2013\VC\INCLUDE\WMMINTRIN.H
G:\SOFTWARE\VS2013\VC\INCLUDE\NMMINTRIN.H
G:\SOFTWARE\VS2013\VC\INCLUDE\SMMINTRIN.H
G:\SOFTWARE\VS2013\VC\INCLUDE\TMMINTRIN.H
G:\SOFTWARE\VS2013\VC\INCLUDE\PMMINTRIN.H
G:\SOFTWARE\VS2013\VC\INCLUDE\EMMINTRIN.H
G:\SOFTWARE\VS2013\VC\INCLUDE\XMMINTRIN.H
G:\SOFTWARE\VS2013\VC\INCLUDE\MMINTRIN.H
G:\SOFTWARE\VS2013\VC\INCLUDE\AMMINTRIN.H
G:\SOFTWARE\VS2013\VC\INCLUDE\MM3DNOW.H
G:\SOFTWARE\VS2013\VC\INCLUDE\ASSERT.H
C:\SP\SRC\PUBLIC\TIER0\PROTECTED_THINGS.H
C:\SP\SRC\PUBLIC\TIER0\XBOX_CODELINE_DEFINES.H
C:\SP\SRC\PUBLIC\TIER0\DBGFLAG.H
G:\SOFTWARE\VS2013\VC\INCLUDE\MATH.H
G:\SOFTWARE\VS2013\VC\INCLUDE\STDIO.H
G:\SOFTWARE\VS2013\VC\INCLUDE\SWPRINTF.INL
G:\SOFTWARE\VS2013\VC\INCLUDE\STDARG.H
C:\SP\SRC\PUBLIC\FGDLIB\INPUTOUTPUT.H
C:\SP\SRC\PUBLIC\TIER1\UTLVECTOR.H
C:\SP\SRC\PUBLIC\TIER0\THREADTOOLS.H
C:\SP\SRC\PUBLIC\TIER0\VCRMODE.H
G:\SOFTWARE\VS2013\VC\INCLUDE\PROCESS.H
^C:\SP\SRC\FGDLIB\GDCLASS.CPP
C:\SP\SRC\PUBLIC\FGDLIB\GAMEDATA.H
G:\SOFTWARE\VS2013\VC\INCLUDE\FSTREAM
G:\SOFTWARE\VS2013\VC\INCLUDE\ISTREAM
G:\SOFTWARE\VS2013\VC\INCLUDE\OSTREAM
G:\SOFTWARE\VS2013\VC\INCLUDE\IOS
G:\SOFTWARE\VS2013\VC\INCLUDE\XLOCNUM
G:\SOFTWARE\VS2013\VC\INCLUDE\CLIMITS
G:\SOFTWARE\VS2013\VC\INCLUDE\YVALS.H
G:\SOFTWARE\VS2013\VC\INCLUDE\XKEYCHECK.H
G:\SOFTWARE\VS2013\VC\INCLUDE\CRTDEFS.H
G:\SOFTWARE\VS2013\VC\INCLUDE\SAL.H
G:\SOFTWARE\VS2013\VC\INCLUDE\CONCURRENCYSAL.H
G:\SOFTWARE\VS2013\VC\INCLUDE\VADEFS.H
G:\SOFTWARE\VS2013\VC\INCLUDE\USE_ANSI.H
G:\SOFTWARE\VS2013\VC\INCLUDE\LIMITS.H
G:\SOFTWARE\VS2013\VC\INCLUDE\CMATH
G:\SOFTWARE\VS2013\VC\INCLUDE\MATH.H
G:\SOFTWARE\VS2013\VC\INCLUDE\XTGMATH.H
G:\SOFTWARE\VS2013\VC\INCLUDE\XTR1COMMON
G:\SOFTWARE\VS2013\VC\INCLUDE\CSTDIO
G:\SOFTWARE\VS2013\VC\INCLUDE\STDIO.H
G:\SOFTWARE\VS2013\VC\INCLUDE\SWPRINTF.INL
G:\SOFTWARE\VS2013\VC\INCLUDE\CSTDLIB
G:\SOFTWARE\VS2013\VC\INCLUDE\STDLIB.H
G:\SOFTWARE\VS2013\VC\INCLUDE\STREAMBUF
G:\SOFTWARE\VS2013\VC\INCLUDE\XIOSBASE
G:\SOFTWARE\VS2013\VC\INCLUDE\XLOCALE
G:\SOFTWARE\VS2013\VC\INCLUDE\CSTRING
G:\SOFTWARE\VS2013\VC\INCLUDE\STRING.H
G:\SOFTWARE\VS2013\VC\INCLUDE\STDEXCEPT
G:\SOFTWARE\VS2013\VC\INCLUDE\EXCEPTION
G:\SOFTWARE\VS2013\VC\INCLUDE\XSTDDEF
G:\SOFTWARE\VS2013\VC\INCLUDE\CSTDDEF
G:\SOFTWARE\VS2013\VC\INCLUDE\STDDEF.H
G:\SOFTWARE\VS2013\VC\INCLUDE\INITIALIZER_LIST
G:\SOFTWARE\VS2013\VC\INCLUDE\EH.H
G:\SOFTWARE\VS2013\VC\INCLUDE\MALLOC.H
G:\SOFTWARE\VS2013\VC\INCLUDE\XSTRING
G:\SOFTWARE\VS2013\VC\INCLUDE\XMEMORY0
G:\SOFTWARE\VS2013\VC\INCLUDE\LIMITS
G:\SOFTWARE\VS2013\VC\INCLUDE\YMATH.H
G:\SOFTWARE\VS2013\VC\INCLUDE\CFLOAT
G:\SOFTWARE\VS2013\VC\INCLUDE\FLOAT.H
G:\SOFTWARE\VS2013\VC\INCLUDE\CRTWRN.H
G:\SOFTWARE\VS2013\VC\INCLUDE\CWCHAR
G:\SOFTWARE\VS2013\VC\INCLUDE\WCHAR.H
G:\SOFTWARE\VS2013\VC\INCLUDE\WTIME.INL
G:\SOFTWARE\VS2013\VC\INCLUDE\NEW
G:\SOFTWARE\VS2013\VC\INCLUDE\XUTILITY
G:\SOFTWARE\VS2013\VC\INCLUDE\UTILITY
G:\SOFTWARE\VS2013\VC\INCLUDE\IOSFWD
G:\SOFTWARE\VS2013\VC\INCLUDE\CRTDBG.H
G:\SOFTWARE\VS2013\VC\INCLUDE\TYPE_TRAITS
G:\SOFTWARE\VS2013\VC\INCLUDE\XREFWRAP
G:\SOFTWARE\VS2013\VC\INCLUDE\XATOMIC0.H
G:\SOFTWARE\VS2013\VC\INCLUDE\INTRIN.H
G:\SOFTWARE\VS2013\VC\INCLUDE\SETJMP.H
G:\SOFTWARE\VS2013\VC\INCLUDE\IMMINTRIN.H
G:\SOFTWARE\VS2013\VC\INCLUDE\WMMINTRIN.H
G:\SOFTWARE\VS2013\VC\INCLUDE\NMMINTRIN.H
G:\SOFTWARE\VS2013\VC\INCLUDE\SMMINTRIN.H
G:\SOFTWARE\VS2013\VC\INCLUDE\TMMINTRIN.H
G:\SOFTWARE\VS2013\VC\INCLUDE\PMMINTRIN.H
G:\SOFTWARE\VS2013\VC\INCLUDE\EMMINTRIN.H
G:\SOFTWARE\VS2013\VC\INCLUDE\XMMINTRIN.H
G:\SOFTWARE\VS2013\VC\INCLUDE\MMINTRIN.H
G:\SOFTWARE\VS2013\VC\INCLUDE\AMMINTRIN.H
G:\SOFTWARE\VS2013\VC\INCLUDE\MM3DNOW.H
G:\SOFTWARE\VS2013\VC\INCLUDE\TYPEINFO
G:\SOFTWARE\VS2013\VC\INCLUDE\XLOCINFO
G:\SOFTWARE\VS2013\VC\INCLUDE\XLOCINFO.H
G:\SOFTWARE\VS2013\VC\INCLUDE\CTYPE.H
G:\SOFTWARE\VS2013\VC\INCLUDE\LOCALE.H
G:\SOFTWARE\VS2013\VC\INCLUDE\XDEBUG
G:\SOFTWARE\VS2013\VC\INCLUDE\XMEMORY
G:\SOFTWARE\VS2013\VC\INCLUDE\XFACET
G:\SOFTWARE\VS2013\VC\INCLUDE\SYSTEM_ERROR
G:\SOFTWARE\VS2013\VC\INCLUDE\CERRNO
G:\SOFTWARE\VS2013\VC\INCLUDE\ERRNO.H
^C:\SP\SRC\FGDLIB\WCKEYVALUES.CPP
C:\SP\SRC\PUBLIC\FGDLIB\WCKEYVALUES.H
C:\SP\SRC\PUBLIC\TIER0\DBG.H
C:\SP\SRC\PUBLIC\TIER0\BASETYPES.H
C:\SP\SRC\PUBLIC\TIER0\COMMONMACROS.H
C:\SP\SRC\PUBLIC\TIER0\PLATFORM.H
C:\SP\SRC\PUBLIC\TIER0\WCHARTYPES.H
C:\SP\SRC\PUBLIC\TIER0\VALVE_OFF.H
G:\SOFTWARE\VS2013\VC\INCLUDE\TCHAR.H
G:\SOFTWARE\VS2013\VC\INCLUDE\CRTDEFS.H
G:\SOFTWARE\VS2013\VC\INCLUDE\SAL.H
G:\SOFTWARE\VS2013\VC\INCLUDE\CONCURRENCYSAL.H
G:\SOFTWARE\VS2013\VC\INCLUDE\VADEFS.H
G:\SOFTWARE\VS2013\VC\INCLUDE\STRING.H
G:\SOFTWARE\VS2013\VC\INCLUDE\MBSTRING.H
C:\SP\SRC\PUBLIC\TIER0\VALVE_ON.H
G:\SOFTWARE\VS2013\VC\INCLUDE\MALLOC.H
G:\SOFTWARE\VS2013\VC\INCLUDE\NEW
G:\SOFTWARE\VS2013\VC\INCLUDE\EXCEPTION
G:\SOFTWARE\VS2013\VC\INCLUDE\XSTDDEF
G:\SOFTWARE\VS2013\VC\INCLUDE\STDLIB.H
G:\SOFTWARE\VS2013\VC\INCLUDE\LIMITS.H
G:\SOFTWARE\VS2013\VC\INCLUDE\CSTDDEF
G:\SOFTWARE\VS2013\VC\INCLUDE\YVALS.H
G:\SOFTWARE\VS2013\VC\INCLUDE\XKEYCHECK.H
G:\SOFTWARE\VS2013\VC\INCLUDE\USE_ANSI.H
G:\SOFTWARE\VS2013\VC\INCLUDE\STDDEF.H
G:\SOFTWARE\VS2013\VC\INCLUDE\INITIALIZER_LIST
G:\SOFTWARE\VS2013\VC\INCLUDE\XTR1COMMON
G:\SOFTWARE\VS2013\VC\INCLUDE\EH.H
C:\SP\SRC\PUBLIC\TIER0\VALVE_MINMAX_ON.H
C:\SP\SRC\PUBLIC\TIER0\ANNOTATIONS.H
C:\SP\SRC\PUBLIC\TIER0\FASTTIMER.H
G:\SOFTWARE\VS2013\VC\INCLUDE\INTRIN.H
G:\SOFTWARE\VS2013\VC\INCLUDE\SETJMP.H
G:\SOFTWARE\VS2013\VC\INCLUDE\IMMINTRIN.H
G:\SOFTWARE\VS2013\VC\INCLUDE\WMMINTRIN.H
G:\SOFTWARE\VS2013\VC\INCLUDE\NMMINTRIN.H
G:\SOFTWARE\VS2013\VC\INCLUDE\SMMINTRIN.H
G:\SOFTWARE\VS2013\VC\INCLUDE\TMMINTRIN.H
G:\SOFTWARE\VS2013\VC\INCLUDE\PMMINTRIN.H
G:\SOFTWARE\VS2013\VC\INCLUDE\EMMINTRIN.H
G:\SOFTWARE\VS2013\VC\INCLUDE\XMMINTRIN.H
G:\SOFTWARE\VS2013\VC\INCLUDE\MMINTRIN.H
G:\SOFTWARE\VS2013\VC\INCLUDE\AMMINTRIN.H
G:\SOFTWARE\VS2013\VC\INCLUDE\MM3DNOW.H
G:\SOFTWARE\VS2013\VC\INCLUDE\ASSERT.H
C:\SP\SRC\PUBLIC\TIER0\PROTECTED_THINGS.H
C:\SP\SRC\PUBLIC\TIER0\XBOX_CODELINE_DEFINES.H
C:\SP\SRC\PUBLIC\TIER0\DBGFLAG.H
G:\SOFTWARE\VS2013\VC\INCLUDE\MATH.H
G:\SOFTWARE\VS2013\VC\INCLUDE\STDIO.H
G:\SOFTWARE\VS2013\VC\INCLUDE\SWPRINTF.INL
G:\SOFTWARE\VS2013\VC\INCLUDE\STDARG.H
C:\SP\SRC\PUBLIC\TIER1\UTLVECTOR.H
C:\SP\SRC\PUBLIC\TIER0\THREADTOOLS.H
C:\SP\SRC\PUBLIC\TIER0\VCRMODE.H
G:\SOFTWARE\VS2013\VC\INCLUDE\PROCESS.H
