"LightmappedGeneric"
{
	"$basetexture" "RealWorldTextures2\tile\plastic_tile_01"
	"$surfaceprop" "plastic"
} //Realworld Textures Version 2 - Made by TopHATTwaffle - Please credit me if used! - Contact: www.tophattwaffle.com
