"LightmappedGeneric"
{
	"$basetexture" "RealWorldTextures2\tile\Tile_42"
	"$surfaceprop" "tile"
	"$envmap" "env_cubemap"
	"$envmaptint" "[.7 .7 .7]"
} //Realworld Textures Version 2 - Made by TopHATTwaffle - Please credit me if used! - Contact: www.tophattwaffle.com
