"LightmappedGeneric"
{
	"$basetexture" "RealWorldTextures2\tile\Tile_22"
	"$bumpmap" "RealWorldTextures2\tile\Tile_22_nrm"
	"$envmap" "env_cubemap"
	"$envmaptint" "[.8 .8 .8]"
	"$surfaceprop" "tile"
} //Realworld Textures Version 2 - Made by TopHATTwaffle - Please credit me if used! - Contact: www.tophattwaffle.com
