"LightmappedGeneric"
{
	"$basetexture" "RealWorldTextures2\tile\Tile_06"
	"$bumpmap" "RealWorldTextures2\tile\Tile_06_nrm"
//	"$envmapmask" "RealWorldTextures2\tile\Tile_06_spec"
	"$envmap" "env_cubemap"
	"$envmaptint" "[.8 .8 .8]"
	"$surfaceprop" "tile"
} //Realworld Textures Version 2 - Made by TopHATTwaffle - Please credit me if used! - Contact: www.tophattwaffle.com
