"LightmappedGeneric"
{
	"$basetexture" "RealWorldTextures2\tile\Tile_37"
	"$bumpmap" "RealWorldTextures2\tile\Tile_37_nrm"
	"$surfaceprop" "tile"
	"$envmap" "env_cubemap"
	"$envmaptint" "[.5 .5 .5]"
} //Realworld Textures Version 2 - Made by TopHATTwaffle - Please credit me if used! - Contact: www.tophattwaffle.com
