"VertexLitGeneric"
{
	"$basetexture" "models/aileen/pyro_new/pyrotex_classic_blu_paintable"
	"$bumpmap" "models/aileen/pyro_new/pyrotex_normal"
	"$detail" "effects/tiledfire/fireLayeredSlowTiled512.vtf"	
	"$detailscale" "5"
	"$detailblendfactor" 0.0
	"$detailblendmode" 6

	"$yellow" "0"
	"$one" "1"


	"$phong" "1"
	"$phongexponent" "15"
	"$phongboost" "1"	
	"$lightwarptexture" "models/player/pyro/pyro_lightwarp"
	"$phongfresnelranges"	"[2 1 5]"
	"$halflambert" "1"

	// Rim lighting parameters
	"$rimlight" "1"												// To enable rim lighting (requires phong)
	"$rimlightexponent" "4"										// Exponent for phong component of rim lighting	
	"$rimlightboost" "2"										// Boost for ambient cube component of rim lighting

	"$color2" "{ 255 255 255 }"
	"$colortint_base" "{ 255 255 255 }"
	"$colortint_tmp" "[0 0 0]"
	"$blendtintbybasealpha" "1"

	// Cloaking
	"$cloakPassEnabled" "1"

	"360?$color2" "[ 0.75 0.75 0.7 ]"

	"Proxies"
	{
		"spy_invis"
		{
		}
		"AnimatedTexture"
		{
			"animatedtexturevar" "$detail"
			"animatedtextureframenumvar" "$detailframe"
			"animatedtextureframerate" 30
		}
		"BurnLevel"
		{
			"resultVar" "$detailblendfactor"
		}
		"YellowLevel"
		{
			"resultVar" "$yellow"
		}
		"Equals"
		{
			"srcVar1"  "$yellow"
			"resultVar" "$color2"
		}
		"ItemTintColor"
		{
			"resultVar" "$colortint_tmp"
		}
		"SelectFirstIfNonZero"
		{
			"srcVar1"	"$colortint_tmp"
			"srcVar2"	"$colortint_base"
			"resultVar" "$color2"
		}
	}
}
