^C:\SP\SRC\TIER1\RELEASE\BITBUF.OBJ|C:\SP\SRC\TIER1\RELEASE\BYTESWAP.OBJ|C:\SP\SRC\TIER1\RELEASE\CHARACTERSET.OBJ|C:\SP\SRC\TIER1\RELEASE\CHECKSUM_CRC.OBJ|C:\SP\SRC\TIER1\RELEASE\CHECKSUM_MD5.OBJ|C:\SP\SRC\TIER1\RELEASE\CHECKSUM_SHA1.OBJ|C:\SP\SRC\TIER1\RELEASE\COMMANDBUFFER.OBJ|C:\SP\SRC\TIER1\RELEASE\CONVAR.OBJ|C:\SP\SRC\TIER1\RELEASE\DATAMANAGER.OBJ|C:\SP\SRC\TIER1\RELEASE\DIFF.OBJ|C:\SP\SRC\TIER1\RELEASE\GENERICHASH.OBJ|C:\SP\SRC\TIER1\RELEASE\ILOCALIZE.OBJ|C:\SP\SRC\TIER1\RELEASE\INTERFACE.OBJ|C:\SP\SRC\TIER1\RELEASE\KEYVALUES.OBJ|C:\SP\SRC\TIER1\RELEASE\KVPACKER.OBJ|C:\SP\SRC\TIER1\RELEASE\LZMADECODER.OBJ|C:\SP\SRC\TIER1\RELEASE\MEMPOOL.OBJ|C:\SP\SRC\TIER1\RELEASE\MEMSTACK.OBJ|C:\SP\SRC\TIER1\RELEASE\NETADR.OBJ|C:\SP\SRC\TIER1\RELEASE\NEWBITBUF.OBJ|C:\SP\SRC\TIER1\RELEASE\PROCESSOR_DETECT.OBJ|C:\SP\SRC\TIER1\RELEASE\RANGECHECKEDVAR.OBJ|C:\SP\SRC\TIER1\RELEASE\RELIABLETIMER.OBJ|C:\SP\SRC\TIER1\RELEASE\SNAPPY-SINKSOURCE.OBJ|C:\SP\SRC\TIER1\RELEASE\SNAPPY-STUBS-INTERNAL.OBJ|C:\SP\SRC\TIER1\RELEASE\SNAPPY.OBJ|C:\SP\SRC\TIER1\RELEASE\SPARSEMATRIX.OBJ|C:\SP\SRC\TIER1\RELEASE\SPLITSTRING.OBJ|C:\SP\SRC\TIER1\RELEASE\STRINGPOOL.OBJ|C:\SP\SRC\TIER1\RELEASE\STRTOOLS.OBJ|C:\SP\SRC\TIER1\RELEASE\TIER1.OBJ|C:\SP\SRC\TIER1\RELEASE\TOKENREADER.OBJ|C:\SP\SRC\TIER1\RELEASE\UNIQUEID.OBJ|C:\SP\SRC\TIER1\RELEASE\UTLBUFFER.OBJ|C:\SP\SRC\TIER1\RELEASE\UTLBUFFERUTIL.OBJ|C:\SP\SRC\TIER1\RELEASE\UTLSTRING.OBJ|C:\SP\SRC\TIER1\RELEASE\UTLSYMBOL.OBJ
C:\WINDOWS\SYSTEM32\TZRES.DLL
C:\PROGRAM FILES (X86)\MICROSOFT SDKS\WINDOWS\V7.1A\LIB\RPCRT4.LIB
C:\SP\SRC\TIER1\RELEASE\BITBUF.OBJ
C:\SP\SRC\TIER1\RELEASE\BYTESWAP.OBJ
C:\SP\SRC\TIER1\RELEASE\CHARACTERSET.OBJ
C:\SP\SRC\TIER1\RELEASE\CHECKSUM_CRC.OBJ
C:\SP\SRC\TIER1\RELEASE\CHECKSUM_MD5.OBJ
C:\SP\SRC\TIER1\RELEASE\CHECKSUM_SHA1.OBJ
C:\SP\SRC\TIER1\RELEASE\COMMANDBUFFER.OBJ
C:\SP\SRC\TIER1\RELEASE\CONVAR.OBJ
C:\SP\SRC\TIER1\RELEASE\DATAMANAGER.OBJ
C:\SP\SRC\TIER1\RELEASE\DIFF.OBJ
C:\SP\SRC\TIER1\RELEASE\GENERICHASH.OBJ
C:\SP\SRC\TIER1\RELEASE\ILOCALIZE.OBJ
C:\SP\SRC\TIER1\RELEASE\INTERFACE.OBJ
C:\SP\SRC\TIER1\RELEASE\KEYVALUES.OBJ
C:\SP\SRC\TIER1\RELEASE\KVPACKER.OBJ
C:\SP\SRC\TIER1\RELEASE\LZMADECODER.OBJ
C:\SP\SRC\TIER1\RELEASE\MEMPOOL.OBJ
C:\SP\SRC\TIER1\RELEASE\MEMSTACK.OBJ
C:\SP\SRC\TIER1\RELEASE\NETADR.OBJ
C:\SP\SRC\TIER1\RELEASE\NEWBITBUF.OBJ
C:\SP\SRC\TIER1\RELEASE\PROCESSOR_DETECT.OBJ
C:\SP\SRC\TIER1\RELEASE\RANGECHECKEDVAR.OBJ
C:\SP\SRC\TIER1\RELEASE\RELIABLETIMER.OBJ
C:\SP\SRC\TIER1\RELEASE\SNAPPY-SINKSOURCE.OBJ
C:\SP\SRC\TIER1\RELEASE\SNAPPY-STUBS-INTERNAL.OBJ
C:\SP\SRC\TIER1\RELEASE\SNAPPY.OBJ
C:\SP\SRC\TIER1\RELEASE\SPARSEMATRIX.OBJ
C:\SP\SRC\TIER1\RELEASE\SPLITSTRING.OBJ
C:\SP\SRC\TIER1\RELEASE\STRINGPOOL.OBJ
C:\SP\SRC\TIER1\RELEASE\STRTOOLS.OBJ
C:\SP\SRC\TIER1\RELEASE\TIER1.OBJ
C:\SP\SRC\TIER1\RELEASE\TOKENREADER.OBJ
C:\SP\SRC\TIER1\RELEASE\UNIQUEID.OBJ
C:\SP\SRC\TIER1\RELEASE\UTLBUFFER.OBJ
C:\SP\SRC\TIER1\RELEASE\UTLBUFFERUTIL.OBJ
C:\SP\SRC\TIER1\RELEASE\UTLSTRING.OBJ
C:\SP\SRC\TIER1\RELEASE\UTLSYMBOL.OBJ
C:\WINDOWS\GLOBALIZATION\SORTING\SORTDEFAULT.NLS
