^C:\SP\SRC\PUBLIC\TIER0\POINTEROVERRIDE.ASM
C:\SP\SRC\UTILS\PHONEMEEXTRACTOR\RELEASE\POINTEROVERRIDE.OBJ
^C:\SP\SRC\UTILS\PHONEMEEXTRACTOR\PHONEMEEXTRACTOR.VPC
C:\SP\SRC\UTILS\PHONEMEEXTRACTOR\PHONEMEEXTRACTOR.VPC.SENTINEL
