"LightmappedGeneric"
{
	"$basetexture" "RealWorldTextures2\Glass\glass_02"
	"$translucent" 1
	"$surfaceprop" "glass"
	"$envmap" "env_cubemap"
	"$envmaptint" "[.9 .9 .9]"
} //Realworld Textures Version 2 - Made by TopHATTwaffle - Please credit me if used! - Contact: www.tophattwaffle.com
