"LightmappedGeneric"
{
	"$basetexture" "RealWorldTextures2\Glass\glass_10"
	"$translucent" 1
	"$surfaceprop" "glass"
	"$envmap" "env_cubemap"
	"$envmaptint" "[.5 .5 .5]"
} //Realworld Textures Version 2 - Made by TopHATTwaffle - Please credit me if used! - Contact: www.tophattwaffle.com
