"VertexLitGeneric"
{
	"$basetexture"	"models/props_custom/speaker_biggie/speaker_biggie_anim"
	"$basemapalphaphongmask" "1"

	"$envmap" "env_cubemap"
	"$envmaptint" "[.3 .3 .3"
	"$basealphaenvmapmask"		"1"

	"$phong" "1"
	"$phongexponent" "4"
	"$phongboost" "1"	
	"$phongfresnelranges"	"[.7 15 20]"

	
	"Proxies"
	{
		"AnimatedTexture"
		{
		"animatedTextureVar" "$basetexture"
		"animatedTextureFrameNumVar" "$frame"
		"animatedTextureFrameRate" "15"
		}

}