^C:\SP\SRC\TIER1\BITBUF.CPP
C:\SP\SRC\TIER1\DEBUG\VC120.PDB
^C:\SP\SRC\TIER1\BYTESWAP.CPP
C:\SP\SRC\TIER1\DEBUG\VC120.PDB
^C:\SP\SRC\TIER1\CHARACTERSET.CPP
C:\SP\SRC\TIER1\DEBUG\VC120.PDB
^C:\SP\SRC\TIER1\CHECKSUM_CRC.CPP
C:\SP\SRC\TIER1\DEBUG\VC120.PDB
^C:\SP\SRC\TIER1\CHECKSUM_MD5.CPP
C:\SP\SRC\TIER1\DEBUG\VC120.PDB
^C:\SP\SRC\TIER1\CHECKSUM_SHA1.CPP
C:\SP\SRC\TIER1\DEBUG\VC120.PDB
^C:\SP\SRC\TIER1\COMMANDBUFFER.CPP
C:\SP\SRC\TIER1\DEBUG\VC120.PDB
^C:\SP\SRC\TIER1\CONVAR.CPP
C:\SP\SRC\TIER1\DEBUG\VC120.PDB
^C:\SP\SRC\TIER1\DATAMANAGER.CPP
C:\SP\SRC\TIER1\DEBUG\VC120.PDB
^C:\SP\SRC\TIER1\DIFF.CPP
C:\SP\SRC\TIER1\DEBUG\VC120.PDB
^C:\SP\SRC\TIER1\GENERICHASH.CPP
C:\SP\SRC\TIER1\DEBUG\VC120.PDB
^C:\SP\SRC\TIER1\ILOCALIZE.CPP
C:\SP\SRC\TIER1\DEBUG\VC120.PDB
^C:\SP\SRC\TIER1\INTERFACE.CPP
C:\SP\SRC\TIER1\DEBUG\VC120.PDB
^C:\SP\SRC\TIER1\KEYVALUES.CPP
C:\SP\SRC\TIER1\DEBUG\VC120.PDB
^C:\SP\SRC\TIER1\KVPACKER.CPP
C:\SP\SRC\TIER1\DEBUG\VC120.PDB
^C:\SP\SRC\TIER1\LZMADECODER.CPP
C:\SP\SRC\TIER1\DEBUG\VC120.PDB
^C:\SP\SRC\TIER1\MEMPOOL.CPP
C:\SP\SRC\TIER1\DEBUG\VC120.PDB
^C:\SP\SRC\TIER1\MEMSTACK.CPP
C:\SP\SRC\TIER1\DEBUG\VC120.PDB
^C:\SP\SRC\TIER1\NETADR.CPP
C:\SP\SRC\TIER1\DEBUG\VC120.PDB
^C:\SP\SRC\TIER1\NEWBITBUF.CPP
C:\SP\SRC\TIER1\DEBUG\VC120.PDB
^C:\SP\SRC\TIER1\RANGECHECKEDVAR.CPP
C:\SP\SRC\TIER1\DEBUG\VC120.PDB
^C:\SP\SRC\TIER1\RELIABLETIMER.CPP
C:\SP\SRC\TIER1\DEBUG\VC120.PDB
^C:\SP\SRC\TIER1\SNAPPY-SINKSOURCE.CPP
C:\SP\SRC\TIER1\DEBUG\VC120.PDB
^C:\SP\SRC\TIER1\SNAPPY-STUBS-INTERNAL.CPP
C:\SP\SRC\TIER1\DEBUG\VC120.PDB
^C:\SP\SRC\TIER1\SNAPPY.CPP
C:\SP\SRC\TIER1\DEBUG\VC120.PDB
^C:\SP\SRC\TIER1\SPARSEMATRIX.CPP
C:\SP\SRC\TIER1\DEBUG\VC120.PDB
^C:\SP\SRC\TIER1\SPLITSTRING.CPP
C:\SP\SRC\TIER1\DEBUG\VC120.PDB
^C:\SP\SRC\TIER1\STRINGPOOL.CPP
C:\SP\SRC\TIER1\DEBUG\VC120.PDB
^C:\SP\SRC\TIER1\STRTOOLS.CPP
C:\SP\SRC\TIER1\DEBUG\VC120.PDB
^C:\SP\SRC\TIER1\TIER1.CPP
C:\SP\SRC\TIER1\DEBUG\VC120.PDB
^C:\SP\SRC\TIER1\TOKENREADER.CPP
C:\SP\SRC\TIER1\DEBUG\VC120.PDB
^C:\SP\SRC\TIER1\UNIQUEID.CPP
C:\SP\SRC\TIER1\DEBUG\VC120.PDB
^C:\SP\SRC\TIER1\UTLBUFFER.CPP
C:\SP\SRC\TIER1\DEBUG\VC120.PDB
^C:\SP\SRC\TIER1\UTLBUFFERUTIL.CPP
C:\SP\SRC\TIER1\DEBUG\VC120.PDB
^C:\SP\SRC\TIER1\UTLSTRING.CPP
C:\SP\SRC\TIER1\DEBUG\VC120.PDB
^C:\SP\SRC\TIER1\UTLSYMBOL.CPP
C:\SP\SRC\TIER1\DEBUG\VC120.PDB
