"LightmappedGeneric"
{
	"$basetexture" "RealWorldTextures2\Decals\clock_03"
	"$translucent" 1
	"$decal" "1"
	"$decalscale" "0.35"
} //Realworld Textures Version 2 - Made by TopHATTwaffle - Please credit me if used! - Contact: www.tophattwaffle.com
