"LightmappedGeneric"
{
	"$basetexture" "RealWorldTextures2\Decals\dirt_decal_04"
	"$translucent" 1
	"$decal" "1"
	"$decalscale" "0.45"
} //Realworld Textures Version 2 - Made by TopHATTwaffle - Please credit me if used! - Contact: www.tophattwaffle.com
