"LightmappedGeneric"
{
	"$basetexture" "RealWorldTextures/Floor/Floor_2_07"
	"$bumpmap" "RealWorldTextures/Floor/Floor_1_07_nrm"
	"$surfaceprop" "brick"

}
//Texture Made By TopHATTwaffle
//Steam Account: Doogiehoogie
//Xfire: Rocketrascal34
//E-Mail: Doug@tophattwaffle.com
