"LightmappedGeneric"
{
	"$basetexture" "RealWorldTextures/Floor/Floor_1_16"
	"$surfaceprop" "tile"
	$envmap "env_cubemap"
	$envmaptint "[.6 .6 .6]"
	$envmapcontrast "1"
}
//Texture Made By TopHATTwaffle
//Steam Account: Doogiehoogie
//Xfire: Rocketrascal34
//E-Mail: Doug@tophattwaffle.com