"LightmappedGeneric"
{
	"$basetexture" "RealWorldTextures2\Concrete\Wall\concrete_wall_13"
	"$bumpmap" "RealWorldTextures2\Concrete\Wall\concrete_wall_13_nrm"
	"$surfaceprop" "concrete"
	"$detail" "RealWorldTextures2\detail\detail_concrete_03"
	"$detailblendfactor" ".4"
	"$envmap" "env_cubemap"
	"$envmaptint" "[.3 .3 .3]"
} //Realworld Textures Version 2 - Made by TopHATTwaffle - Please credit me if used! - Contact: www.tophattwaffle.com
