"LightmappedGeneric"
{
	"$basetexture" "RealWorldTextures2\Concrete\Wall\concrete_35"
	"$bumpmap" "RealWorldTextures2\Concrete\Wall\concrete_34_35_nrm"
	"$surfaceprop" "concrete"
	"$detail" "RealWorldTextures2\detail\detailconcrete001a"
} //Realworld Textures Version 2 - Made by TopHATTwaffle - Please credit me if used! - Contact: www.tophattwaffle.com
