"LightmappedGeneric"
{
	"$basetexture" "RealWorldTextures2\Concrete\Wall\concrete_wall_06"
	"$bumpmap" "RealWorldTextures2\Concrete\Wall\concrete_wall_06_nrm"
	"$surfaceprop" "concrete"
	"$detail" "RealWorldTextures2\detail\detail_concrete_03"
	"$detailblendfactor" ".2"
} //Realworld Textures Version 2 - Made by TopHATTwaffle - Please credit me if used! - Contact: www.tophattwaffle.com
