"LightmappedGeneric"
{
	"$basetexture" "RealWorldTextures2\Concrete\Wall\concrete_wall_14"
	"$bumpmap" "RealWorldTextures2\Concrete\Wall\concrete_wall_14_nrm"
	"$surfaceprop" "concrete"
	"$envmap" "env_cubemap"
	"$envmaptint" "[.3 .3 .3]"
} //Realworld Textures Version 2 - Made by TopHATTwaffle - Please credit me if used! - Contact: www.tophattwaffle.com
