"LightmappedGeneric"
{
	"$basetexture" "RealWorldTextures2\Misc\fabric\cloth_18"
	"$bumpmap" "RealWorldTextures2\Misc\fabric\cloth_18_nrm"
	"$surfaceprop" "carpet"
} //Realworld Textures Version 2 - Made by TopHATTwaffle - Please credit me if used! - Contact: www.tophattwaffle.com
