"LightmappedGeneric"
{
	"$basetexture" "RealWorldTextures2\Metal\metal_73"
	"$bumpmap" "RealWorldTextures2\Metal\metal_73_nrm"
	"$surfaceprop" "metal"
	"$envmap" "env_cubemap"
	"$envmaptint" "[.6 .6 .6]"
} //Realworld Textures Version 2 - Made by TopHATTwaffle - Please credit me if used! - Contact: www.tophattwaffle.com
