^C:\MP\SRC\UTILS\COMMON\CMDLIB.CPP
C:\MP\SRC\UTILS\CAPTIONCOMPILER\RELEASE\VC120.PDB
^C:\MP\SRC\PUBLIC\FILESYSTEM_HELPERS.CPP
C:\MP\SRC\UTILS\CAPTIONCOMPILER\RELEASE\VC120.PDB
^C:\MP\SRC\PUBLIC\FILESYSTEM_INIT.CPP
C:\MP\SRC\UTILS\CAPTIONCOMPILER\RELEASE\VC120.PDB
^C:\MP\SRC\UTILS\COMMON\PACIFIER.CPP
C:\MP\SRC\UTILS\CAPTIONCOMPILER\RELEASE\VC120.PDB
^C:\MP\SRC\UTILS\COMMON\SCRIPLIB.CPP
C:\MP\SRC\UTILS\CAPTIONCOMPILER\RELEASE\VC120.PDB
^C:\MP\SRC\PUBLIC\STRINGREGISTRY.CPP
C:\MP\SRC\UTILS\CAPTIONCOMPILER\RELEASE\VC120.PDB
^C:\MP\SRC\UTILS\CAPTIONCOMPILER\CAPTIONCOMPILER.CPP
C:\MP\SRC\UTILS\CAPTIONCOMPILER\RELEASE\VC120.PDB
^C:\MP\SRC\COMMON\COMPILEDCAPTIONSWAP.CPP
C:\MP\SRC\UTILS\CAPTIONCOMPILER\RELEASE\VC120.PDB
^C:\MP\SRC\UTILS\COMMON\FILESYSTEM_TOOLS.CPP
C:\MP\SRC\UTILS\CAPTIONCOMPILER\RELEASE\VC120.PDB
^C:\MP\SRC\PUBLIC\TIER0\MEMOVERRIDE.CPP
C:\MP\SRC\UTILS\CAPTIONCOMPILER\RELEASE\VC120.PDB
