"LightMappedGeneric"
{
"$baseTexture" "gmodsc/signs/radar/eastv"
"$surfaceprop" "Default"
"Proxies"
{
"AnimatedTexture"
{
"animatedTextureVar" "$basetexture"
"animatedTextureFrameNumVar" "$frame"
"animatedTextureFrameRate" "1"
}
}
}