^C:\SP\SRC\UTILS\QC_EYES\QC_EYES.RC
C:\SP\SRC\UTILS\QC_EYES\RESOURCE.H
G:\SOFTWARE\VS2013\VC\ATLMFC\INCLUDE\AFXRES.H
C:\PROGRAM FILES (X86)\MICROSOFT SDKS\WINDOWS\V7.1A\INCLUDE\WINRES.H
C:\PROGRAM FILES (X86)\MICROSOFT SDKS\WINDOWS\V7.1A\INCLUDE\WINRESRC.H
C:\PROGRAM FILES (X86)\MICROSOFT SDKS\WINDOWS\V7.1A\INCLUDE\WINUSER.RH
C:\PROGRAM FILES (X86)\MICROSOFT SDKS\WINDOWS\V7.1A\INCLUDE\COMMCTRL.RH
C:\PROGRAM FILES (X86)\MICROSOFT SDKS\WINDOWS\V7.1A\INCLUDE\DDE.RH
C:\PROGRAM FILES (X86)\MICROSOFT SDKS\WINDOWS\V7.1A\INCLUDE\WINNT.RH
C:\PROGRAM FILES (X86)\MICROSOFT SDKS\WINDOWS\V7.1A\INCLUDE\DLGS.H
C:\PROGRAM FILES (X86)\MICROSOFT SDKS\WINDOWS\V7.1A\INCLUDE\WINVER.H
C:\PROGRAM FILES (X86)\MICROSOFT SDKS\WINDOWS\V7.1A\INCLUDE\SPECSTRINGS.H
C:\PROGRAM FILES (X86)\MICROSOFT SDKS\WINDOWS\V7.1A\INCLUDE\SAL_SUPP.H
C:\PROGRAM FILES (X86)\MICROSOFT SDKS\WINDOWS\V7.1A\INCLUDE\SPECSTRINGS_SUPP.H
G:\SOFTWARE\VS2013\VC\INCLUDE\SAL.H
G:\SOFTWARE\VS2013\VC\INCLUDE\CONCURRENCYSAL.H
C:\PROGRAM FILES (X86)\MICROSOFT SDKS\WINDOWS\V7.1A\INCLUDE\DRIVERSPECS.H
C:\PROGRAM FILES (X86)\MICROSOFT SDKS\WINDOWS\V7.1A\INCLUDE\SDV_DRIVERSPECS.H
C:\PROGRAM FILES (X86)\MICROSOFT SDKS\WINDOWS\V7.1A\INCLUDE\VERRSRC.H
C:\SP\SRC\UTILS\QC_EYES\RES\QC_EYES.RC2
G:\SOFTWARE\VS2013\VC\ATLMFC\INCLUDE\AFXRES.RC
C:\SP\SRC\UTILS\QC_EYES\RES\QC_EYES.ICO
C:\SP\SRC\UTILS\QC_EYES\RES\EYE_DEFAULT.BMP
C:\SP\SRC\UTILS\QC_EYES\RES\EYE_LOWER_HI.BMP
C:\SP\SRC\UTILS\QC_EYES\RES\EYE_LOWER_LO.BMP
C:\SP\SRC\UTILS\QC_EYES\RES\EYE_LOWER_MID.BMP
C:\SP\SRC\UTILS\QC_EYES\RES\EYE_UPPER_HI.BMP
C:\SP\SRC\UTILS\QC_EYES\RES\EYE_UPPER_LO.BMP
C:\SP\SRC\UTILS\QC_EYES\RES\EYE_UPPER_MID.BMP
C:\SP\SRC\UTILS\QC_EYES\RES\EYE_XY_L.BMP
C:\SP\SRC\UTILS\QC_EYES\RES\EYE_XY_R.BMP
C:\SP\SRC\UTILS\QC_EYES\RES\EYE_Z_L.BMP
C:\SP\SRC\UTILS\QC_EYES\RES\EYE_Z_R.BMP
G:\SOFTWARE\VS2013\VC\ATLMFC\INCLUDE\RES\HELP.CUR
G:\SOFTWARE\VS2013\VC\ATLMFC\INCLUDE\RES\IM_PANN.CUR
G:\SOFTWARE\VS2013\VC\ATLMFC\INCLUDE\RES\IM_PANS.CUR
G:\SOFTWARE\VS2013\VC\ATLMFC\INCLUDE\RES\IM_PANE.CUR
G:\SOFTWARE\VS2013\VC\ATLMFC\INCLUDE\RES\IM_PANW.CUR
G:\SOFTWARE\VS2013\VC\ATLMFC\INCLUDE\RES\IM_PANNE.CUR
G:\SOFTWARE\VS2013\VC\ATLMFC\INCLUDE\RES\IM_PANNW.CUR
G:\SOFTWARE\VS2013\VC\ATLMFC\INCLUDE\RES\IM_PANSE.CUR
G:\SOFTWARE\VS2013\VC\ATLMFC\INCLUDE\RES\IM_PANSW.CUR
G:\SOFTWARE\VS2013\VC\ATLMFC\INCLUDE\RES\IM_PANH.CUR
G:\SOFTWARE\VS2013\VC\ATLMFC\INCLUDE\RES\IM_PANV.CUR
G:\SOFTWARE\VS2013\VC\ATLMFC\INCLUDE\RES\IM_PANHV.CUR
G:\SOFTWARE\VS2013\VC\ATLMFC\INCLUDE\RES\IM_ORGH.CUR
G:\SOFTWARE\VS2013\VC\ATLMFC\INCLUDE\RES\IM_ORGV.CUR
G:\SOFTWARE\VS2013\VC\ATLMFC\INCLUDE\RES\IM_ORGHV.CUR
G:\SOFTWARE\VS2013\VC\ATLMFC\INCLUDE\RES\MINIFWND.BMP
G:\SOFTWARE\VS2013\VC\ATLMFC\INCLUDE\RES\95CHECK.BMP
