^C:\SP\SRC\MATERIALSYSTEM\STDSHADERS\BASEVSSHADER.CPP
C:\SP\SRC\MATERIALSYSTEM\STDSHADERS\RELEASE_DX9_MOD_EPISODIC\VC120.PDB
^C:\SP\SRC\MATERIALSYSTEM\STDSHADERS\BLOOM.CPP
C:\SP\SRC\MATERIALSYSTEM\STDSHADERS\RELEASE_DX9_MOD_EPISODIC\VC120.PDB
^C:\SP\SRC\MATERIALSYSTEM\STDSHADERS\EXAMPLE_MODEL_DX9.CPP
C:\SP\SRC\MATERIALSYSTEM\STDSHADERS\RELEASE_DX9_MOD_EPISODIC\VC120.PDB
^C:\SP\SRC\MATERIALSYSTEM\STDSHADERS\EXAMPLE_MODEL_DX9_HELPER.CPP
C:\SP\SRC\MATERIALSYSTEM\STDSHADERS\RELEASE_DX9_MOD_EPISODIC\VC120.PDB
^C:\SP\SRC\PUBLIC\TIER0\MEMOVERRIDE.CPP
C:\SP\SRC\MATERIALSYSTEM\STDSHADERS\RELEASE_DX9_MOD_EPISODIC\VC120.PDB
^C:\SP\SRC\MATERIALSYSTEM\STDSHADERS\SCREENSPACE_GENERAL.CPP
C:\SP\SRC\MATERIALSYSTEM\STDSHADERS\RELEASE_DX9_MOD_EPISODIC\VC120.PDB
