^C:\SP\SRC\PUBLIC\TIER0\POINTEROVERRIDE.ASM
C:\SP\SRC\MATERIALSYSTEM\STDSHADERS\RELEASE_DX9_MOD_EPISODIC\POINTEROVERRIDE.OBJ
^C:\SP\SRC\MATERIALSYSTEM\STDSHADERS\GAME_SHADER_DX9_EPISODIC.VPC
C:\SP\SRC\MATERIALSYSTEM\STDSHADERS\GAME_SHADER_DX9_EPISODIC.VPC.SENTINEL
