"VertexLitGeneric"
{
	"$basetexture" "models\theimperialcombine\theimperialcombine/spy_head_red"
	"$bumpmap"     "models/player/spy/hwm/spy_head_phongmask"
	"$compress"    "models\theimperialcombine\theimperialcombine/spy_head_red_compress"
	"$stretch"     "models\theimperialcombine\theimperialcombine/spy_head_red_stretch"

	"$detail" "effects/tiledfire/fireLayeredSlowTiled512.vtf"	
	"$detailscale" "1"
	"$detailblendfactor" .01
	"$detailblendmode" 6

	"$phong" "1"
	"$phongexponenttexture" "models/player/spy/hwm/spy_head_exponent"
	"$phongboost" "1"	
	"$lightwarptexture" "models/player/pyro/pyro_lightwarp"
	"$phongfresnelranges"	"[.3 1 8]"
	"$halflambert" "0"

	// Rim lighting parameters
	"$rimlight" "1"					// To enable rim lighting (requires phong)
	"$rimlightexponent" "4"			// Exponent for phong component of rim lighting	
	"$rimlightboost" "2"			// Boost for ambient cube component of rim lighting
	"$rimmask" "1"                  // Use the alpha channel of the $phongexponenttexture as a rim mask.
	
	// Cloaking
	"$cloakPassEnabled" "1"
	"$cloakColorTint" "[1 0.5 0.4]"
	"$yellow" "0"

	"$color2" "{ 20 20 20}"
	"$colortint_base" "{ 20 20 20 }"
	"$colortint_tmp" "[0 0 0]"
	"$blendtintbybasealpha" "1"

	"Proxies"
	{
		"spy_invis"
		{
		}
		"AnimatedTexture"
		{
			"animatedtexturevar" "$detail"
			"animatedtextureframenumvar" "$detailframe"
			"animatedtextureframerate" 30
		}
		"BurnLevel"
		{
			"resultVar" "$detailblendfactor"
		}
		"YellowLevel"
		{
			"resultVar" "$yellow"
		}
		"Equals"
		{
			"srcVar1"  "$yellow"
			"resultVar" "$color2"
		}
		"ItemTintColor"
		{
			"resultVar" "$colortint_tmp"
		}
		"SelectFirstIfNonZero"
		{
			"srcVar1"	"$colortint_tmp"
			"srcVar2"	"$colortint_base"
			"resultVar" "$color2"
		}
	}
}