"LightmappedGeneric"
{
	"$basetexture" "RealWorldTextures2\Wall\Brick_wall_33"
	"$bumpmap" "RealWorldTextures2\Wall\Brick_wall_33_nrm"
	"$surfaceprop" "brick"
	"$detail" "RealWorldTextures2\detail\noise_detail_01"
	"$detailblendfactor" ".3"
	"$detailscale" "4"
	"$envmap" "env_cubemap"
	"$envmaptint" "[.6 .6 .6]"
} //Realworld Textures Version 2 - Made by TopHATTwaffle - Please credit me if used! - Contact: www.tophattwaffle.com
