"LightmappedGeneric"
{
	"$basetexture" "RealWorldTextures2\Wall\Brick_wall_05"
	"$bumpmap" "RealWorldTextures2\Wall\Brick_wall_05_nrm"
	"$surfaceprop" "brick"
} //Realworld Textures Version 2 - Made by TopHATTwaffle - Please credit me if used! - Contact: www.tophattwaffle.com
