"LightmappedGeneric"
{
	"$basetexture" "RealWorldTextures2\Wall\Brick_wall_08"
	"$bumpmap" "RealWorldTextures2\Wall\Brick_wall_08_nrm"
	"$surfaceprop" "brick"
	"$detail" "RealWorldTextures2\detail\detailconcrete001a"
	"$detailblendfactor" ".3"
	"$detailscale" "4"
} //Realworld Textures Version 2 - Made by TopHATTwaffle - Please credit me if used! - Contact: www.tophattwaffle.com
