"LightmappedGeneric"
{
	"$basetexture" "RealWorldTextures2\Wall\Brick_wall_35"
	"$bumpmap" "RealWorldTextures2\Wall\Brick_wall_35_nrm"
	"$surfaceprop" "brick"
	"$detail" "RealWorldTextures2\detail\noise_detail_01"
	"$detailblendfactor" ".3"
	"$detailscale" "4"
} //Realworld Textures Version 2 - Made by TopHATTwaffle - Please credit me if used! - Contact: www.tophattwaffle.com
