"LightmappedGeneric"
{
	"$basetexture" "RealWorldTextures2\Wall\plaster_wall_rough_09"
	"$bumpmap" "RealWorldTextures2\Wall\plaster_wall_rough_09_nrm"
	"$surfaceprop" "plaster"
	"$detail" "RealWorldTextures2\detail\plaster_detail_01"
	"$detailblendfactor" ".3"
	"$detailscale" "5"
} //Realworld Textures Version 2 - Made by TopHATTwaffle - Please credit me if used! - Contact: www.tophattwaffle.com
