"LightmappedGeneric"
{
	"$basetexture" "RealWorldTextures2\Wall\plaster_wall_24"
	"$surfaceprop" "plaster"
} //Realworld Textures Version 2 - Made by TopHATTwaffle - Please credit me if used! - Contact: www.tophattwaffle.com
