"LightmappedGeneric"
{
	"$basetexture" "RealWorldTextures2\Metal\wall\Metal_27"
	"$bumpmap" "RealWorldTextures2\Metal\wall\Metal_26_27_nrm"
	"$envmapmask" "RealWorldTextures2\Metal\wall\Metal_26_27_28_29_30_31_32_33_34_35_SPEC"
	"$detail" "RealWorldTextures2\detail\dt_metal2"
	"$detailblendfactor" ".5"
	"$detailscale" "7"
	"$envmap" "env_cubemap"
	"$surfaceprop" "metal"
} //Realworld Textures Version 2 - Made by TopHATTwaffle - Please credit me if used! - Contact: www.tophattwaffle.com
