"LightmappedGeneric"
{
	"$basetexture" "RealWorldTextures2\Metal\wall\metal_133"
	"$bumpmap" "RealWorldTextures2\Metal\wall\metal_133_nrm"
	"$detail" "RealWorldTextures2\detail\metal_detail_01"
	"$detailblendfactor" ".7"
	"$detailscale" "4"
	"$surfaceprop" "metal"
	"$envmap" "env_cubemap"
	"$envmaptint" "[.7 .7 .7]"
} //Realworld Textures Version 2 - Made by TopHATTwaffle - Please credit me if used! - Contact: www.tophattwaffle.com
