"LightmappedGeneric"
{
	"$basetexture" "RealWorldTextures2\Metal\wall\metal_49"
	"$bumpmap" "RealWorldTextures2\Metal\wall\metal_49_nrm"
	"$detail" "RealWorldTextures2\detail\metal_detail_01"
	"$detailblendfactor" ".6"
	"$detailscale" "4"
	"$surfaceprop" "metal"
} //Realworld Textures Version 2 - Made by TopHATTwaffle - Please credit me if used! - Contact: www.tophattwaffle.com
