"LightmappedGeneric"
{
	"$basetexture" "RealWorldTextures2\Metal\wall\Metal_47"
	"$bumpmap" "RealWorldTextures2\Metal\wall\Metal_47_nrm"
	"$envmapmask" "RealWorldTextures2\Metal\wall\Metal_47_SPEC"
	"$envmap" "env_cubemap"
	"$surfaceprop" "metal"
} //Realworld Textures Version 2 - Made by TopHATTwaffle - Please credit me if used! - Contact: www.tophattwaffle.com
