"LightmappedGeneric"
{
	"$basetexture" "RealWorldTextures2\Wood\wood_15"
	"$surfaceprop" "wood"
	"$detail" "RealWorldTextures2\detail\dt_wood2"
	"$detailblendfactor" ".4"
	"$detailscale" "7"
} //Realworld Textures Version 2 - Made by TopHATTwaffle - Please credit me if used! - Contact: www.tophattwaffle.com
