"LightmappedGeneric"
{
	"$basetexture" "RealWorldTextures2\Wood\wood_129"
	"$surfaceprop" "wood"
} //Realworld Textures Version 2 - Made by TopHATTwaffle - Please credit me if used! - Contact: www.tophattwaffle.com
