"LightmappedGeneric"
{
	"$basetexture" "RealWorldTextures2\Wood\wood_66"
	"$bumpmap" "RealWorldTextures2\Wood\wood_66_nrm"
	"$detail" "RealWorldTextures2\detail\dt_wood1"
	"$detailblendfactor" ".3"
	"$detailscale" "7"
	"$surfaceprop" "wood"
	"$envmap" "env_cubemap"
	"$envmaptint" "[.4 .4 .4]"
} //Realworld Textures Version 2 - Made by TopHATTwaffle - Please credit me if used! - Contact: www.tophattwaffle.com
