"LightmappedGeneric"
{
	"$basetexture" "RealWorldTextures2\Wood\wood_104"
	"$translucent" 1
	"$detail" "RealWorldTextures2\detail\dt_wood2"
	"$detailblendfactor" ".8"
	"$detailscale" "7"
	"$surfaceprop" "wood"
} //Realworld Textures Version 2 - Made by TopHATTwaffle - Please credit me if used! - Contact: www.tophattwaffle.com
