^C:\MP\SRC\PUBLIC\TIER0\POINTEROVERRIDE.ASM
"G:\Software\VS2013\VC\bin\ml.exe" /safeseh /c /Cp /Zi /Fo".\Release_mod_hl2mp\\pointeroverride.obj" "C:\mp\src\public\tier0\pointeroverride.asm"
^C:\MP\SRC\GAME\SERVER\SERVER_HL2MP.VPC
if exist "..\..\devtools\bin\vpc.exe" "..\..\devtools\bin\vpc.exe" -crc2 "server_hl2mp.vcxproj"if ERRORLEVEL 1 exit /b 1echo crc_complete > C:\mp\src\game\server\server_hl2mp.vpc.sentinel
