"LightmappedGeneric"
{
	"$basetexture" "RealWorldTextures2\Concrete\asphault_blacktop_02"
	"$surfaceprop" "concrete"
	$translucent 1
} //Realworld Textures Version 2 - Made by TopHATTwaffle - Please credit me if used! - Contact: www.tophattwaffle.com
