"LightmappedGeneric"
{
	"$basetexture" "RealWorldTextures2\Concrete\concrete_24"
	"$bumpmap" "RealWorldTextures2\Concrete\concrete_24_nrm"
	"$surfaceprop" "concrete"
	"$detail" "RealWorldTextures2\detail\detail_concrete_03"
	"$detailblendfactor" ".4"
} //Realworld Textures Version 2 - Made by TopHATTwaffle - Please credit me if used! - Contact: www.tophattwaffle.com
