"LightmappedGeneric"
{
	"$basetexture" "RealWorldTextures2\Concrete\concrete_27"
	"$bumpmap" "RealWorldTextures2\Concrete\concrete_27_nrm"
	"$surfaceprop" "concrete"
} //Realworld Textures Version 2 - Made by TopHATTwaffle - Please credit me if used! - Contact: www.tophattwaffle.com
