"LightmappedGeneric"
{
	"$basetexture" "RealWorldTextures2\Concrete\concrete_37"
	"$detail" "RealWorldTextures2\detail\detailconcrete001a"
	"$surfaceprop" "concrete"
	"$detailblendfactor" ".4"
} //Realworld Textures Version 2 - Made by TopHATTwaffle - Please credit me if used! - Contact: www.tophattwaffle.com
