"LightmappedGeneric"
{
	"$basetexture" "RealWorldTextures2\Concrete\road_street_04"
	"$surfaceprop" "concrete"
} //Realworld Textures Version 2 - Made by TopHATTwaffle - Please credit me if used! - Contact: www.tophattwaffle.com
