^C:\SP\SRC\PUBLIC\TIER0\POINTEROVERRIDE.ASM
"G:\Software\VS2013\VC\bin\ml.exe" /safeseh /c /Cp /Zi /Fo".\Release_mod_episodic\\pointeroverride.obj" "C:\sp\src\public\tier0\pointeroverride.asm"
^C:\SP\SRC\GAME\CLIENT\CLIENT_EPISODIC.VPC
if exist "..\..\devtools\bin\vpc.exe" "..\..\devtools\bin\vpc.exe" -crc2 "client_episodic.vcxproj"if ERRORLEVEL 1 exit /b 1echo crc_complete > C:\sp\src\game\client\client_episodic.vpc.sentinel
