"LightmappedGeneric"
{
	"$basetexture" "RealWorldTextures2\Concrete\ground\concrete_02"
	"$bumpmap" "RealWorldTextures2\Concrete\ground\concrete_02_nrm"
	"$surfaceprop" "concrete"
	"$detail" "RealWorldTextures2\detail\noise_detail_01"
	"$detailblendfactor" ".7"
} //Realworld Textures Version 2 - Made by TopHATTwaffle - Please credit me if used! - Contact: www.tophattwaffle.com
