^C:\SP\SRC\PUBLIC\TIER0\POINTEROVERRIDE.ASM
"G:\Software\VS2013\VC\bin\ml.exe" /c /Cp /Zi /Fo".\Release\.\\pointeroverride.obj" "C:\sp\src\public\tier0\pointeroverride.asm"
^C:\SP\SRC\UTILS\VICE\VICE.VPC
if exist "..\..\devtools\bin\vpc.exe" "..\..\devtools\bin\vpc.exe" -crc2 "vice.vcxproj"if ERRORLEVEL 1 exit /b 1echo crc_complete > C:\sp\src\utils\vice\vice.vpc.sentinel
