^C:\MP\SRC\UTILS\HEIGHT2NORMAL\HEIGHT2NORMAL.CPP
G:\SOFTWARE\VS2013\VC\BIN\1033\CLUI.DLL
C:\WINDOWS\GLOBALIZATION\SORTING\SORTDEFAULT.NLS
C:\WINDOWS\SYSTEM32\TZRES.DLL
G:\SOFTWARE\VS2013\VC\INCLUDE\STDIO.H
G:\SOFTWARE\VS2013\VC\INCLUDE\CRTDEFS.H
G:\SOFTWARE\VS2013\VC\INCLUDE\SAL.H
G:\SOFTWARE\VS2013\VC\INCLUDE\CONCURRENCYSAL.H
G:\SOFTWARE\VS2013\VC\INCLUDE\VADEFS.H
G:\SOFTWARE\VS2013\VC\INCLUDE\SWPRINTF.INL
G:\SOFTWARE\VS2013\VC\INCLUDE\STDLIB.H
G:\SOFTWARE\VS2013\VC\INCLUDE\LIMITS.H
G:\SOFTWARE\VS2013\VC\INCLUDE\DIRECT.H
C:\MP\SRC\PUBLIC\BITMAP\IMAGEFORMAT.H
C:\MP\SRC\PUBLIC\TIER1\STRTOOLS.H
C:\MP\SRC\PUBLIC\TIER0\PLATFORM.H
C:\MP\SRC\PUBLIC\TIER0\WCHARTYPES.H
C:\MP\SRC\PUBLIC\TIER0\VALVE_OFF.H
G:\SOFTWARE\VS2013\VC\INCLUDE\TCHAR.H
G:\SOFTWARE\VS2013\VC\INCLUDE\STRING.H
G:\SOFTWARE\VS2013\VC\INCLUDE\MBSTRING.H
C:\MP\SRC\PUBLIC\TIER0\VALVE_ON.H
C:\MP\SRC\PUBLIC\TIER0\BASETYPES.H
C:\MP\SRC\PUBLIC\TIER0\COMMONMACROS.H
C:\MP\SRC\PUBLIC\TIER0\PROTECTED_THINGS.H
C:\MP\SRC\PUBLIC\TIER0\XBOX_CODELINE_DEFINES.H
C:\MP\SRC\PUBLIC\TIER0\VALVE_MINMAX_ON.H
G:\SOFTWARE\VS2013\VC\INCLUDE\MALLOC.H
G:\SOFTWARE\VS2013\VC\INCLUDE\NEW
G:\SOFTWARE\VS2013\VC\INCLUDE\EXCEPTION
G:\SOFTWARE\VS2013\VC\INCLUDE\XSTDDEF
G:\SOFTWARE\VS2013\VC\INCLUDE\CSTDDEF
G:\SOFTWARE\VS2013\VC\INCLUDE\YVALS.H
G:\SOFTWARE\VS2013\VC\INCLUDE\XKEYCHECK.H
G:\SOFTWARE\VS2013\VC\INCLUDE\USE_ANSI.H
G:\SOFTWARE\VS2013\VC\INCLUDE\STDDEF.H
G:\SOFTWARE\VS2013\VC\INCLUDE\INITIALIZER_LIST
G:\SOFTWARE\VS2013\VC\INCLUDE\XTR1COMMON
G:\SOFTWARE\VS2013\VC\INCLUDE\EH.H
C:\MP\SRC\PUBLIC\TIER0\ANNOTATIONS.H
C:\MP\SRC\PUBLIC\TIER0\FASTTIMER.H
G:\SOFTWARE\VS2013\VC\INCLUDE\INTRIN.H
G:\SOFTWARE\VS2013\VC\INCLUDE\SETJMP.H
G:\SOFTWARE\VS2013\VC\INCLUDE\IMMINTRIN.H
G:\SOFTWARE\VS2013\VC\INCLUDE\WMMINTRIN.H
G:\SOFTWARE\VS2013\VC\INCLUDE\NMMINTRIN.H
G:\SOFTWARE\VS2013\VC\INCLUDE\SMMINTRIN.H
G:\SOFTWARE\VS2013\VC\INCLUDE\TMMINTRIN.H
G:\SOFTWARE\VS2013\VC\INCLUDE\PMMINTRIN.H
G:\SOFTWARE\VS2013\VC\INCLUDE\EMMINTRIN.H
G:\SOFTWARE\VS2013\VC\INCLUDE\XMMINTRIN.H
G:\SOFTWARE\VS2013\VC\INCLUDE\MMINTRIN.H
G:\SOFTWARE\VS2013\VC\INCLUDE\AMMINTRIN.H
G:\SOFTWARE\VS2013\VC\INCLUDE\MM3DNOW.H
G:\SOFTWARE\VS2013\VC\INCLUDE\ASSERT.H
G:\SOFTWARE\VS2013\VC\INCLUDE\CTYPE.H
G:\SOFTWARE\VS2013\VC\INCLUDE\STDARG.H
C:\MP\SRC\PUBLIC\MATHLIB\MATHLIB.H
G:\SOFTWARE\VS2013\VC\INCLUDE\MATH.H
C:\MP\SRC\PUBLIC\MATHLIB\VECTOR.H
G:\SOFTWARE\VS2013\VC\INCLUDE\FLOAT.H
G:\SOFTWARE\VS2013\VC\INCLUDE\CRTWRN.H
C:\MP\SRC\PUBLIC\TIER0\DBG.H
C:\MP\SRC\PUBLIC\TIER0\DBGFLAG.H
C:\MP\SRC\PUBLIC\TIER0\THREADTOOLS.H
C:\MP\SRC\PUBLIC\TIER0\VCRMODE.H
G:\SOFTWARE\VS2013\VC\INCLUDE\PROCESS.H
C:\MP\SRC\PUBLIC\TIER0\VCR_SHARED.H
C:\MP\SRC\PUBLIC\MATHLIB\VECTOR2D.H
C:\MP\SRC\PUBLIC\MATHLIB\MATH_PFNS.H
C:\MP\SRC\PUBLIC\MINMAX.H
C:\MP\SRC\PUBLIC\BITMAP\TGAWRITER.H
C:\MP\SRC\PUBLIC\TIER1\INTERFACE.H
C:\MP\SRC\PUBLIC\BITMAP\TGALOADER.H
C:\MP\SRC\PUBLIC\TIER1\UTLMEMORY.H
C:\MP\SRC\PUBLIC\TIER0\MEMALLOC.H
C:\MP\SRC\PUBLIC\TIER0\MEM.H
C:\MP\SRC\PUBLIC\TIER0\MEMDBGON.H
C:\MP\SRC\PUBLIC\TIER0\MEMDBGOFF.H
G:\SOFTWARE\VS2013\VC\INCLUDE\CONIO.H
C:\MP\SRC\PUBLIC\TIER1\UTLBUFFER.H
C:\MP\SRC\PUBLIC\TIER1\BYTESWAP.H
C:\MP\SRC\PUBLIC\DATAMAP.H
C:\MP\SRC\PUBLIC\TIER1\UTLVECTOR.H
C:\MP\SRC\PUBLIC\TIER1\UTLBLOCKMEMORY.H
C:\MP\SRC\PUBLIC\VSTDLIB\RANDOM.H
C:\MP\SRC\PUBLIC\VSTDLIB\VSTDLIB.H
C:\MP\SRC\PUBLIC\TIER2\TIER2.H
C:\MP\SRC\PUBLIC\TIER1\TIER1.H
C:\MP\SRC\PUBLIC\APPFRAMEWORK\IAPPSYSTEM.H
C:\MP\SRC\PUBLIC\TIER1\CONVAR.H
C:\MP\SRC\PUBLIC\TIER1\ICONVAR.H
C:\MP\SRC\PUBLIC\TIER1\UTLSTRING.H
C:\MP\SRC\PUBLIC\ICVAR.H
C:\MP\SRC\PUBLIC\FILESYSTEM.H
C:\MP\SRC\PUBLIC\TIER1\UTLSYMBOL.H
C:\MP\SRC\PUBLIC\TIER1\UTLRBTREE.H
C:\MP\SRC\PUBLIC\TIER1\UTLFIXEDMEMORY.H
C:\MP\SRC\PUBLIC\TIER1\CHECKSUM_CRC.H
C:\MP\SRC\PUBLIC\TIER1\CHECKSUM_MD5.H
C:\MP\SRC\PUBLIC\TIER1\REFCOUNT.H
C:\MP\SRC\PUBLIC\FILESYSTEM_PASSTHRU.H
