^C:\mp\src\utils\height2normal\height2normal.vcxproj
C:\mp\src\utils\height2normal\Release\height2normal.lib
C:\mp\src\utils\height2normal\Release\height2normal.exp
^C:\mp\src\utils\height2normal\height2normal.vcxproj
C:\mp\src\utils\height2normal\Release\height2normal.lib
C:\mp\src\utils\height2normal\Release\height2normal.exp
