^C:\MP\SRC\UTILS\VBSP\BOUNDBOX.CPP
C:\MP\SRC\UTILS\VBSP\RELEASE\VC120.PDB
^C:\MP\SRC\UTILS\VBSP\BRUSHBSP.CPP
C:\MP\SRC\UTILS\VBSP\RELEASE\VC120.PDB
^C:\MP\SRC\PUBLIC\COLLISIONUTILS.CPP
C:\MP\SRC\UTILS\VBSP\RELEASE\VC120.PDB
^C:\MP\SRC\UTILS\VBSP\CSG.CPP
C:\MP\SRC\UTILS\VBSP\RELEASE\VC120.PDB
^C:\MP\SRC\UTILS\VBSP\CUBEMAP.CPP
C:\MP\SRC\UTILS\VBSP\RELEASE\VC120.PDB
^C:\MP\SRC\UTILS\VBSP\DETAIL.CPP
C:\MP\SRC\UTILS\VBSP\RELEASE\VC120.PDB
^C:\MP\SRC\UTILS\VBSP\DETAILOBJECTS.CPP
C:\MP\SRC\UTILS\VBSP\RELEASE\VC120.PDB
^C:\MP\SRC\PUBLIC\DISP_COMMON.CPP
C:\MP\SRC\UTILS\VBSP\RELEASE\VC120.PDB
^C:\MP\SRC\UTILS\VBSP\DISP_IVP.CPP
C:\MP\SRC\UTILS\VBSP\RELEASE\VC120.PDB
^C:\MP\SRC\PUBLIC\DISP_POWERINFO.CPP
C:\MP\SRC\UTILS\VBSP\RELEASE\VC120.PDB
^C:\MP\SRC\UTILS\VBSP\DISP_VBSP.CPP
C:\MP\SRC\UTILS\VBSP\RELEASE\VC120.PDB
^C:\MP\SRC\UTILS\VBSP\FACES.CPP
C:\MP\SRC\UTILS\VBSP\RELEASE\VC120.PDB
^C:\MP\SRC\UTILS\VBSP\GLFILE.CPP
C:\MP\SRC\UTILS\VBSP\RELEASE\VC120.PDB
^C:\MP\SRC\UTILS\VBSP\IVP.CPP
C:\MP\SRC\UTILS\VBSP\RELEASE\VC120.PDB
^C:\MP\SRC\UTILS\VBSP\LEAKFILE.CPP
C:\MP\SRC\UTILS\VBSP\RELEASE\VC120.PDB
^C:\MP\SRC\PUBLIC\LOADCMDLINE.CPP
C:\MP\SRC\UTILS\VBSP\RELEASE\VC120.PDB
^C:\MP\SRC\PUBLIC\LUMPFILES.CPP
C:\MP\SRC\UTILS\VBSP\RELEASE\VC120.PDB
^C:\MP\SRC\UTILS\VBSP\MANIFEST.CPP
C:\MP\SRC\UTILS\VBSP\RELEASE\VC120.PDB
^C:\MP\SRC\UTILS\VBSP\MAP.CPP
C:\MP\SRC\UTILS\VBSP\RELEASE\VC120.PDB
^C:\MP\SRC\UTILS\VBSP\MATERIALPATCH.CPP
C:\MP\SRC\UTILS\VBSP\RELEASE\VC120.PDB
^C:\MP\SRC\UTILS\VBSP\MATERIALSUB.CPP
C:\MP\SRC\UTILS\VBSP\RELEASE\VC120.PDB
^C:\MP\SRC\PUBLIC\TIER0\MEMOVERRIDE.CPP
C:\MP\SRC\UTILS\VBSP\RELEASE\VC120.PDB
^C:\MP\SRC\UTILS\COMMON\MSTRISTRIP.CPP
C:\MP\SRC\UTILS\VBSP\RELEASE\VC120.PDB
^C:\MP\SRC\UTILS\VBSP\NODRAW.CPP
C:\MP\SRC\UTILS\VBSP\RELEASE\VC120.PDB
^C:\MP\SRC\UTILS\VBSP\NORMALS.CPP
C:\MP\SRC\UTILS\VBSP\RELEASE\VC120.PDB
^C:\MP\SRC\UTILS\VBSP\OVERLAY.CPP
C:\MP\SRC\UTILS\VBSP\RELEASE\VC120.PDB
^C:\MP\SRC\UTILS\COMMON\PHYSDLL.CPP
C:\MP\SRC\UTILS\VBSP\RELEASE\VC120.PDB
^C:\MP\SRC\UTILS\VBSP\PORTALS.CPP
C:\MP\SRC\UTILS\VBSP\RELEASE\VC120.PDB
^C:\MP\SRC\UTILS\VBSP\PRTFILE.CPP
C:\MP\SRC\UTILS\VBSP\RELEASE\VC120.PDB
^C:\MP\SRC\PUBLIC\SCRATCHPAD3D.CPP
C:\MP\SRC\UTILS\VBSP\RELEASE\VC120.PDB
^C:\MP\SRC\UTILS\COMMON\SCRATCHPAD_HELPERS.CPP
C:\MP\SRC\UTILS\VBSP\RELEASE\VC120.PDB
^C:\MP\SRC\UTILS\VBSP\STATICPROP.CPP
C:\MP\SRC\UTILS\VBSP\RELEASE\VC120.PDB
^C:\MP\SRC\UTILS\VBSP\TEXTURES.CPP
C:\MP\SRC\UTILS\VBSP\RELEASE\VC120.PDB
^C:\MP\SRC\UTILS\VBSP\TREE.CPP
C:\MP\SRC\UTILS\VBSP\RELEASE\VC120.PDB
^C:\MP\SRC\UTILS\COMMON\UTILMATLIB.CPP
C:\MP\SRC\UTILS\VBSP\RELEASE\VC120.PDB
^C:\MP\SRC\UTILS\VBSP\VBSP.CPP
C:\MP\SRC\UTILS\VBSP\RELEASE\VC120.PDB
^C:\MP\SRC\UTILS\VBSP\WORLDVERTEXTRANSITIONFIXUP.CPP
C:\MP\SRC\UTILS\VBSP\RELEASE\VC120.PDB
^C:\MP\SRC\UTILS\VBSP\WRITEBSP.CPP
C:\MP\SRC\UTILS\VBSP\RELEASE\VC120.PDB
^C:\MP\SRC\PUBLIC\ZIP_UTILS.CPP
C:\MP\SRC\UTILS\VBSP\RELEASE\VC120.PDB
^C:\MP\SRC\UTILS\COMMON\BSPLIB.CPP
C:\MP\SRC\UTILS\VBSP\RELEASE\VC120.PDB
^C:\MP\SRC\PUBLIC\BUILDDISP.CPP
C:\MP\SRC\UTILS\VBSP\RELEASE\VC120.PDB
^C:\MP\SRC\PUBLIC\CHUNKFILE.CPP
C:\MP\SRC\UTILS\VBSP\RELEASE\VC120.PDB
^C:\MP\SRC\UTILS\COMMON\CMDLIB.CPP
C:\MP\SRC\UTILS\VBSP\RELEASE\VC120.PDB
^C:\MP\SRC\PUBLIC\FILESYSTEM_HELPERS.CPP
C:\MP\SRC\UTILS\VBSP\RELEASE\VC120.PDB
^C:\MP\SRC\PUBLIC\FILESYSTEM_INIT.CPP
C:\MP\SRC\UTILS\VBSP\RELEASE\VC120.PDB
^C:\MP\SRC\UTILS\COMMON\FILESYSTEM_TOOLS.CPP
C:\MP\SRC\UTILS\VBSP\RELEASE\VC120.PDB
^C:\MP\SRC\UTILS\COMMON\MAP_SHARED.CPP
C:\MP\SRC\UTILS\VBSP\RELEASE\VC120.PDB
^C:\MP\SRC\UTILS\COMMON\PACIFIER.CPP
C:\MP\SRC\UTILS\VBSP\RELEASE\VC120.PDB
^C:\MP\SRC\UTILS\COMMON\POLYLIB.CPP
C:\MP\SRC\UTILS\VBSP\RELEASE\VC120.PDB
^C:\MP\SRC\UTILS\COMMON\SCRIPLIB.CPP
C:\MP\SRC\UTILS\VBSP\RELEASE\VC120.PDB
^C:\MP\SRC\UTILS\COMMON\THREADS.CPP
C:\MP\SRC\UTILS\VBSP\RELEASE\VC120.PDB
^C:\MP\SRC\UTILS\COMMON\TOOLS_MINIDUMP.CPP
C:\MP\SRC\UTILS\VBSP\RELEASE\VC120.PDB
