^C:\SP\SRC\PUBLIC\TIER0\POINTEROVERRIDE.ASM
"G:\Software\VS2013\VC\bin\ml.exe" /safeseh /c /Cp /Zi /Fo"Release_dx9_mod_hl2\\pointeroverride.obj" "C:\sp\src\public\tier0\pointeroverride.asm"
^C:\SP\SRC\MATERIALSYSTEM\STDSHADERS\GAME_SHADER_DX9_HL2.VPC
if exist "..\..\devtools\bin\vpc.exe" "..\..\devtools\bin\vpc.exe" -crc2 "game_shader_dx9_hl2.vcxproj"if ERRORLEVEL 1 exit /b 1echo crc_complete > C:\sp\src\materialsystem\stdshaders\game_shader_dx9_hl2.vpc.sentinel
