^C:\SP\SRC\LIB\PUBLIC\MATHLIB.LIB|C:\SP\SRC\LIB\PUBLIC\SHADERLIB.LIB|C:\SP\SRC\LIB\PUBLIC\TIER0.LIB|C:\SP\SRC\LIB\PUBLIC\TIER1.LIB|C:\SP\SRC\LIB\PUBLIC\VSTDLIB.LIB|C:\SP\SRC\MATERIALSYSTEM\STDSHADERS\RELEASE_DX9_MOD_HL2\BASEVSSHADER.OBJ|C:\SP\SRC\MATERIALSYSTEM\STDSHADERS\RELEASE_DX9_MOD_HL2\BLOOM.OBJ|C:\SP\SRC\MATERIALSYSTEM\STDSHADERS\RELEASE_DX9_MOD_HL2\EXAMPLE_MODEL_DX9.OBJ|C:\SP\SRC\MATERIALSYSTEM\STDSHADERS\RELEASE_DX9_MOD_HL2\EXAMPLE_MODEL_DX9_HELPER.OBJ|C:\SP\SRC\MATERIALSYSTEM\STDSHADERS\RELEASE_DX9_MOD_HL2\MEMOVERRIDE.OBJ|C:\SP\SRC\MATERIALSYSTEM\STDSHADERS\RELEASE_DX9_MOD_HL2\POINTEROVERRIDE.OBJ|C:\SP\SRC\MATERIALSYSTEM\STDSHADERS\RELEASE_DX9_MOD_HL2\SCREENSPACE_GENERAL.OBJ
C:\PROGRAM FILES (X86)\MICROSOFT SDKS\WINDOWS\V7.1A\LIB\SHELL32.LIB
C:\PROGRAM FILES (X86)\MICROSOFT SDKS\WINDOWS\V7.1A\LIB\USER32.LIB
C:\PROGRAM FILES (X86)\MICROSOFT SDKS\WINDOWS\V7.1A\LIB\ADVAPI32.LIB
C:\PROGRAM FILES (X86)\MICROSOFT SDKS\WINDOWS\V7.1A\LIB\GDI32.LIB
C:\PROGRAM FILES (X86)\MICROSOFT SDKS\WINDOWS\V7.1A\LIB\COMDLG32.LIB
C:\PROGRAM FILES (X86)\MICROSOFT SDKS\WINDOWS\V7.1A\LIB\OLE32.LIB
C:\PROGRAM FILES (X86)\MICROSOFT SDKS\WINDOWS\V7.1A\LIB\VERSION.LIB
C:\PROGRAM FILES (X86)\MICROSOFT SDKS\WINDOWS\V7.1A\LIB\WINMM.LIB
C:\SP\SRC\MATERIALSYSTEM\STDSHADERS\RELEASE_DX9_MOD_HL2\POINTEROVERRIDE.OBJ
C:\SP\SRC\MATERIALSYSTEM\STDSHADERS\RELEASE_DX9_MOD_HL2\BASEVSSHADER.OBJ
C:\SP\SRC\MATERIALSYSTEM\STDSHADERS\RELEASE_DX9_MOD_HL2\BLOOM.OBJ
C:\SP\SRC\MATERIALSYSTEM\STDSHADERS\RELEASE_DX9_MOD_HL2\EXAMPLE_MODEL_DX9.OBJ
C:\SP\SRC\MATERIALSYSTEM\STDSHADERS\RELEASE_DX9_MOD_HL2\EXAMPLE_MODEL_DX9_HELPER.OBJ
C:\SP\SRC\MATERIALSYSTEM\STDSHADERS\RELEASE_DX9_MOD_HL2\MEMOVERRIDE.OBJ
C:\SP\SRC\MATERIALSYSTEM\STDSHADERS\RELEASE_DX9_MOD_HL2\SCREENSPACE_GENERAL.OBJ
C:\SP\SRC\LIB\PUBLIC\MATHLIB.LIB
C:\SP\SRC\LIB\PUBLIC\SHADERLIB.LIB
C:\SP\SRC\LIB\PUBLIC\TIER0.LIB
C:\SP\SRC\LIB\PUBLIC\TIER1.LIB
C:\SP\SRC\LIB\PUBLIC\VSTDLIB.LIB
C:\WINDOWS\GLOBALIZATION\SORTING\SORTDEFAULT.NLS
G:\SOFTWARE\VS2013\VC\LIB\LIBCPMT.LIB
G:\SOFTWARE\VS2013\VC\LIB\LIBCMT.LIB
G:\SOFTWARE\VS2013\VC\LIB\OLDNAMES.LIB
C:\PROGRAM FILES (X86)\MICROSOFT SDKS\WINDOWS\V7.1A\LIB\UUID.LIB
C:\PROGRAM FILES (X86)\MICROSOFT SDKS\WINDOWS\V7.1A\LIB\KERNEL32.LIB
C:\WINDOWS\SYSTEM32\TZRES.DLL
G:\SOFTWARE\VS2013\VC\BIN\1033\LINKUI.DLL
