"LightmappedGeneric"
{
	"$basetexture" "RealWorldTextures2\Misc\fence_06"
	"$translucent" 1
	"$surfaceprop" "chainlink"
} //Realworld Textures Version 2 - Made by TopHATTwaffle - Please credit me if used! - Contact: www.tophattwaffle.com
