"LightmappedGeneric"
{
	"$basetexture" "RealWorldTextures2\Misc\granite_01"
	"$surfaceprop" "rock"
	"$envmap" "env_cubemap"
	"$envmaptint" "[.8 .8 .8]"
	"$detail" "RealWorldTextures2\detail\dt_stone1"
	"$detailblendfactor" ".4"
	"$detailscale" "7"
} //Realworld Textures Version 2 - Made by TopHATTwaffle - Please credit me if used! - Contact: www.tophattwaffle.com
