"LightmappedGeneric"
{
	"$basetexture" "RealWorldTextures2\Misc\tech_09"
	"$reflectivity" "[1 .4 0]"
} //Realworld Textures Version 2 - Made by TopHATTwaffle - Please credit me if used! - Contact: www.tophattwaffle.com
