"LightmappedGeneric"
{
	"$basetexture" "RealWorldTextures2\Misc\tech_08"
	"$reflectivity" "[1 .1 .3]"
} //Realworld Textures Version 2 - Made by TopHATTwaffle - Please credit me if used! - Contact: www.tophattwaffle.com
