"LightmappedGeneric"
{
	"$basetexture" "home/basement_wall"
	"$surfaceprop" "brick"
	"$detail" "home\noise_detail_01"
	"$detailblendfactor" ".3"
	"$detailscale" "4"
} //Realworld Textures Version 2 - Made by TopHATTwaffle - Please credit me if used! - Contact: www.tophattwaffle.com
