"VertexlitGeneric"
{
	"$basetexture" "models/player/dovahkiin/gauntletsplate"
	"$bumpmap" "models/player/dovahkiin/gauntletsplate_n"

	"$normalmapalphaenvmapmask" 1

	"$phong" 1
	"$phongexponent" 5
	"$phongboost" 5
	"$phongfresnelranges" "[0.05 0.5 1]"
}
